#line 1 "C:\\Keil_v5\\ARM\\Pack\\NordicSemiconductor\\nRF_BLE\\3.0.1\\ble_error_log\\ble_error_log.c"










 

#line 1 "C:\\Keil_v5\\ARM\\ARMCC\\Bin\\..\\include\\string.h"
 
 
 
 




 








 












#line 38 "C:\\Keil_v5\\ARM\\ARMCC\\Bin\\..\\include\\string.h"


  



    typedef unsigned int size_t;    
#line 54 "C:\\Keil_v5\\ARM\\ARMCC\\Bin\\..\\include\\string.h"




extern __declspec(__nothrow) void *memcpy(void * __restrict  ,
                    const void * __restrict  , size_t  ) __attribute__((__nonnull__(1,2)));
   




 
extern __declspec(__nothrow) void *memmove(void *  ,
                    const void *  , size_t  ) __attribute__((__nonnull__(1,2)));
   







 
extern __declspec(__nothrow) char *strcpy(char * __restrict  , const char * __restrict  ) __attribute__((__nonnull__(1,2)));
   




 
extern __declspec(__nothrow) char *strncpy(char * __restrict  , const char * __restrict  , size_t  ) __attribute__((__nonnull__(1,2)));
   





 

extern __declspec(__nothrow) char *strcat(char * __restrict  , const char * __restrict  ) __attribute__((__nonnull__(1,2)));
   




 
extern __declspec(__nothrow) char *strncat(char * __restrict  , const char * __restrict  , size_t  ) __attribute__((__nonnull__(1,2)));
   






 






 

extern __declspec(__nothrow) int memcmp(const void *  , const void *  , size_t  ) __attribute__((__nonnull__(1,2)));
   





 
extern __declspec(__nothrow) int strcmp(const char *  , const char *  ) __attribute__((__nonnull__(1,2)));
   




 
extern __declspec(__nothrow) int strncmp(const char *  , const char *  , size_t  ) __attribute__((__nonnull__(1,2)));
   






 
extern __declspec(__nothrow) int strcasecmp(const char *  , const char *  ) __attribute__((__nonnull__(1,2)));
   





 
extern __declspec(__nothrow) int strncasecmp(const char *  , const char *  , size_t  ) __attribute__((__nonnull__(1,2)));
   






 
extern __declspec(__nothrow) int strcoll(const char *  , const char *  ) __attribute__((__nonnull__(1,2)));
   







 

extern __declspec(__nothrow) size_t strxfrm(char * __restrict  , const char * __restrict  , size_t  ) __attribute__((__nonnull__(2)));
   













 


#line 193 "C:\\Keil_v5\\ARM\\ARMCC\\Bin\\..\\include\\string.h"
extern __declspec(__nothrow) void *memchr(const void *  , int  , size_t  ) __attribute__((__nonnull__(1)));

   





 

#line 209 "C:\\Keil_v5\\ARM\\ARMCC\\Bin\\..\\include\\string.h"
extern __declspec(__nothrow) char *strchr(const char *  , int  ) __attribute__((__nonnull__(1)));

   




 

extern __declspec(__nothrow) size_t strcspn(const char *  , const char *  ) __attribute__((__nonnull__(1,2)));
   




 

#line 232 "C:\\Keil_v5\\ARM\\ARMCC\\Bin\\..\\include\\string.h"
extern __declspec(__nothrow) char *strpbrk(const char *  , const char *  ) __attribute__((__nonnull__(1,2)));

   




 

#line 247 "C:\\Keil_v5\\ARM\\ARMCC\\Bin\\..\\include\\string.h"
extern __declspec(__nothrow) char *strrchr(const char *  , int  ) __attribute__((__nonnull__(1)));

   





 

extern __declspec(__nothrow) size_t strspn(const char *  , const char *  ) __attribute__((__nonnull__(1,2)));
   



 

#line 270 "C:\\Keil_v5\\ARM\\ARMCC\\Bin\\..\\include\\string.h"
extern __declspec(__nothrow) char *strstr(const char *  , const char *  ) __attribute__((__nonnull__(1,2)));

   





 

extern __declspec(__nothrow) char *strtok(char * __restrict  , const char * __restrict  ) __attribute__((__nonnull__(2)));
extern __declspec(__nothrow) char *_strtok_r(char *  , const char *  , char **  ) __attribute__((__nonnull__(2,3)));

extern __declspec(__nothrow) char *strtok_r(char *  , const char *  , char **  ) __attribute__((__nonnull__(2,3)));

   

































 

extern __declspec(__nothrow) void *memset(void *  , int  , size_t  ) __attribute__((__nonnull__(1)));
   



 
extern __declspec(__nothrow) char *strerror(int  );
   





 
extern __declspec(__nothrow) size_t strlen(const char *  ) __attribute__((__nonnull__(1)));
   



 

extern __declspec(__nothrow) size_t strlcpy(char *  , const char *  , size_t  ) __attribute__((__nonnull__(1,2)));
   
















 

extern __declspec(__nothrow) size_t strlcat(char *  , const char *  , size_t  ) __attribute__((__nonnull__(1,2)));
   






















 

extern __declspec(__nothrow) void _membitcpybl(void *  , const void *  , int  , int  , size_t  ) __attribute__((__nonnull__(1,2)));
extern __declspec(__nothrow) void _membitcpybb(void *  , const void *  , int  , int  , size_t  ) __attribute__((__nonnull__(1,2)));
extern __declspec(__nothrow) void _membitcpyhl(void *  , const void *  , int  , int  , size_t  ) __attribute__((__nonnull__(1,2)));
extern __declspec(__nothrow) void _membitcpyhb(void *  , const void *  , int  , int  , size_t  ) __attribute__((__nonnull__(1,2)));
extern __declspec(__nothrow) void _membitcpywl(void *  , const void *  , int  , int  , size_t  ) __attribute__((__nonnull__(1,2)));
extern __declspec(__nothrow) void _membitcpywb(void *  , const void *  , int  , int  , size_t  ) __attribute__((__nonnull__(1,2)));
extern __declspec(__nothrow) void _membitmovebl(void *  , const void *  , int  , int  , size_t  ) __attribute__((__nonnull__(1,2)));
extern __declspec(__nothrow) void _membitmovebb(void *  , const void *  , int  , int  , size_t  ) __attribute__((__nonnull__(1,2)));
extern __declspec(__nothrow) void _membitmovehl(void *  , const void *  , int  , int  , size_t  ) __attribute__((__nonnull__(1,2)));
extern __declspec(__nothrow) void _membitmovehb(void *  , const void *  , int  , int  , size_t  ) __attribute__((__nonnull__(1,2)));
extern __declspec(__nothrow) void _membitmovewl(void *  , const void *  , int  , int  , size_t  ) __attribute__((__nonnull__(1,2)));
extern __declspec(__nothrow) void _membitmovewb(void *  , const void *  , int  , int  , size_t  ) __attribute__((__nonnull__(1,2)));
    














































 







#line 502 "C:\\Keil_v5\\ARM\\ARMCC\\Bin\\..\\include\\string.h"



 

#line 14 "C:\\Keil_v5\\ARM\\Pack\\NordicSemiconductor\\nRF_BLE\\3.0.1\\ble_error_log\\ble_error_log.c"
#line 1 "C:\\Keil_v5\\ARM\\ARMCC\\Bin\\..\\include\\stdint.h"
 
 





 









     
#line 27 "C:\\Keil_v5\\ARM\\ARMCC\\Bin\\..\\include\\stdint.h"
     











#line 46 "C:\\Keil_v5\\ARM\\ARMCC\\Bin\\..\\include\\stdint.h"





 

     

     
typedef   signed          char int8_t;
typedef   signed short     int int16_t;
typedef   signed           int int32_t;
typedef   signed       __int64 int64_t;

     
typedef unsigned          char uint8_t;
typedef unsigned short     int uint16_t;
typedef unsigned           int uint32_t;
typedef unsigned       __int64 uint64_t;

     

     
     
typedef   signed          char int_least8_t;
typedef   signed short     int int_least16_t;
typedef   signed           int int_least32_t;
typedef   signed       __int64 int_least64_t;

     
typedef unsigned          char uint_least8_t;
typedef unsigned short     int uint_least16_t;
typedef unsigned           int uint_least32_t;
typedef unsigned       __int64 uint_least64_t;

     

     
typedef   signed           int int_fast8_t;
typedef   signed           int int_fast16_t;
typedef   signed           int int_fast32_t;
typedef   signed       __int64 int_fast64_t;

     
typedef unsigned           int uint_fast8_t;
typedef unsigned           int uint_fast16_t;
typedef unsigned           int uint_fast32_t;
typedef unsigned       __int64 uint_fast64_t;

     




typedef   signed           int intptr_t;
typedef unsigned           int uintptr_t;


     
typedef   signed     long long intmax_t;
typedef unsigned     long long uintmax_t;




     

     





     





     





     

     





     





     





     

     





     





     





     

     






     






     






     

     


     


     


     

     
#line 216 "C:\\Keil_v5\\ARM\\ARMCC\\Bin\\..\\include\\stdint.h"

     



     






     
    
 



#line 241 "C:\\Keil_v5\\ARM\\ARMCC\\Bin\\..\\include\\stdint.h"

     







     










     











#line 305 "C:\\Keil_v5\\ARM\\ARMCC\\Bin\\..\\include\\stdint.h"






 
#line 15 "C:\\Keil_v5\\ARM\\Pack\\NordicSemiconductor\\nRF_BLE\\3.0.1\\ble_error_log\\ble_error_log.c"
#line 1 "C:\\Keil_v5\\ARM\\ARMCC\\Bin\\..\\include\\stdbool.h"
 






 





#line 25 "C:\\Keil_v5\\ARM\\ARMCC\\Bin\\..\\include\\stdbool.h"



#line 16 "C:\\Keil_v5\\ARM\\Pack\\NordicSemiconductor\\nRF_BLE\\3.0.1\\ble_error_log\\ble_error_log.c"
#line 1 "C:\\Keil_v5\\ARM\\PACK\\NordicSemiconductor\\nRF_DeviceFamilyPack\\8.0.3\\Device\\Include\\nrf51.h"

 








































 





 



 









 

typedef enum {
 
  Reset_IRQn                    = -15,               
  NonMaskableInt_IRQn           = -14,               
  HardFault_IRQn                = -13,               
  SVCall_IRQn                   =  -5,               
  DebugMonitor_IRQn             =  -4,               
  PendSV_IRQn                   =  -2,               
  SysTick_IRQn                  =  -1,               
 
  POWER_CLOCK_IRQn              =   0,               
  RADIO_IRQn                    =   1,               
  UART0_IRQn                    =   2,               
  SPI0_TWI0_IRQn                =   3,               
  SPI1_TWI1_IRQn                =   4,               
  GPIOTE_IRQn                   =   6,               
  ADC_IRQn                      =   7,               
  TIMER0_IRQn                   =   8,               
  TIMER1_IRQn                   =   9,               
  TIMER2_IRQn                   =  10,               
  RTC0_IRQn                     =  11,               
  TEMP_IRQn                     =  12,               
  RNG_IRQn                      =  13,               
  ECB_IRQn                      =  14,               
  CCM_AAR_IRQn                  =  15,               
  WDT_IRQn                      =  16,               
  RTC1_IRQn                     =  17,               
  QDEC_IRQn                     =  18,               
  LPCOMP_IRQn                   =  19,               
  SWI0_IRQn                     =  20,               
  SWI1_IRQn                     =  21,               
  SWI2_IRQn                     =  22,               
  SWI3_IRQn                     =  23,               
  SWI4_IRQn                     =  24,               
  SWI5_IRQn                     =  25                
} IRQn_Type;




 


 
 
 

 




   

#line 1 "C:\\Keil_v5\\ARM\\PACK\\ARM\\CMSIS\\4.3.0\\CMSIS\\Include\\core_cm0.h"
 







 

























 
























 




 


 

 













#line 110 "C:\\Keil_v5\\ARM\\PACK\\ARM\\CMSIS\\4.3.0\\CMSIS\\Include\\core_cm0.h"



 







#line 146 "C:\\Keil_v5\\ARM\\PACK\\ARM\\CMSIS\\4.3.0\\CMSIS\\Include\\core_cm0.h"

#line 148 "C:\\Keil_v5\\ARM\\PACK\\ARM\\CMSIS\\4.3.0\\CMSIS\\Include\\core_cm0.h"
#line 1 "C:\\Keil_v5\\ARM\\PACK\\ARM\\CMSIS\\4.3.0\\CMSIS\\Include\\core_cmInstr.h"
 







 

























 






 



 


 









 







 







 






 








 










 










 












 









 

__attribute__((section(".rev16_text"))) static __inline __asm uint32_t __REV16(uint32_t value)
{
  rev16 r0, r0
  bx lr
}








 

__attribute__((section(".revsh_text"))) static __inline __asm int32_t __REVSH(int32_t value)
{
  revsh r0, r0
  bx lr
}










 










 









 



__attribute__((always_inline)) static __inline uint32_t __RBIT(uint32_t value)
{
  uint32_t result;
  int32_t s = 4   * 8 - 1; 

  result = value;                      
  for (value >>= 1; value; value >>= 1)
  {
    result <<= 1;
    result |= value & 1;
    s--;
  }
  result <<= s;                       
  return(result);
}









 



#line 396 "C:\\Keil_v5\\ARM\\PACK\\ARM\\CMSIS\\4.3.0\\CMSIS\\Include\\core_cmInstr.h"


#line 913 "C:\\Keil_v5\\ARM\\PACK\\ARM\\CMSIS\\4.3.0\\CMSIS\\Include\\core_cmInstr.h"

   

#line 149 "C:\\Keil_v5\\ARM\\PACK\\ARM\\CMSIS\\4.3.0\\CMSIS\\Include\\core_cm0.h"
#line 1 "C:\\Keil_v5\\ARM\\PACK\\ARM\\CMSIS\\4.3.0\\CMSIS\\Include\\core_cmFunc.h"
 







 

























 






 



 


 





 
 






 
static __inline uint32_t __get_CONTROL(void)
{
  register uint32_t __regControl         __asm("control");
  return(__regControl);
}







 
static __inline void __set_CONTROL(uint32_t control)
{
  register uint32_t __regControl         __asm("control");
  __regControl = control;
}







 
static __inline uint32_t __get_IPSR(void)
{
  register uint32_t __regIPSR          __asm("ipsr");
  return(__regIPSR);
}







 
static __inline uint32_t __get_APSR(void)
{
  register uint32_t __regAPSR          __asm("apsr");
  return(__regAPSR);
}







 
static __inline uint32_t __get_xPSR(void)
{
  register uint32_t __regXPSR          __asm("xpsr");
  return(__regXPSR);
}







 
static __inline uint32_t __get_PSP(void)
{
  register uint32_t __regProcessStackPointer  __asm("psp");
  return(__regProcessStackPointer);
}







 
static __inline void __set_PSP(uint32_t topOfProcStack)
{
  register uint32_t __regProcessStackPointer  __asm("psp");
  __regProcessStackPointer = topOfProcStack;
}







 
static __inline uint32_t __get_MSP(void)
{
  register uint32_t __regMainStackPointer     __asm("msp");
  return(__regMainStackPointer);
}







 
static __inline void __set_MSP(uint32_t topOfMainStack)
{
  register uint32_t __regMainStackPointer     __asm("msp");
  __regMainStackPointer = topOfMainStack;
}







 
static __inline uint32_t __get_PRIMASK(void)
{
  register uint32_t __regPriMask         __asm("primask");
  return(__regPriMask);
}







 
static __inline void __set_PRIMASK(uint32_t priMask)
{
  register uint32_t __regPriMask         __asm("primask");
  __regPriMask = (priMask);
}


#line 285 "C:\\Keil_v5\\ARM\\PACK\\ARM\\CMSIS\\4.3.0\\CMSIS\\Include\\core_cmFunc.h"


#line 321 "C:\\Keil_v5\\ARM\\PACK\\ARM\\CMSIS\\4.3.0\\CMSIS\\Include\\core_cmFunc.h"


#line 661 "C:\\Keil_v5\\ARM\\PACK\\ARM\\CMSIS\\4.3.0\\CMSIS\\Include\\core_cmFunc.h"

 

#line 150 "C:\\Keil_v5\\ARM\\PACK\\ARM\\CMSIS\\4.3.0\\CMSIS\\Include\\core_cm0.h"
















 
#line 183 "C:\\Keil_v5\\ARM\\PACK\\ARM\\CMSIS\\4.3.0\\CMSIS\\Include\\core_cm0.h"

 






 
#line 199 "C:\\Keil_v5\\ARM\\PACK\\ARM\\CMSIS\\4.3.0\\CMSIS\\Include\\core_cm0.h"

 










 


 





 


 
typedef union
{
  struct
  {
    uint32_t _reserved0:28;               
    uint32_t V:1;                         
    uint32_t C:1;                         
    uint32_t Z:1;                         
    uint32_t N:1;                         
  } b;                                    
  uint32_t w;                             
} APSR_Type;

 














 
typedef union
{
  struct
  {
    uint32_t ISR:9;                       
    uint32_t _reserved0:23;               
  } b;                                    
  uint32_t w;                             
} IPSR_Type;

 





 
typedef union
{
  struct
  {
    uint32_t ISR:9;                       
    uint32_t _reserved0:15;               
    uint32_t T:1;                         
    uint32_t _reserved1:3;                
    uint32_t V:1;                         
    uint32_t C:1;                         
    uint32_t Z:1;                         
    uint32_t N:1;                         
  } b;                                    
  uint32_t w;                             
} xPSR_Type;

 




















 
typedef union
{
  struct
  {
    uint32_t _reserved0:1;                
    uint32_t SPSEL:1;                     
    uint32_t _reserved1:30;               
  } b;                                    
  uint32_t w;                             
} CONTROL_Type;

 



 






 


 
typedef struct
{
  volatile uint32_t ISER[1];                  
       uint32_t RESERVED0[31];
  volatile uint32_t ICER[1];                  
       uint32_t RSERVED1[31];
  volatile uint32_t ISPR[1];                  
       uint32_t RESERVED2[31];
  volatile uint32_t ICPR[1];                  
       uint32_t RESERVED3[31];
       uint32_t RESERVED4[64];
  volatile uint32_t IP[8];                    
}  NVIC_Type;

 






 


 
typedef struct
{
  volatile const  uint32_t CPUID;                    
  volatile uint32_t ICSR;                     
       uint32_t RESERVED0;
  volatile uint32_t AIRCR;                    
  volatile uint32_t SCR;                      
  volatile uint32_t CCR;                      
       uint32_t RESERVED1;
  volatile uint32_t SHP[2];                   
  volatile uint32_t SHCSR;                    
} SCB_Type;

 















 



























 















 









 






 



 






 


 
typedef struct
{
  volatile uint32_t CTRL;                     
  volatile uint32_t LOAD;                     
  volatile uint32_t VAL;                      
  volatile const  uint32_t CALIB;                    
} SysTick_Type;

 












 



 



 









 








 
 






 

 










 









 

 



 




 

 
 










 
static __inline void NVIC_EnableIRQ(IRQn_Type IRQn)
{
  ((NVIC_Type *) ((0xE000E000UL) + 0x0100UL) )->ISER[0] = (uint32_t)(1UL << (((uint32_t)(int32_t)IRQn) & 0x1FUL));
}







 
static __inline void NVIC_DisableIRQ(IRQn_Type IRQn)
{
  ((NVIC_Type *) ((0xE000E000UL) + 0x0100UL) )->ICER[0] = (uint32_t)(1UL << (((uint32_t)(int32_t)IRQn) & 0x1FUL));
}











 
static __inline uint32_t NVIC_GetPendingIRQ(IRQn_Type IRQn)
{
  return((uint32_t)(((((NVIC_Type *) ((0xE000E000UL) + 0x0100UL) )->ISPR[0] & (1UL << (((uint32_t)(int32_t)IRQn) & 0x1FUL))) != 0UL) ? 1UL : 0UL));
}







 
static __inline void NVIC_SetPendingIRQ(IRQn_Type IRQn)
{
  ((NVIC_Type *) ((0xE000E000UL) + 0x0100UL) )->ISPR[0] = (uint32_t)(1UL << (((uint32_t)(int32_t)IRQn) & 0x1FUL));
}







 
static __inline void NVIC_ClearPendingIRQ(IRQn_Type IRQn)
{
  ((NVIC_Type *) ((0xE000E000UL) + 0x0100UL) )->ICPR[0] = (uint32_t)(1UL << (((uint32_t)(int32_t)IRQn) & 0x1FUL));
}










 
static __inline void NVIC_SetPriority(IRQn_Type IRQn, uint32_t priority)
{
  if((int32_t)(IRQn) < 0) {
    ((SCB_Type *) ((0xE000E000UL) + 0x0D00UL) )->SHP[( (((((uint32_t)(int32_t)(IRQn)) & 0x0FUL)-8UL) >> 2UL) )] = ((uint32_t)(((SCB_Type *) ((0xE000E000UL) + 0x0D00UL) )->SHP[( (((((uint32_t)(int32_t)(IRQn)) & 0x0FUL)-8UL) >> 2UL) )] & ~(0xFFUL << ( ((((uint32_t)(int32_t)(IRQn)) ) & 0x03UL) * 8UL))) |
       (((priority << (8 - 2)) & (uint32_t)0xFFUL) << ( ((((uint32_t)(int32_t)(IRQn)) ) & 0x03UL) * 8UL)));
  }
  else {
    ((NVIC_Type *) ((0xE000E000UL) + 0x0100UL) )->IP[( (((uint32_t)(int32_t)(IRQn)) >> 2UL) )]  = ((uint32_t)(((NVIC_Type *) ((0xE000E000UL) + 0x0100UL) )->IP[( (((uint32_t)(int32_t)(IRQn)) >> 2UL) )]  & ~(0xFFUL << ( ((((uint32_t)(int32_t)(IRQn)) ) & 0x03UL) * 8UL))) |
       (((priority << (8 - 2)) & (uint32_t)0xFFUL) << ( ((((uint32_t)(int32_t)(IRQn)) ) & 0x03UL) * 8UL)));
  }
}












 
static __inline uint32_t NVIC_GetPriority(IRQn_Type IRQn)
{

  if((int32_t)(IRQn) < 0) {
    return((uint32_t)(((((SCB_Type *) ((0xE000E000UL) + 0x0D00UL) )->SHP[( (((((uint32_t)(int32_t)(IRQn)) & 0x0FUL)-8UL) >> 2UL) )] >> ( ((((uint32_t)(int32_t)(IRQn)) ) & 0x03UL) * 8UL) ) & (uint32_t)0xFFUL) >> (8 - 2)));
  }
  else {
    return((uint32_t)(((((NVIC_Type *) ((0xE000E000UL) + 0x0100UL) )->IP[ ( (((uint32_t)(int32_t)(IRQn)) >> 2UL) )] >> ( ((((uint32_t)(int32_t)(IRQn)) ) & 0x03UL) * 8UL) ) & (uint32_t)0xFFUL) >> (8 - 2)));
  }
}





 
static __inline void NVIC_SystemReset(void)
{
  do { __schedule_barrier(); __dsb(0xF); __schedule_barrier(); } while (0);                                                     
 
  ((SCB_Type *) ((0xE000E000UL) + 0x0D00UL) )->AIRCR  = ((0x5FAUL << 16) |
                 (1UL << 2));
  do { __schedule_barrier(); __dsb(0xF); __schedule_barrier(); } while (0);                                                      
  while(1) { __nop(); }                                         
}

 



 




 

















 
static __inline uint32_t SysTick_Config(uint32_t ticks)
{
  if ((ticks - 1UL) > (0xFFFFFFUL )) { return (1UL); }     

  ((SysTick_Type *) ((0xE000E000UL) + 0x0010UL) )->LOAD  = (uint32_t)(ticks - 1UL);                          
  NVIC_SetPriority (SysTick_IRQn, (1UL << 2) - 1UL);  
  ((SysTick_Type *) ((0xE000E000UL) + 0x0010UL) )->VAL   = 0UL;                                              
  ((SysTick_Type *) ((0xE000E000UL) + 0x0010UL) )->CTRL  = (1UL << 2) |
                   (1UL << 1)   |
                   (1UL );                          
  return (0UL);                                                      
}



 










#line 120 "C:\\Keil_v5\\ARM\\PACK\\NordicSemiconductor\\nRF_DeviceFamilyPack\\8.0.3\\Device\\Include\\nrf51.h"
#line 1 "C:\\Keil_v5\\ARM\\PACK\\NordicSemiconductor\\nRF_DeviceFamilyPack\\8.0.3\\Device\\Include\\system_nrf51.h"




























 








#line 39 "C:\\Keil_v5\\ARM\\PACK\\NordicSemiconductor\\nRF_DeviceFamilyPack\\8.0.3\\Device\\Include\\system_nrf51.h"


extern uint32_t SystemCoreClock;     









 
extern void SystemInit (void);









 
extern void SystemCoreClockUpdate (void);





#line 121 "C:\\Keil_v5\\ARM\\PACK\\NordicSemiconductor\\nRF_DeviceFamilyPack\\8.0.3\\Device\\Include\\nrf51.h"


 
 
 




 


 

  #pragma push
  #pragma anon_unions
#line 148 "C:\\Keil_v5\\ARM\\PACK\\NordicSemiconductor\\nRF_DeviceFamilyPack\\8.0.3\\Device\\Include\\nrf51.h"


typedef struct {
  volatile uint32_t  CPU0;                               
  volatile uint32_t  SPIS1;                              
  volatile uint32_t  RADIO;                              
  volatile uint32_t  ECB;                                
  volatile uint32_t  CCM;                                
  volatile uint32_t  AAR;                                
} AMLI_RAMPRI_Type;

typedef struct {
  volatile uint32_t  SCK;                                
  volatile uint32_t  MOSI;                               
  volatile uint32_t  MISO;                               
} SPIM_PSEL_Type;

typedef struct {
  volatile uint32_t  PTR;                                
  volatile uint32_t  MAXCNT;                             
  volatile const  uint32_t  AMOUNT;                             
} SPIM_RXD_Type;

typedef struct {
  volatile uint32_t  PTR;                                
  volatile uint32_t  MAXCNT;                             
  volatile const  uint32_t  AMOUNT;                             
} SPIM_TXD_Type;

typedef struct {
  volatile  uint32_t  EN;                                 
  volatile  uint32_t  DIS;                                
} PPI_TASKS_CHG_Type;

typedef struct {
  volatile uint32_t  EEP;                                
  volatile uint32_t  TEP;                                
} PPI_CH_Type;


 
 
 




 

typedef struct {                                     
  volatile const  uint32_t  RESERVED0[30];
  volatile  uint32_t  TASKS_CONSTLAT;                     
  volatile  uint32_t  TASKS_LOWPWR;                       
  volatile const  uint32_t  RESERVED1[34];
  volatile uint32_t  EVENTS_POFWARN;                     
  volatile const  uint32_t  RESERVED2[126];
  volatile uint32_t  INTENSET;                           
  volatile uint32_t  INTENCLR;                           
  volatile const  uint32_t  RESERVED3[61];
  volatile uint32_t  RESETREAS;                          
  volatile const  uint32_t  RESERVED4[9];
  volatile const  uint32_t  RAMSTATUS;                          
  volatile const  uint32_t  RESERVED5[53];
  volatile  uint32_t  SYSTEMOFF;                          
  volatile const  uint32_t  RESERVED6[3];
  volatile uint32_t  POFCON;                             
  volatile const  uint32_t  RESERVED7[2];
  volatile uint32_t  GPREGRET;                          
 
  volatile const  uint32_t  RESERVED8;
  volatile uint32_t  RAMON;                              
  volatile const  uint32_t  RESERVED9[7];
  volatile uint32_t  RESET;                             
 
  volatile const  uint32_t  RESERVED10[3];
  volatile uint32_t  RAMONB;                             
  volatile const  uint32_t  RESERVED11[8];
  volatile uint32_t  DCDCEN;                             
  volatile const  uint32_t  RESERVED12[291];
  volatile uint32_t  DCDCFORCE;                          
} NRF_POWER_Type;


 
 
 




 

typedef struct {                                     
  volatile  uint32_t  TASKS_HFCLKSTART;                   
  volatile  uint32_t  TASKS_HFCLKSTOP;                    
  volatile  uint32_t  TASKS_LFCLKSTART;                   
  volatile  uint32_t  TASKS_LFCLKSTOP;                    
  volatile  uint32_t  TASKS_CAL;                          
  volatile  uint32_t  TASKS_CTSTART;                      
  volatile  uint32_t  TASKS_CTSTOP;                       
  volatile const  uint32_t  RESERVED0[57];
  volatile uint32_t  EVENTS_HFCLKSTARTED;                
  volatile uint32_t  EVENTS_LFCLKSTARTED;                
  volatile const  uint32_t  RESERVED1;
  volatile uint32_t  EVENTS_DONE;                        
  volatile uint32_t  EVENTS_CTTO;                        
  volatile const  uint32_t  RESERVED2[124];
  volatile uint32_t  INTENSET;                           
  volatile uint32_t  INTENCLR;                           
  volatile const  uint32_t  RESERVED3[63];
  volatile const  uint32_t  HFCLKRUN;                           
  volatile const  uint32_t  HFCLKSTAT;                          
  volatile const  uint32_t  RESERVED4;
  volatile const  uint32_t  LFCLKRUN;                           
  volatile const  uint32_t  LFCLKSTAT;                          
  volatile const  uint32_t  LFCLKSRCCOPY;                      
 
  volatile const  uint32_t  RESERVED5[62];
  volatile uint32_t  LFCLKSRC;                           
  volatile const  uint32_t  RESERVED6[7];
  volatile uint32_t  CTIV;                               
  volatile const  uint32_t  RESERVED7[5];
  volatile uint32_t  XTALFREQ;                           
} NRF_CLOCK_Type;


 
 
 




 

typedef struct {                                     
  volatile const  uint32_t  RESERVED0[330];
  volatile uint32_t  PERR0;                              
  volatile uint32_t  RLENR0;                             
  volatile const  uint32_t  RESERVED1[52];
  volatile uint32_t  PROTENSET0;                         
  volatile uint32_t  PROTENSET1;                         
  volatile uint32_t  DISABLEINDEBUG;                     
  volatile uint32_t  PROTBLOCKSIZE;                      
} NRF_MPU_Type;


 
 
 




 

typedef struct {                                     
  volatile const  uint32_t  RESERVED0[896];
  AMLI_RAMPRI_Type RAMPRI;                           
} NRF_AMLI_Type;


 
 
 




 

typedef struct {                                     
  volatile  uint32_t  TASKS_TXEN;                         
  volatile  uint32_t  TASKS_RXEN;                         
  volatile  uint32_t  TASKS_START;                        
  volatile  uint32_t  TASKS_STOP;                         
  volatile  uint32_t  TASKS_DISABLE;                      
  volatile  uint32_t  TASKS_RSSISTART;                    
  volatile  uint32_t  TASKS_RSSISTOP;                     
  volatile  uint32_t  TASKS_BCSTART;                      
  volatile  uint32_t  TASKS_BCSTOP;                       
  volatile const  uint32_t  RESERVED0[55];
  volatile uint32_t  EVENTS_READY;                       
  volatile uint32_t  EVENTS_ADDRESS;                     
  volatile uint32_t  EVENTS_PAYLOAD;                     
  volatile uint32_t  EVENTS_END;                         
  volatile uint32_t  EVENTS_DISABLED;                    
  volatile uint32_t  EVENTS_DEVMATCH;                    
  volatile uint32_t  EVENTS_DEVMISS;                     
  volatile uint32_t  EVENTS_RSSIEND;                    
 
  volatile const  uint32_t  RESERVED1[2];
  volatile uint32_t  EVENTS_BCMATCH;                     
  volatile const  uint32_t  RESERVED2[53];
  volatile uint32_t  SHORTS;                             
  volatile const  uint32_t  RESERVED3[64];
  volatile uint32_t  INTENSET;                           
  volatile uint32_t  INTENCLR;                           
  volatile const  uint32_t  RESERVED4[61];
  volatile const  uint32_t  CRCSTATUS;                          
  volatile const  uint32_t  RESERVED5;
  volatile const  uint32_t  RXMATCH;                            
  volatile const  uint32_t  RXCRC;                              
  volatile const  uint32_t  DAI;                                
  volatile const  uint32_t  RESERVED6[60];
  volatile uint32_t  PACKETPTR;                          
  volatile uint32_t  FREQUENCY;                          
  volatile uint32_t  TXPOWER;                            
  volatile uint32_t  MODE;                               
  volatile uint32_t  PCNF0;                              
  volatile uint32_t  PCNF1;                              
  volatile uint32_t  BASE0;                              
  volatile uint32_t  BASE1;                              
  volatile uint32_t  PREFIX0;                            
  volatile uint32_t  PREFIX1;                            
  volatile uint32_t  TXADDRESS;                          
  volatile uint32_t  RXADDRESSES;                        
  volatile uint32_t  CRCCNF;                             
  volatile uint32_t  CRCPOLY;                            
  volatile uint32_t  CRCINIT;                            
  volatile uint32_t  TEST;                               
  volatile uint32_t  TIFS;                               
  volatile const  uint32_t  RSSISAMPLE;                         
  volatile const  uint32_t  RESERVED7;
  volatile const  uint32_t  STATE;                              
  volatile uint32_t  DATAWHITEIV;                        
  volatile const  uint32_t  RESERVED8[2];
  volatile uint32_t  BCC;                                
  volatile const  uint32_t  RESERVED9[39];
  volatile uint32_t  DAB[8];                             
  volatile uint32_t  DAP[8];                             
  volatile uint32_t  DACNF;                              
  volatile const  uint32_t  RESERVED10[56];
  volatile uint32_t  OVERRIDE0;                          
  volatile uint32_t  OVERRIDE1;                          
  volatile uint32_t  OVERRIDE2;                          
  volatile uint32_t  OVERRIDE3;                          
  volatile uint32_t  OVERRIDE4;                          
  volatile const  uint32_t  RESERVED11[561];
  volatile uint32_t  POWER;                              
} NRF_RADIO_Type;


 
 
 




 

typedef struct {                                     
  volatile  uint32_t  TASKS_STARTRX;                      
  volatile  uint32_t  TASKS_STOPRX;                       
  volatile  uint32_t  TASKS_STARTTX;                      
  volatile  uint32_t  TASKS_STOPTX;                       
  volatile const  uint32_t  RESERVED0[3];
  volatile  uint32_t  TASKS_SUSPEND;                      
  volatile const  uint32_t  RESERVED1[56];
  volatile uint32_t  EVENTS_CTS;                         
  volatile uint32_t  EVENTS_NCTS;                        
  volatile uint32_t  EVENTS_RXDRDY;                      
  volatile const  uint32_t  RESERVED2[4];
  volatile uint32_t  EVENTS_TXDRDY;                      
  volatile const  uint32_t  RESERVED3;
  volatile uint32_t  EVENTS_ERROR;                       
  volatile const  uint32_t  RESERVED4[7];
  volatile uint32_t  EVENTS_RXTO;                        
  volatile const  uint32_t  RESERVED5[46];
  volatile uint32_t  SHORTS;                             
  volatile const  uint32_t  RESERVED6[64];
  volatile uint32_t  INTENSET;                           
  volatile uint32_t  INTENCLR;                           
  volatile const  uint32_t  RESERVED7[93];
  volatile uint32_t  ERRORSRC;                           
  volatile const  uint32_t  RESERVED8[31];
  volatile uint32_t  ENABLE;                             
  volatile const  uint32_t  RESERVED9;
  volatile uint32_t  PSELRTS;                            
  volatile uint32_t  PSELTXD;                            
  volatile uint32_t  PSELCTS;                            
  volatile uint32_t  PSELRXD;                            
  volatile const  uint32_t  RXD;                               

 
  volatile  uint32_t  TXD;                                
  volatile const  uint32_t  RESERVED10;
  volatile uint32_t  BAUDRATE;                           
  volatile const  uint32_t  RESERVED11[17];
  volatile uint32_t  CONFIG;                             
  volatile const  uint32_t  RESERVED12[675];
  volatile uint32_t  POWER;                              
} NRF_UART_Type;


 
 
 




 

typedef struct {                                     
  volatile const  uint32_t  RESERVED0[66];
  volatile uint32_t  EVENTS_READY;                       
  volatile const  uint32_t  RESERVED1[126];
  volatile uint32_t  INTENSET;                           
  volatile uint32_t  INTENCLR;                           
  volatile const  uint32_t  RESERVED2[125];
  volatile uint32_t  ENABLE;                             
  volatile const  uint32_t  RESERVED3;
  volatile uint32_t  PSELSCK;                            
  volatile uint32_t  PSELMOSI;                           
  volatile uint32_t  PSELMISO;                           
  volatile const  uint32_t  RESERVED4;
  volatile const  uint32_t  RXD;                                
  volatile uint32_t  TXD;                                
  volatile const  uint32_t  RESERVED5;
  volatile uint32_t  FREQUENCY;                          
  volatile const  uint32_t  RESERVED6[11];
  volatile uint32_t  CONFIG;                             
  volatile const  uint32_t  RESERVED7[681];
  volatile uint32_t  POWER;                              
} NRF_SPI_Type;


 
 
 




 

typedef struct {                                     
  volatile  uint32_t  TASKS_STARTRX;                      
  volatile const  uint32_t  RESERVED0;
  volatile  uint32_t  TASKS_STARTTX;                      
  volatile const  uint32_t  RESERVED1[2];
  volatile  uint32_t  TASKS_STOP;                         
  volatile const  uint32_t  RESERVED2;
  volatile  uint32_t  TASKS_SUSPEND;                      
  volatile  uint32_t  TASKS_RESUME;                       
  volatile const  uint32_t  RESERVED3[56];
  volatile uint32_t  EVENTS_STOPPED;                     
  volatile uint32_t  EVENTS_RXDREADY;                    
  volatile const  uint32_t  RESERVED4[4];
  volatile uint32_t  EVENTS_TXDSENT;                     
  volatile const  uint32_t  RESERVED5;
  volatile uint32_t  EVENTS_ERROR;                       
  volatile const  uint32_t  RESERVED6[4];
  volatile uint32_t  EVENTS_BB;                          
  volatile const  uint32_t  RESERVED7[3];
  volatile uint32_t  EVENTS_SUSPENDED;                   
  volatile const  uint32_t  RESERVED8[45];
  volatile uint32_t  SHORTS;                             
  volatile const  uint32_t  RESERVED9[64];
  volatile uint32_t  INTENSET;                           
  volatile uint32_t  INTENCLR;                           
  volatile const  uint32_t  RESERVED10[110];
  volatile uint32_t  ERRORSRC;                           
  volatile const  uint32_t  RESERVED11[14];
  volatile uint32_t  ENABLE;                             
  volatile const  uint32_t  RESERVED12;
  volatile uint32_t  PSELSCL;                            
  volatile uint32_t  PSELSDA;                            
  volatile const  uint32_t  RESERVED13[2];
  volatile const  uint32_t  RXD;                                
  volatile uint32_t  TXD;                                
  volatile const  uint32_t  RESERVED14;
  volatile uint32_t  FREQUENCY;                          
  volatile const  uint32_t  RESERVED15[24];
  volatile uint32_t  ADDRESS;                            
  volatile const  uint32_t  RESERVED16[668];
  volatile uint32_t  POWER;                              
} NRF_TWI_Type;


 
 
 




 

typedef struct {                                     
  volatile const  uint32_t  RESERVED0[9];
  volatile  uint32_t  TASKS_ACQUIRE;                      
  volatile  uint32_t  TASKS_RELEASE;                      
  volatile const  uint32_t  RESERVED1[54];
  volatile uint32_t  EVENTS_END;                         
  volatile const  uint32_t  RESERVED2[8];
  volatile uint32_t  EVENTS_ACQUIRED;                    
  volatile const  uint32_t  RESERVED3[53];
  volatile uint32_t  SHORTS;                             
  volatile const  uint32_t  RESERVED4[64];
  volatile uint32_t  INTENSET;                           
  volatile uint32_t  INTENCLR;                           
  volatile const  uint32_t  RESERVED5[61];
  volatile const  uint32_t  SEMSTAT;                            
  volatile const  uint32_t  RESERVED6[15];
  volatile uint32_t  STATUS;                             
  volatile const  uint32_t  RESERVED7[47];
  volatile uint32_t  ENABLE;                             
  volatile const  uint32_t  RESERVED8;
  volatile uint32_t  PSELSCK;                            
  volatile uint32_t  PSELMISO;                           
  volatile uint32_t  PSELMOSI;                           
  volatile uint32_t  PSELCSN;                            
  volatile const  uint32_t  RESERVED9[7];
  volatile uint32_t  RXDPTR;                             
  volatile uint32_t  MAXRX;                              
  volatile const  uint32_t  AMOUNTRX;                           
  volatile const  uint32_t  RESERVED10;
  volatile uint32_t  TXDPTR;                             
  volatile uint32_t  MAXTX;                              
  volatile const  uint32_t  AMOUNTTX;                           
  volatile const  uint32_t  RESERVED11;
  volatile uint32_t  CONFIG;                             
  volatile const  uint32_t  RESERVED12;
  volatile uint32_t  DEF;                                
  volatile const  uint32_t  RESERVED13[24];
  volatile uint32_t  ORC;                                
  volatile const  uint32_t  RESERVED14[654];
  volatile uint32_t  POWER;                              
} NRF_SPIS_Type;


 
 
 




 

typedef struct {                                     
  volatile const  uint32_t  RESERVED0[4];
  volatile  uint32_t  TASKS_START;                        
  volatile  uint32_t  TASKS_STOP;                         
  volatile const  uint32_t  RESERVED1;
  volatile  uint32_t  TASKS_SUSPEND;                      
  volatile  uint32_t  TASKS_RESUME;                       
  volatile const  uint32_t  RESERVED2[56];
  volatile uint32_t  EVENTS_STOPPED;                     
  volatile const  uint32_t  RESERVED3[2];
  volatile uint32_t  EVENTS_ENDRX;                       
  volatile const  uint32_t  RESERVED4[3];
  volatile uint32_t  EVENTS_ENDTX;                       
  volatile const  uint32_t  RESERVED5[10];
  volatile uint32_t  EVENTS_STARTED;                     
  volatile const  uint32_t  RESERVED6[109];
  volatile uint32_t  INTENSET;                           
  volatile uint32_t  INTENCLR;                           
  volatile const  uint32_t  RESERVED7[125];
  volatile uint32_t  ENABLE;                             
  volatile const  uint32_t  RESERVED8;
  SPIM_PSEL_Type PSEL;                               
  volatile const  uint32_t  RESERVED9[4];
  volatile uint32_t  FREQUENCY;                          
  volatile const  uint32_t  RESERVED10[3];
  SPIM_RXD_Type RXD;                                 
  volatile const  uint32_t  RESERVED11;
  SPIM_TXD_Type TXD;                                 
  volatile const  uint32_t  RESERVED12;
  volatile uint32_t  CONFIG;                             
  volatile const  uint32_t  RESERVED13[26];
  volatile uint32_t  ORC;                                
  volatile const  uint32_t  RESERVED14[654];
  volatile uint32_t  POWER;                              
} NRF_SPIM_Type;


 
 
 




 

typedef struct {                                     
  volatile  uint32_t  TASKS_OUT[4];                       
  volatile const  uint32_t  RESERVED0[60];
  volatile uint32_t  EVENTS_IN[4];                       
  volatile const  uint32_t  RESERVED1[27];
  volatile uint32_t  EVENTS_PORT;                        
  volatile const  uint32_t  RESERVED2[97];
  volatile uint32_t  INTENSET;                           
  volatile uint32_t  INTENCLR;                           
  volatile const  uint32_t  RESERVED3[129];
  volatile uint32_t  CONFIG[4];                          
  volatile const  uint32_t  RESERVED4[695];
  volatile uint32_t  POWER;                              
} NRF_GPIOTE_Type;


 
 
 




 

typedef struct {                                     
  volatile  uint32_t  TASKS_START;                        
  volatile  uint32_t  TASKS_STOP;                         
  volatile const  uint32_t  RESERVED0[62];
  volatile uint32_t  EVENTS_END;                         
  volatile const  uint32_t  RESERVED1[128];
  volatile uint32_t  INTENSET;                           
  volatile uint32_t  INTENCLR;                           
  volatile const  uint32_t  RESERVED2[61];
  volatile const  uint32_t  BUSY;                               
  volatile const  uint32_t  RESERVED3[63];
  volatile uint32_t  ENABLE;                             
  volatile uint32_t  CONFIG;                             
  volatile const  uint32_t  RESULT;                             
  volatile const  uint32_t  RESERVED4[700];
  volatile uint32_t  POWER;                              
} NRF_ADC_Type;


 
 
 




 

typedef struct {                                     
  volatile  uint32_t  TASKS_START;                        
  volatile  uint32_t  TASKS_STOP;                         
  volatile  uint32_t  TASKS_COUNT;                        
  volatile  uint32_t  TASKS_CLEAR;                        
  volatile  uint32_t  TASKS_SHUTDOWN;                     
  volatile const  uint32_t  RESERVED0[11];
  volatile  uint32_t  TASKS_CAPTURE[4];                   
  volatile const  uint32_t  RESERVED1[60];
  volatile uint32_t  EVENTS_COMPARE[4];                  
  volatile const  uint32_t  RESERVED2[44];
  volatile uint32_t  SHORTS;                             
  volatile const  uint32_t  RESERVED3[64];
  volatile uint32_t  INTENSET;                           
  volatile uint32_t  INTENCLR;                           
  volatile const  uint32_t  RESERVED4[126];
  volatile uint32_t  MODE;                               
  volatile uint32_t  BITMODE;                            
  volatile const  uint32_t  RESERVED5;
  volatile uint32_t  PRESCALER;                         
 
  volatile const  uint32_t  RESERVED6[11];
  volatile uint32_t  CC[4];                              
  volatile const  uint32_t  RESERVED7[683];
  volatile uint32_t  POWER;                              
} NRF_TIMER_Type;


 
 
 




 

typedef struct {                                     
  volatile  uint32_t  TASKS_START;                        
  volatile  uint32_t  TASKS_STOP;                         
  volatile  uint32_t  TASKS_CLEAR;                        
  volatile  uint32_t  TASKS_TRIGOVRFLW;                   
  volatile const  uint32_t  RESERVED0[60];
  volatile uint32_t  EVENTS_TICK;                        
  volatile uint32_t  EVENTS_OVRFLW;                      
  volatile const  uint32_t  RESERVED1[14];
  volatile uint32_t  EVENTS_COMPARE[4];                  
  volatile const  uint32_t  RESERVED2[109];
  volatile uint32_t  INTENSET;                           
  volatile uint32_t  INTENCLR;                           
  volatile const  uint32_t  RESERVED3[13];
  volatile uint32_t  EVTEN;                              
  volatile uint32_t  EVTENSET;                          
 
  volatile uint32_t  EVTENCLR;                          
 
  volatile const  uint32_t  RESERVED4[110];
  volatile const  uint32_t  COUNTER;                            
  volatile uint32_t  PRESCALER;                         
 
  volatile const  uint32_t  RESERVED5[13];
  volatile uint32_t  CC[4];                              
  volatile const  uint32_t  RESERVED6[683];
  volatile uint32_t  POWER;                              
} NRF_RTC_Type;


 
 
 




 

typedef struct {                                     
  volatile  uint32_t  TASKS_START;                        
  volatile  uint32_t  TASKS_STOP;                         
  volatile const  uint32_t  RESERVED0[62];
  volatile uint32_t  EVENTS_DATARDY;                     
  volatile const  uint32_t  RESERVED1[128];
  volatile uint32_t  INTENSET;                           
  volatile uint32_t  INTENCLR;                           
  volatile const  uint32_t  RESERVED2[127];
  volatile const  int32_t   TEMP;                               
  volatile const  uint32_t  RESERVED3[700];
  volatile uint32_t  POWER;                              
} NRF_TEMP_Type;


 
 
 




 

typedef struct {                                     
  volatile  uint32_t  TASKS_START;                        
  volatile  uint32_t  TASKS_STOP;                         
  volatile const  uint32_t  RESERVED0[62];
  volatile uint32_t  EVENTS_VALRDY;                      
  volatile const  uint32_t  RESERVED1[63];
  volatile uint32_t  SHORTS;                             
  volatile const  uint32_t  RESERVED2[64];
  volatile uint32_t  INTENSET;                           
  volatile uint32_t  INTENCLR;                           
  volatile const  uint32_t  RESERVED3[126];
  volatile uint32_t  CONFIG;                             
  volatile const  uint32_t  VALUE;                              
  volatile const  uint32_t  RESERVED4[700];
  volatile uint32_t  POWER;                              
} NRF_RNG_Type;


 
 
 




 

typedef struct {                                     
  volatile  uint32_t  TASKS_STARTECB;                    

 
  volatile  uint32_t  TASKS_STOPECB;                     
 
  volatile const  uint32_t  RESERVED0[62];
  volatile uint32_t  EVENTS_ENDECB;                      
  volatile uint32_t  EVENTS_ERRORECB;                   
 
  volatile const  uint32_t  RESERVED1[127];
  volatile uint32_t  INTENSET;                           
  volatile uint32_t  INTENCLR;                           
  volatile const  uint32_t  RESERVED2[126];
  volatile uint32_t  ECBDATAPTR;                         
  volatile const  uint32_t  RESERVED3[701];
  volatile uint32_t  POWER;                              
} NRF_ECB_Type;


 
 
 




 

typedef struct {                                     
  volatile  uint32_t  TASKS_START;                       
 
  volatile const  uint32_t  RESERVED0;
  volatile  uint32_t  TASKS_STOP;                         
  volatile const  uint32_t  RESERVED1[61];
  volatile uint32_t  EVENTS_END;                         
  volatile uint32_t  EVENTS_RESOLVED;                    
  volatile uint32_t  EVENTS_NOTRESOLVED;                 
  volatile const  uint32_t  RESERVED2[126];
  volatile uint32_t  INTENSET;                           
  volatile uint32_t  INTENCLR;                           
  volatile const  uint32_t  RESERVED3[61];
  volatile const  uint32_t  STATUS;                             
  volatile const  uint32_t  RESERVED4[63];
  volatile uint32_t  ENABLE;                             
  volatile uint32_t  NIRK;                               
  volatile uint32_t  IRKPTR;                             
  volatile const  uint32_t  RESERVED5;
  volatile uint32_t  ADDRPTR;                            
  volatile uint32_t  SCRATCHPTR;                        
 
  volatile const  uint32_t  RESERVED6[697];
  volatile uint32_t  POWER;                              
} NRF_AAR_Type;


 
 
 




 

typedef struct {                                     
  volatile  uint32_t  TASKS_KSGEN;                       
 
  volatile  uint32_t  TASKS_CRYPT;                       
 
  volatile  uint32_t  TASKS_STOP;                         
  volatile const  uint32_t  RESERVED0[61];
  volatile uint32_t  EVENTS_ENDKSGEN;                    
  volatile uint32_t  EVENTS_ENDCRYPT;                    
  volatile uint32_t  EVENTS_ERROR;                       
  volatile const  uint32_t  RESERVED1[61];
  volatile uint32_t  SHORTS;                             
  volatile const  uint32_t  RESERVED2[64];
  volatile uint32_t  INTENSET;                           
  volatile uint32_t  INTENCLR;                           
  volatile const  uint32_t  RESERVED3[61];
  volatile const  uint32_t  MICSTATUS;                          
  volatile const  uint32_t  RESERVED4[63];
  volatile uint32_t  ENABLE;                             
  volatile uint32_t  MODE;                               
  volatile uint32_t  CNFPTR;                             
  volatile uint32_t  INPTR;                              
  volatile uint32_t  OUTPTR;                             
  volatile uint32_t  SCRATCHPTR;                        
 
  volatile const  uint32_t  RESERVED5[697];
  volatile uint32_t  POWER;                              
} NRF_CCM_Type;


 
 
 




 

typedef struct {                                     
  volatile  uint32_t  TASKS_START;                        
  volatile const  uint32_t  RESERVED0[63];
  volatile uint32_t  EVENTS_TIMEOUT;                     
  volatile const  uint32_t  RESERVED1[128];
  volatile uint32_t  INTENSET;                           
  volatile uint32_t  INTENCLR;                           
  volatile const  uint32_t  RESERVED2[61];
  volatile const  uint32_t  RUNSTATUS;                          
  volatile const  uint32_t  REQSTATUS;                          
  volatile const  uint32_t  RESERVED3[63];
  volatile uint32_t  CRV;                                
  volatile uint32_t  RREN;                               
  volatile uint32_t  CONFIG;                             
  volatile const  uint32_t  RESERVED4[60];
  volatile  uint32_t  RR[8];                              
  volatile const  uint32_t  RESERVED5[631];
  volatile uint32_t  POWER;                              
} NRF_WDT_Type;


 
 
 




 

typedef struct {                                     
  volatile  uint32_t  TASKS_START;                        
  volatile  uint32_t  TASKS_STOP;                         
  volatile  uint32_t  TASKS_READCLRACC;                  
 
  volatile const  uint32_t  RESERVED0[61];
  volatile uint32_t  EVENTS_SAMPLERDY;                   
  volatile uint32_t  EVENTS_REPORTRDY;                  
 
  volatile uint32_t  EVENTS_ACCOF;                       
  volatile const  uint32_t  RESERVED1[61];
  volatile uint32_t  SHORTS;                             
  volatile const  uint32_t  RESERVED2[64];
  volatile uint32_t  INTENSET;                           
  volatile uint32_t  INTENCLR;                           
  volatile const  uint32_t  RESERVED3[125];
  volatile uint32_t  ENABLE;                             
  volatile uint32_t  LEDPOL;                             
  volatile uint32_t  SAMPLEPER;                          
  volatile const  int32_t   SAMPLE;                             
  volatile uint32_t  REPORTPER;                          
  volatile const  int32_t   ACC;                                
  volatile const  int32_t   ACCREAD;                           
 
  volatile uint32_t  PSELLED;                            
  volatile uint32_t  PSELA;                              
  volatile uint32_t  PSELB;                              
  volatile uint32_t  DBFEN;                              
  volatile const  uint32_t  RESERVED4[5];
  volatile uint32_t  LEDPRE;                             
  volatile const  uint32_t  ACCDBL;                             
  volatile const  uint32_t  ACCDBLREAD;                        
 
  volatile const  uint32_t  RESERVED5[684];
  volatile uint32_t  POWER;                              
} NRF_QDEC_Type;


 
 
 




 

typedef struct {                                     
  volatile  uint32_t  TASKS_START;                        
  volatile  uint32_t  TASKS_STOP;                         
  volatile  uint32_t  TASKS_SAMPLE;                       
  volatile const  uint32_t  RESERVED0[61];
  volatile uint32_t  EVENTS_READY;                       
  volatile uint32_t  EVENTS_DOWN;                        
  volatile uint32_t  EVENTS_UP;                          
  volatile uint32_t  EVENTS_CROSS;                       
  volatile const  uint32_t  RESERVED1[60];
  volatile uint32_t  SHORTS;                             
  volatile const  uint32_t  RESERVED2[64];
  volatile uint32_t  INTENSET;                           
  volatile uint32_t  INTENCLR;                           
  volatile const  uint32_t  RESERVED3[61];
  volatile const  uint32_t  RESULT;                             
  volatile const  uint32_t  RESERVED4[63];
  volatile uint32_t  ENABLE;                             
  volatile uint32_t  PSEL;                               
  volatile uint32_t  REFSEL;                             
  volatile uint32_t  EXTREFSEL;                          
  volatile const  uint32_t  RESERVED5[4];
  volatile uint32_t  ANADETECT;                          
  volatile const  uint32_t  RESERVED6[694];
  volatile uint32_t  POWER;                              
} NRF_LPCOMP_Type;


 
 
 




 

typedef struct {                                     
  volatile const  uint32_t  UNUSED;                             
} NRF_SWI_Type;


 
 
 




 

typedef struct {                                     
  volatile const  uint32_t  RESERVED0[256];
  volatile const  uint32_t  READY;                              
  volatile const  uint32_t  RESERVED1[64];
  volatile uint32_t  CONFIG;                             
  
  union {
    volatile uint32_t  ERASEPCR1;                        
    volatile uint32_t  ERASEPAGE;                        
  };
  volatile uint32_t  ERASEALL;                           
  volatile uint32_t  ERASEPCR0;                          
  volatile uint32_t  ERASEUICR;                          
} NRF_NVMC_Type;


 
 
 




 

typedef struct {                                     
  PPI_TASKS_CHG_Type TASKS_CHG[4];                   
  volatile const  uint32_t  RESERVED0[312];
  volatile uint32_t  CHEN;                               
  volatile uint32_t  CHENSET;                            
  volatile uint32_t  CHENCLR;                            
  volatile const  uint32_t  RESERVED1;
  PPI_CH_Type CH[16];                                
  volatile const  uint32_t  RESERVED2[156];
  volatile uint32_t  CHG[4];                             
} NRF_PPI_Type;


 
 
 




 

typedef struct {                                     
  volatile const  uint32_t  RESERVED0[4];
  volatile const  uint32_t  CODEPAGESIZE;                       
  volatile const  uint32_t  CODESIZE;                           
  volatile const  uint32_t  RESERVED1[4];
  volatile const  uint32_t  CLENR0;                             
  volatile const  uint32_t  PPFC;                               
  volatile const  uint32_t  RESERVED2;
  volatile const  uint32_t  NUMRAMBLOCK;                        
  
  union {
    volatile const  uint32_t  SIZERAMBLOCK[4];                 

 
    volatile const  uint32_t  SIZERAMBLOCKS;                    
  };
  volatile const  uint32_t  RESERVED3[5];
  volatile const  uint32_t  CONFIGID;                           
  volatile const  uint32_t  DEVICEID[2];                        
  volatile const  uint32_t  RESERVED4[6];
  volatile const  uint32_t  ER[4];                              
  volatile const  uint32_t  IR[4];                              
  volatile const  uint32_t  DEVICEADDRTYPE;                     
  volatile const  uint32_t  DEVICEADDR[2];                      
  volatile const  uint32_t  OVERRIDEEN;                         
  volatile const  uint32_t  NRF_1MBIT[5];                      
 
  volatile const  uint32_t  RESERVED5[10];
  volatile const  uint32_t  BLE_1MBIT[5];                      
 
} NRF_FICR_Type;


 
 
 




 

typedef struct {                                     
  volatile uint32_t  CLENR0;                             
  volatile uint32_t  RBPCONF;                            
  volatile uint32_t  XTALFREQ;                           
  volatile const  uint32_t  RESERVED0;
  volatile const  uint32_t  FWID;                               
  
  union {
    volatile uint32_t  NRFFW[15];                        
    volatile uint32_t  BOOTLOADERADDR;                   
  };
  volatile uint32_t  NRFHW[12];                          
  volatile uint32_t  CUSTOMER[32];                       
} NRF_UICR_Type;


 
 
 




 

typedef struct {                                     
  volatile const  uint32_t  RESERVED0[321];
  volatile uint32_t  OUT;                                
  volatile uint32_t  OUTSET;                             
  volatile uint32_t  OUTCLR;                             
  volatile const  uint32_t  IN;                                 
  volatile uint32_t  DIR;                                
  volatile uint32_t  DIRSET;                             
  volatile uint32_t  DIRCLR;                             
  volatile const  uint32_t  RESERVED1[120];
  volatile uint32_t  PIN_CNF[32];                        
} NRF_GPIO_Type;


 

  #pragma pop
#line 1191 "C:\\Keil_v5\\ARM\\PACK\\NordicSemiconductor\\nRF_DeviceFamilyPack\\8.0.3\\Device\\Include\\nrf51.h"




 
 
 

#line 1232 "C:\\Keil_v5\\ARM\\PACK\\NordicSemiconductor\\nRF_DeviceFamilyPack\\8.0.3\\Device\\Include\\nrf51.h"


 
 
 

#line 1271 "C:\\Keil_v5\\ARM\\PACK\\NordicSemiconductor\\nRF_DeviceFamilyPack\\8.0.3\\Device\\Include\\nrf51.h"


   
   
   








#line 17 "C:\\Keil_v5\\ARM\\Pack\\NordicSemiconductor\\nRF_BLE\\3.0.1\\ble_error_log\\ble_error_log.c"
#line 1 "C:\\Keil_v5\\ARM\\Pack\\NordicSemiconductor\\nRF_BLE\\3.0.1\\ble_error_log\\ble_error_log.h"










 











 



#line 28 "C:\\Keil_v5\\ARM\\Pack\\NordicSemiconductor\\nRF_BLE\\3.0.1\\ble_error_log\\ble_error_log.h"
#line 29 "C:\\Keil_v5\\ARM\\Pack\\NordicSemiconductor\\nRF_BLE\\3.0.1\\ble_error_log\\ble_error_log.h"
#line 1 "C:\\Keil_v5\\ARM\\Pack\\NordicSemiconductor\\nRF_Drivers\\3.0.1\\ble_flash\\ble_flash.h"










 
















 




#line 34 "C:\\Keil_v5\\ARM\\Pack\\NordicSemiconductor\\nRF_Drivers\\3.0.1\\ble_flash\\ble_flash.h"
#line 35 "C:\\Keil_v5\\ARM\\Pack\\NordicSemiconductor\\nRF_Drivers\\3.0.1\\ble_flash\\ble_flash.h"
#line 36 "C:\\Keil_v5\\ARM\\Pack\\NordicSemiconductor\\nRF_Drivers\\3.0.1\\ble_flash\\ble_flash.h"











 















 
uint32_t ble_flash_page_write(uint8_t page_num, uint32_t * p_in_array, uint8_t word_count);










 
uint32_t ble_flash_page_read(uint8_t page_num, uint32_t * p_out_array, uint8_t * p_word_count);








 
uint32_t ble_flash_page_erase(uint8_t page_num);









 
uint32_t ble_flash_word_write(uint32_t * p_address, uint32_t value);










 
uint32_t ble_flash_block_write(uint32_t * p_address, uint32_t * p_in_array, uint16_t word_count);







 
uint32_t ble_flash_page_addr(uint8_t page_num, uint32_t ** pp_page_addr);








 
uint16_t ble_flash_crc16_compute(uint8_t * p_data, uint16_t size, uint16_t * p_crc);








 
void ble_flash_on_radio_active_evt(_Bool radio_active);



 
#line 30 "C:\\Keil_v5\\ARM\\Pack\\NordicSemiconductor\\nRF_BLE\\3.0.1\\ble_error_log\\ble_error_log.h"









 
typedef struct
{
    uint16_t                  failure;                            
    uint16_t                  line_number;                        
    uint32_t                  err_code;                           
    uint8_t                   message[128];      
    uint32_t                  stack_info[256 / 4];  
} ble_error_log_data_t;















 
uint32_t ble_error_log_write(uint32_t err_code, const uint8_t * p_message, uint16_t line_number);




 
#line 18 "C:\\Keil_v5\\ARM\\Pack\\NordicSemiconductor\\nRF_BLE\\3.0.1\\ble_error_log\\ble_error_log.c"
#line 1 "C:\\Keil_v5\\ARM\\Pack\\NordicSemiconductor\\nRF_Libraries\\3.0.1\\util\\app_util.h"










 








 




#line 26 "C:\\Keil_v5\\ARM\\Pack\\NordicSemiconductor\\nRF_Libraries\\3.0.1\\util\\app_util.h"
#line 27 "C:\\Keil_v5\\ARM\\Pack\\NordicSemiconductor\\nRF_Libraries\\3.0.1\\util\\app_util.h"
#line 1 "C:\\Keil_v5\\ARM\\PACK\\NordicSemiconductor\\nRF_DeviceFamilyPack\\8.0.3\\Device\\Include\\compiler_abstraction.h"




























 



 


    



    



    



    



    

  
#line 123 "C:\\Keil_v5\\ARM\\PACK\\NordicSemiconductor\\nRF_DeviceFamilyPack\\8.0.3\\Device\\Include\\compiler_abstraction.h"

 

#line 28 "C:\\Keil_v5\\ARM\\Pack\\NordicSemiconductor\\nRF_Libraries\\3.0.1\\util\\app_util.h"

enum
{
    UNIT_0_625_MS = 625,                                 
    UNIT_1_25_MS  = 1250,                                
    UNIT_10_MS    = 10000                                
};






 









 





























 
#line 88 "C:\\Keil_v5\\ARM\\Pack\\NordicSemiconductor\\nRF_Libraries\\3.0.1\\util\\app_util.h"








 
typedef uint8_t uint16_le_t[2];

 
typedef uint8_t uint32_le_t[4];

 
typedef struct
{
    uint16_t  size;                  
    uint8_t * p_data;                
} uint8_array_t;
    






 








 





 












 











 
static __inline uint8_t uint16_encode(uint16_t value, uint8_t * p_encoded_data)
{
    p_encoded_data[0] = (uint8_t) ((value & 0x00FF) >> 0);
    p_encoded_data[1] = (uint8_t) ((value & 0xFF00) >> 8);
    return sizeof(uint16_t);
}
    






 
static __inline uint8_t uint32_encode(uint32_t value, uint8_t * p_encoded_data)
{
    p_encoded_data[0] = (uint8_t) ((value & 0x000000FF) >> 0);
    p_encoded_data[1] = (uint8_t) ((value & 0x0000FF00) >> 8);
    p_encoded_data[2] = (uint8_t) ((value & 0x00FF0000) >> 16);
    p_encoded_data[3] = (uint8_t) ((value & 0xFF000000) >> 24);
    return sizeof(uint32_t);
}






 
static __inline uint16_t uint16_decode(const uint8_t * p_encoded_data)
{
        return ( (((uint16_t)((uint8_t *)p_encoded_data)[0])) | 
                 (((uint16_t)((uint8_t *)p_encoded_data)[1]) << 8 ));
}






 
static __inline uint32_t uint32_decode(const uint8_t * p_encoded_data)
{
    return ( (((uint32_t)((uint8_t *)p_encoded_data)[0]) << 0)  |
             (((uint32_t)((uint8_t *)p_encoded_data)[1]) << 8)  |
             (((uint32_t)((uint8_t *)p_encoded_data)[2]) << 16) |
             (((uint32_t)((uint8_t *)p_encoded_data)[3]) << 24 ));
}
    



















 
static __inline uint8_t battery_level_in_percent(const uint16_t mvolts)
{
    uint8_t battery_level;

    if (mvolts >= 3000)
    {
        battery_level = 100;
    }
    else if (mvolts > 2900)
    {
        battery_level = 100 - ((3000 - mvolts) * 58) / 100;
    }
    else if (mvolts > 2740)
    {
        battery_level = 42 - ((2900 - mvolts) * 24) / 160;
    }
    else if (mvolts > 2440)
    {
        battery_level = 18 - ((2740 - mvolts) * 12) / 300;
    }
    else if (mvolts > 2100)
    {
        battery_level = 6 - ((2440 - mvolts) * 6) / 340;
    }
    else
    {
        battery_level = 0;
    }

    return battery_level;
}






 
static __inline _Bool is_word_aligned(void * p)
{
    return (((uintptr_t)p & 0x03) == 0);
}



 
#line 19 "C:\\Keil_v5\\ARM\\Pack\\NordicSemiconductor\\nRF_BLE\\3.0.1\\ble_error_log\\ble_error_log.c"
#line 1 "C:\\Keil_v5\\ARM\\Pack\\NordicSemiconductor\\nRF_Libraries\\3.0.1\\util\\app_error.h"










 
 







 




#line 26 "C:\\Keil_v5\\ARM\\Pack\\NordicSemiconductor\\nRF_Libraries\\3.0.1\\util\\app_error.h"
#line 27 "C:\\Keil_v5\\ARM\\Pack\\NordicSemiconductor\\nRF_Libraries\\3.0.1\\util\\app_error.h"
#line 1 "C:\\Keil_v5\\ARM\\Pack\\NordicSemiconductor\\nRF_SoftDevice_S310\\3.0.0\\headers\\nrf_error.h"


































 
 




 

 




 




 

#line 73 "C:\\Keil_v5\\ARM\\Pack\\NordicSemiconductor\\nRF_SoftDevice_S310\\3.0.0\\headers\\nrf_error.h"





 
#line 28 "C:\\Keil_v5\\ARM\\Pack\\NordicSemiconductor\\nRF_Libraries\\3.0.1\\util\\app_error.h"






 
void app_error_handler(uint32_t error_code, uint32_t line_num, const uint8_t * p_file_name);




 
#line 54 "C:\\Keil_v5\\ARM\\Pack\\NordicSemiconductor\\nRF_Libraries\\3.0.1\\util\\app_error.h"



     
#line 67 "C:\\Keil_v5\\ARM\\Pack\\NordicSemiconductor\\nRF_Libraries\\3.0.1\\util\\app_error.h"
    



 
#line 81 "C:\\Keil_v5\\ARM\\Pack\\NordicSemiconductor\\nRF_Libraries\\3.0.1\\util\\app_error.h"



 
#line 20 "C:\\Keil_v5\\ARM\\Pack\\NordicSemiconductor\\nRF_BLE\\3.0.1\\ble_error_log\\ble_error_log.c"
#line 1 "C:\\Keil_v5\\ARM\\Pack\\NordicSemiconductor\\nRF_Drivers\\3.0.1\\hal\\nrf_gpio.h"










 



#line 16 "C:\\Keil_v5\\ARM\\Pack\\NordicSemiconductor\\nRF_Drivers\\3.0.1\\hal\\nrf_gpio.h"
#line 1 "C:\\Keil_v5\\ARM\\PACK\\NordicSemiconductor\\nRF_DeviceFamilyPack\\8.0.3\\Device\\Include\\nrf51_bitfields.h"




























 



 

 
 

 
 

 






 






 






 
 

 






 






 






 
 

 



 
 

 





 
 

 



 
 

 






 
 

 
 

 






 
 

 






 
 

 





 
 

 





 
 

 






 
#line 182 "C:\\Keil_v5\\ARM\\PACK\\NordicSemiconductor\\nRF_DeviceFamilyPack\\8.0.3\\Device\\Include\\nrf51_bitfields.h"

 
#line 190 "C:\\Keil_v5\\ARM\\PACK\\NordicSemiconductor\\nRF_DeviceFamilyPack\\8.0.3\\Device\\Include\\nrf51_bitfields.h"

 
#line 199 "C:\\Keil_v5\\ARM\\PACK\\NordicSemiconductor\\nRF_DeviceFamilyPack\\8.0.3\\Device\\Include\\nrf51_bitfields.h"

 






 
 

 



 
 

 






 
 

 
 

 
#line 241 "C:\\Keil_v5\\ARM\\PACK\\NordicSemiconductor\\nRF_DeviceFamilyPack\\8.0.3\\Device\\Include\\nrf51_bitfields.h"

 
#line 253 "C:\\Keil_v5\\ARM\\PACK\\NordicSemiconductor\\nRF_DeviceFamilyPack\\8.0.3\\Device\\Include\\nrf51_bitfields.h"

 
#line 265 "C:\\Keil_v5\\ARM\\PACK\\NordicSemiconductor\\nRF_DeviceFamilyPack\\8.0.3\\Device\\Include\\nrf51_bitfields.h"

 
#line 277 "C:\\Keil_v5\\ARM\\PACK\\NordicSemiconductor\\nRF_DeviceFamilyPack\\8.0.3\\Device\\Include\\nrf51_bitfields.h"

 
#line 289 "C:\\Keil_v5\\ARM\\PACK\\NordicSemiconductor\\nRF_DeviceFamilyPack\\8.0.3\\Device\\Include\\nrf51_bitfields.h"

 
#line 301 "C:\\Keil_v5\\ARM\\PACK\\NordicSemiconductor\\nRF_DeviceFamilyPack\\8.0.3\\Device\\Include\\nrf51_bitfields.h"

 
#line 313 "C:\\Keil_v5\\ARM\\PACK\\NordicSemiconductor\\nRF_DeviceFamilyPack\\8.0.3\\Device\\Include\\nrf51_bitfields.h"

 
#line 325 "C:\\Keil_v5\\ARM\\PACK\\NordicSemiconductor\\nRF_DeviceFamilyPack\\8.0.3\\Device\\Include\\nrf51_bitfields.h"

 
 

 
#line 340 "C:\\Keil_v5\\ARM\\PACK\\NordicSemiconductor\\nRF_DeviceFamilyPack\\8.0.3\\Device\\Include\\nrf51_bitfields.h"

 
#line 352 "C:\\Keil_v5\\ARM\\PACK\\NordicSemiconductor\\nRF_DeviceFamilyPack\\8.0.3\\Device\\Include\\nrf51_bitfields.h"

 
#line 364 "C:\\Keil_v5\\ARM\\PACK\\NordicSemiconductor\\nRF_DeviceFamilyPack\\8.0.3\\Device\\Include\\nrf51_bitfields.h"

 
#line 376 "C:\\Keil_v5\\ARM\\PACK\\NordicSemiconductor\\nRF_DeviceFamilyPack\\8.0.3\\Device\\Include\\nrf51_bitfields.h"

 
#line 388 "C:\\Keil_v5\\ARM\\PACK\\NordicSemiconductor\\nRF_DeviceFamilyPack\\8.0.3\\Device\\Include\\nrf51_bitfields.h"

 
#line 400 "C:\\Keil_v5\\ARM\\PACK\\NordicSemiconductor\\nRF_DeviceFamilyPack\\8.0.3\\Device\\Include\\nrf51_bitfields.h"

 
#line 412 "C:\\Keil_v5\\ARM\\PACK\\NordicSemiconductor\\nRF_DeviceFamilyPack\\8.0.3\\Device\\Include\\nrf51_bitfields.h"

 
#line 424 "C:\\Keil_v5\\ARM\\PACK\\NordicSemiconductor\\nRF_DeviceFamilyPack\\8.0.3\\Device\\Include\\nrf51_bitfields.h"

 
 

 
#line 439 "C:\\Keil_v5\\ARM\\PACK\\NordicSemiconductor\\nRF_DeviceFamilyPack\\8.0.3\\Device\\Include\\nrf51_bitfields.h"

 
#line 451 "C:\\Keil_v5\\ARM\\PACK\\NordicSemiconductor\\nRF_DeviceFamilyPack\\8.0.3\\Device\\Include\\nrf51_bitfields.h"

 
#line 463 "C:\\Keil_v5\\ARM\\PACK\\NordicSemiconductor\\nRF_DeviceFamilyPack\\8.0.3\\Device\\Include\\nrf51_bitfields.h"

 
#line 475 "C:\\Keil_v5\\ARM\\PACK\\NordicSemiconductor\\nRF_DeviceFamilyPack\\8.0.3\\Device\\Include\\nrf51_bitfields.h"

 
#line 487 "C:\\Keil_v5\\ARM\\PACK\\NordicSemiconductor\\nRF_DeviceFamilyPack\\8.0.3\\Device\\Include\\nrf51_bitfields.h"

 
#line 499 "C:\\Keil_v5\\ARM\\PACK\\NordicSemiconductor\\nRF_DeviceFamilyPack\\8.0.3\\Device\\Include\\nrf51_bitfields.h"

 
#line 511 "C:\\Keil_v5\\ARM\\PACK\\NordicSemiconductor\\nRF_DeviceFamilyPack\\8.0.3\\Device\\Include\\nrf51_bitfields.h"

 
#line 523 "C:\\Keil_v5\\ARM\\PACK\\NordicSemiconductor\\nRF_DeviceFamilyPack\\8.0.3\\Device\\Include\\nrf51_bitfields.h"

 
 

 
#line 538 "C:\\Keil_v5\\ARM\\PACK\\NordicSemiconductor\\nRF_DeviceFamilyPack\\8.0.3\\Device\\Include\\nrf51_bitfields.h"

 
#line 550 "C:\\Keil_v5\\ARM\\PACK\\NordicSemiconductor\\nRF_DeviceFamilyPack\\8.0.3\\Device\\Include\\nrf51_bitfields.h"

 
#line 562 "C:\\Keil_v5\\ARM\\PACK\\NordicSemiconductor\\nRF_DeviceFamilyPack\\8.0.3\\Device\\Include\\nrf51_bitfields.h"

 
#line 574 "C:\\Keil_v5\\ARM\\PACK\\NordicSemiconductor\\nRF_DeviceFamilyPack\\8.0.3\\Device\\Include\\nrf51_bitfields.h"

 
#line 586 "C:\\Keil_v5\\ARM\\PACK\\NordicSemiconductor\\nRF_DeviceFamilyPack\\8.0.3\\Device\\Include\\nrf51_bitfields.h"

 
#line 598 "C:\\Keil_v5\\ARM\\PACK\\NordicSemiconductor\\nRF_DeviceFamilyPack\\8.0.3\\Device\\Include\\nrf51_bitfields.h"

 
#line 610 "C:\\Keil_v5\\ARM\\PACK\\NordicSemiconductor\\nRF_DeviceFamilyPack\\8.0.3\\Device\\Include\\nrf51_bitfields.h"

 
#line 622 "C:\\Keil_v5\\ARM\\PACK\\NordicSemiconductor\\nRF_DeviceFamilyPack\\8.0.3\\Device\\Include\\nrf51_bitfields.h"

 
 

 
#line 637 "C:\\Keil_v5\\ARM\\PACK\\NordicSemiconductor\\nRF_DeviceFamilyPack\\8.0.3\\Device\\Include\\nrf51_bitfields.h"

 
#line 649 "C:\\Keil_v5\\ARM\\PACK\\NordicSemiconductor\\nRF_DeviceFamilyPack\\8.0.3\\Device\\Include\\nrf51_bitfields.h"

 
#line 661 "C:\\Keil_v5\\ARM\\PACK\\NordicSemiconductor\\nRF_DeviceFamilyPack\\8.0.3\\Device\\Include\\nrf51_bitfields.h"

 
#line 673 "C:\\Keil_v5\\ARM\\PACK\\NordicSemiconductor\\nRF_DeviceFamilyPack\\8.0.3\\Device\\Include\\nrf51_bitfields.h"

 
#line 685 "C:\\Keil_v5\\ARM\\PACK\\NordicSemiconductor\\nRF_DeviceFamilyPack\\8.0.3\\Device\\Include\\nrf51_bitfields.h"

 
#line 697 "C:\\Keil_v5\\ARM\\PACK\\NordicSemiconductor\\nRF_DeviceFamilyPack\\8.0.3\\Device\\Include\\nrf51_bitfields.h"

 
#line 709 "C:\\Keil_v5\\ARM\\PACK\\NordicSemiconductor\\nRF_DeviceFamilyPack\\8.0.3\\Device\\Include\\nrf51_bitfields.h"

 
#line 721 "C:\\Keil_v5\\ARM\\PACK\\NordicSemiconductor\\nRF_DeviceFamilyPack\\8.0.3\\Device\\Include\\nrf51_bitfields.h"

 
 

 
#line 736 "C:\\Keil_v5\\ARM\\PACK\\NordicSemiconductor\\nRF_DeviceFamilyPack\\8.0.3\\Device\\Include\\nrf51_bitfields.h"

 
#line 748 "C:\\Keil_v5\\ARM\\PACK\\NordicSemiconductor\\nRF_DeviceFamilyPack\\8.0.3\\Device\\Include\\nrf51_bitfields.h"

 
#line 760 "C:\\Keil_v5\\ARM\\PACK\\NordicSemiconductor\\nRF_DeviceFamilyPack\\8.0.3\\Device\\Include\\nrf51_bitfields.h"

 
#line 772 "C:\\Keil_v5\\ARM\\PACK\\NordicSemiconductor\\nRF_DeviceFamilyPack\\8.0.3\\Device\\Include\\nrf51_bitfields.h"

 
#line 784 "C:\\Keil_v5\\ARM\\PACK\\NordicSemiconductor\\nRF_DeviceFamilyPack\\8.0.3\\Device\\Include\\nrf51_bitfields.h"

 
#line 796 "C:\\Keil_v5\\ARM\\PACK\\NordicSemiconductor\\nRF_DeviceFamilyPack\\8.0.3\\Device\\Include\\nrf51_bitfields.h"

 
#line 808 "C:\\Keil_v5\\ARM\\PACK\\NordicSemiconductor\\nRF_DeviceFamilyPack\\8.0.3\\Device\\Include\\nrf51_bitfields.h"

 
#line 820 "C:\\Keil_v5\\ARM\\PACK\\NordicSemiconductor\\nRF_DeviceFamilyPack\\8.0.3\\Device\\Include\\nrf51_bitfields.h"


 
 

 
 

 





 
 

 






 






 






 
 

 






 






 






 
 

 





 
 

 





 
 

 





 
 

 






 
 

 
 

 






 






 






 






 
 

 






 






 






 






 
 

 





 
 

 





 





 
 

 





 
 

 





 






 
 

 






 
 

 






 
 

 



 
 

 






 
 

 
 

 






 






 
 

 






 






 
 

 






 
 

 
 

 





 
 

 



 



 
 

 





 
 

 





 






 
 

 
 

 





 





 





 





 





 





 





 





 





 





 





 





 





 





 





 





 





 





 





 





 





 





 





 





 





 





 





 





 





 





 





 





 
 

 






 






 






 






 






 






 






 






 






 






 






 






 






 






 






 






 






 






 






 






 






 






 






 






 






 






 






 






 






 






 






 






 
 

 






 






 






 






 






 






 






 






 






 






 






 






 






 






 






 






 






 






 






 






 






 






 






 






 






 






 






 






 






 






 






 






 
 

 





 





 





 





 





 





 





 





 





 





 





 





 





 





 





 





 





 





 





 





 





 





 





 





 





 





 





 





 





 





 





 





 
 

 





 





 





 





 





 





 





 





 





 





 





 





 





 





 





 





 





 





 





 





 





 





 





 





 





 





 





 





 





 





 





 





 
 

 






 






 






 






 






 






 






 






 






 






 






 






 






 






 






 






 






 






 






 






 






 






 






 






 






 






 






 






 






 






 






 






 
 

 






 






 






 






 






 






 






 






 






 






 






 






 






 






 






 






 






 






 






 






 






 






 






 






 






 






 






 






 






 






 






 






 
 

 






 
#line 2682 "C:\\Keil_v5\\ARM\\PACK\\NordicSemiconductor\\nRF_DeviceFamilyPack\\8.0.3\\Device\\Include\\nrf51_bitfields.h"

 






 





 






 
 

 
 

 






 






 






 






 






 
 

 






 






 






 






 






 
 

 





 
#line 2798 "C:\\Keil_v5\\ARM\\PACK\\NordicSemiconductor\\nRF_DeviceFamilyPack\\8.0.3\\Device\\Include\\nrf51_bitfields.h"

 



 






 
 

 






 
 

 
 

 





 





 





 





 





 
 

 






 






 






 






 
 

 






 






 






 






 
 

 





 
 

 





 
 

 
#line 2950 "C:\\Keil_v5\\ARM\\PACK\\NordicSemiconductor\\nRF_DeviceFamilyPack\\8.0.3\\Device\\Include\\nrf51_bitfields.h"

 
 

 
#line 2965 "C:\\Keil_v5\\ARM\\PACK\\NordicSemiconductor\\nRF_DeviceFamilyPack\\8.0.3\\Device\\Include\\nrf51_bitfields.h"

 
 

 





 
 

 






 
 

 






 
 

 
 

 





 





 





 





 





 





 





 





 





 





 





 





 





 





 





 





 





 





 





 





 





 
 

 






 






 






 






 






 






 






 






 






 






 






 






 






 






 






 






 






 






 






 






 






 






 






 






 






 






 






 






 






 






 






 






 
 

 






 






 






 






 






 






 






 






 






 






 






 






 






 






 






 






 






 






 






 






 






 






 






 






 






 






 






 






 






 






 






 






 
 

 





 
 

 





 
 

 
 

 





 
 

 






 
 

 





 
 

 






 
 

 
 

 






 
 

 






 
 

 





 





 





 





 





 





 





 
 

 





 





 





 





 
 

 




 
 

 
#line 3753 "C:\\Keil_v5\\ARM\\PACK\\NordicSemiconductor\\nRF_DeviceFamilyPack\\8.0.3\\Device\\Include\\nrf51_bitfields.h"

 





 
 

 



 
 

 





 





 





 





 
 

 





 
 

 





 





 





 





 
 

 





 
 

 





 






 
 

 
 

 





 





 





 





 





 





 





 





 





 





 





 





 





 





 





 





 





 





 





 





 





 





 





 





 





 





 





 





 
 

 






 






 






 






 






 






 






 






 






 






 






 






 






 






 






 






 






 






 






 






 






 






 






 






 






 






 






 






 
 

 






 






 






 






 






 






 






 






 






 






 






 






 






 






 






 






 






 






 






 






 






 






 






 






 






 






 






 






 
 

 





 





 





 





 





 





 





 





 





 





 





 





 





 





 





 





 





 





 





 





 





 





 





 





 





 





 





 






 
 

 
 

 





 





 
 

 






 






 






 
 

 






 






 






 
 

 





 
 

 





 
 

 
#line 4697 "C:\\Keil_v5\\ARM\\PACK\\NordicSemiconductor\\nRF_DeviceFamilyPack\\8.0.3\\Device\\Include\\nrf51_bitfields.h"

 
 

 



 
 

 
#line 4719 "C:\\Keil_v5\\ARM\\PACK\\NordicSemiconductor\\nRF_DeviceFamilyPack\\8.0.3\\Device\\Include\\nrf51_bitfields.h"

 
 

 





 
 

 



 
 

 



 
 

 



 
 

 






 
 

 
 

 





 





 





 





 





 





 





 





 
 

 






 






 






 






 






 






 






 






 






 
 

 






 






 






 






 






 






 






 






 






 
 

 





 
 

 



 
 

 



 
 

 



 
 

 



 
 

 
#line 4997 "C:\\Keil_v5\\ARM\\PACK\\NordicSemiconductor\\nRF_DeviceFamilyPack\\8.0.3\\Device\\Include\\nrf51_bitfields.h"

 
 

 
#line 5008 "C:\\Keil_v5\\ARM\\PACK\\NordicSemiconductor\\nRF_DeviceFamilyPack\\8.0.3\\Device\\Include\\nrf51_bitfields.h"

 
 

 



 



 



 
 

 





 





 



 



 



 
 

 



 



 



 



 
 

 



 



 



 



 
 

 



 
 

 





 





 





 





 





 





 





 





 
 

 





 
#line 5163 "C:\\Keil_v5\\ARM\\PACK\\NordicSemiconductor\\nRF_DeviceFamilyPack\\8.0.3\\Device\\Include\\nrf51_bitfields.h"

 
 

 



 
 

 



 
 

 





 





 
 

 



 
 

 



 
 

 
#line 5222 "C:\\Keil_v5\\ARM\\PACK\\NordicSemiconductor\\nRF_DeviceFamilyPack\\8.0.3\\Device\\Include\\nrf51_bitfields.h"

 
 

 



 
 

 



 
 

 



 



 



 



 



 



 



 



 





 





 





 





 





 





 





 





 
 

 



 
 

 



 
 

 



 
 

 



 
 

 





 



 
 

 






 
 

 
 

 





 
 

 






 
 

 






 
 

 





 
 

 



 
 

 






 
 

 
 

 






 






 






 






 






 






 
 

 






 






 






 






 






 






 
 

 





 





 





 





 





 





 
 

 






 






 






 






 






 






 
 

 






 






 






 






 






 






 
 

 



 
 

 



 
 

 



 
 

 






 
 

 
 

 






 
 

 






 
 

 





 
 

 



 
 

 



 
 

 
#line 5741 "C:\\Keil_v5\\ARM\\PACK\\NordicSemiconductor\\nRF_DeviceFamilyPack\\8.0.3\\Device\\Include\\nrf51_bitfields.h"

 
 

 





 





 





 
 

 






 
 

 
 

 






 






 






 






 
 

 






 






 






 






 
 

 





 
 

 
#line 5860 "C:\\Keil_v5\\ARM\\PACK\\NordicSemiconductor\\nRF_DeviceFamilyPack\\8.0.3\\Device\\Include\\nrf51_bitfields.h"

 
 

 



 
 

 



 
 

 



 
 

 



 
 

 



 
 

 



 
 

 





 





 





 
 

 



 
 

 






 
 

 
 

 





 
 

 






 






 
 

 






 






 
 

 
#line 5997 "C:\\Keil_v5\\ARM\\PACK\\NordicSemiconductor\\nRF_DeviceFamilyPack\\8.0.3\\Device\\Include\\nrf51_bitfields.h"

 
 

 






 






 
 

 





 
 

 



 
 

 



 
 

 



 
 

 



 
 

 





 





 





 
 

 



 
 

 



 
 

 






 
 

 
 

 






 
 

 






 
 

 






 
 

 
 

 





 





 





 





 





 





 





 





 
 

 






 






 






 






 
 

 






 






 






 






 
 

 





 
 

 
#line 6265 "C:\\Keil_v5\\ARM\\PACK\\NordicSemiconductor\\nRF_DeviceFamilyPack\\8.0.3\\Device\\Include\\nrf51_bitfields.h"

 
 

 



 
 

 






 
 

 
 

 





 





 
 

 






 






 






 






 






 






 
 

 






 






 






 






 






 






 
 

 






 






 






 
 

 





 
 

 



 
 

 



 
 

 






 
 

 



 
 

 






 
 

 
 

 





 





 
 

 






 






 






 






 






 






 
 

 






 






 






 






 






 






 
 

 






 






 






 






 
 

 





 
 

 



 
 

 



 
 

 
#line 6649 "C:\\Keil_v5\\ARM\\PACK\\NordicSemiconductor\\nRF_DeviceFamilyPack\\8.0.3\\Device\\Include\\nrf51_bitfields.h"

 
 

 





 





 
 

 






 
 

 
 

 





 





 
 

 





 
 

 




 
 

 
 

 






 
 

 






 
 

 





 
 

 





 





 





 





 





 





 





 





 
 

 





 





 





 





 





 





 





 





 
 

 





 





 
 

 




 
 

 






 
#line 17 "C:\\Keil_v5\\ARM\\Pack\\NordicSemiconductor\\nRF_Drivers\\3.0.1\\hal\\nrf_gpio.h"
#line 18 "C:\\Keil_v5\\ARM\\Pack\\NordicSemiconductor\\nRF_Drivers\\3.0.1\\hal\\nrf_gpio.h"












 






 
typedef enum
{
    NRF_GPIO_PORT_DIR_OUTPUT,       
    NRF_GPIO_PORT_DIR_INPUT         
} nrf_gpio_port_dir_t;




 
typedef enum
{
    NRF_GPIO_PIN_DIR_INPUT,   
    NRF_GPIO_PIN_DIR_OUTPUT   
} nrf_gpio_pin_dir_t;




 
typedef enum
{
    NRF_GPIO_PORT_SELECT_PORT0 = 0,           
    NRF_GPIO_PORT_SELECT_PORT1,               
    NRF_GPIO_PORT_SELECT_PORT2,               
    NRF_GPIO_PORT_SELECT_PORT3,               
} nrf_gpio_port_select_t;




 
typedef enum
{
    NRF_GPIO_PIN_NOPULL   = (0x00UL),                 
    NRF_GPIO_PIN_PULLDOWN = (0x01UL),                 
    NRF_GPIO_PIN_PULLUP   = (0x03UL),                   
} nrf_gpio_pin_pull_t;




 
typedef enum
{
    NRF_GPIO_PIN_NOSENSE    = (0x00UL),              
    NRF_GPIO_PIN_SENSE_LOW  = (0x03UL),                   
    NRF_GPIO_PIN_SENSE_HIGH = (0x02UL),                  
} nrf_gpio_pin_sense_t;











 
static __inline void nrf_gpio_range_cfg_output(uint32_t pin_range_start, uint32_t pin_range_end);













 
static __inline void nrf_gpio_range_cfg_input(uint32_t pin_range_start, uint32_t pin_range_end, nrf_gpio_pin_pull_t pull_config);








 
static __inline void nrf_gpio_cfg_output(uint32_t pin_number);









 
static __inline void nrf_gpio_cfg_input(uint32_t pin_number, nrf_gpio_pin_pull_t pull_config);





 
static __inline void nrf_gpio_cfg_default(uint32_t pin_number);






 
static __inline void nrf_gpio_cfg_watcher(uint32_t pin_number);






 
static __inline void nrf_gpio_input_disconnect(uint32_t pin_number);









 
static __inline void nrf_gpio_cfg_sense_input(uint32_t pin_number, nrf_gpio_pin_pull_t pull_config, nrf_gpio_pin_sense_t sense_config);







 
static __inline void nrf_gpio_cfg_sense_set(uint32_t pin_number, nrf_gpio_pin_sense_t sense_config);








 
static __inline void nrf_gpio_pin_dir_set(uint32_t pin_number, nrf_gpio_pin_dir_t direction);









 
static __inline void nrf_gpio_pin_set(uint32_t pin_number);









 
static __inline void nrf_gpio_pin_clear(uint32_t pin_number);









 
static __inline void nrf_gpio_pin_toggle(uint32_t pin_number);













 
static __inline void nrf_gpio_pin_write(uint32_t pin_number, uint32_t value);














 
static __inline uint32_t nrf_gpio_pin_read(uint32_t pin_number);








 
static __inline uint32_t nrf_gpio_pins_read(void);








 
static __inline nrf_gpio_pin_sense_t nrf_gpio_pin_sense_get(uint32_t pin_number);














 
static __inline void nrf_gpio_word_byte_write(volatile uint32_t * word_address, uint8_t byte_no, uint8_t value);













 
static __inline uint8_t nrf_gpio_word_byte_read(const volatile uint32_t* word_address, uint8_t byte_no);







 
static __inline void nrf_gpio_port_dir_set(nrf_gpio_port_select_t port, nrf_gpio_port_dir_t dir);







 
static __inline uint8_t nrf_gpio_port_read(nrf_gpio_port_select_t port);









 
static __inline void nrf_gpio_port_write(nrf_gpio_port_select_t port, uint8_t value);











 
static __inline void nrf_gpio_port_set(nrf_gpio_port_select_t port, uint8_t set_mask);











 
static __inline void nrf_gpio_port_clear(nrf_gpio_port_select_t port, uint8_t clr_mask);


static __inline void nrf_gpio_range_cfg_output(uint32_t pin_range_start, uint32_t pin_range_end)
{
     
    for (; pin_range_start <= pin_range_end; pin_range_start++)
    {
        ((NRF_GPIO_Type *) 0x50000000UL)->PIN_CNF[pin_range_start] = ((0x00UL) << (16UL))
                                        | ((0x00UL) << (8UL))
                                        | ((0x00UL) << (2UL))
                                        | ((1UL) << (1UL))
                                        | ((1UL) << (0UL));
    }
}

static __inline void nrf_gpio_range_cfg_input(uint32_t pin_range_start, uint32_t pin_range_end, nrf_gpio_pin_pull_t pull_config)
{
     
    for (; pin_range_start <= pin_range_end; pin_range_start++)
    {
        ((NRF_GPIO_Type *) 0x50000000UL)->PIN_CNF[pin_range_start] = ((0x00UL) << (16UL))
                                        | ((0x00UL) << (8UL))
                                        | (pull_config << (2UL))
                                        | ((0UL) << (1UL))
                                        | ((0UL) << (0UL));
    }
}

static __inline void nrf_gpio_cfg_output(uint32_t pin_number)
{
     
    ((NRF_GPIO_Type *) 0x50000000UL)->PIN_CNF[pin_number] = ((0x00UL) << (16UL))
                                            | ((0x00UL) << (8UL))
                                            | ((0x00UL) << (2UL))
                                            | ((1UL) << (1UL))
                                            | ((1UL) << (0UL));
}

static __inline void nrf_gpio_cfg_input(uint32_t pin_number, nrf_gpio_pin_pull_t pull_config)
{
     
    ((NRF_GPIO_Type *) 0x50000000UL)->PIN_CNF[pin_number] = ((0x00UL) << (16UL))
                                        | ((0x00UL) << (8UL))
                                        | (pull_config << (2UL))
                                        | ((0UL) << (1UL))
                                        | ((0UL) << (0UL));
}

static __inline void nrf_gpio_cfg_default(uint32_t pin_number)
{
     
    ((NRF_GPIO_Type *) 0x50000000UL)->PIN_CNF[pin_number] = ((0x00UL) << (16UL))
                                        | ((0x00UL) << (8UL))
                                        | (NRF_GPIO_PIN_NOPULL << (2UL))
                                        | ((1UL) << (1UL))
                                        | ((0UL) << (0UL));
}

static __inline void nrf_gpio_cfg_watcher(uint32_t pin_number)
{
     
    uint32_t cnf = ((NRF_GPIO_Type *) 0x50000000UL)->PIN_CNF[pin_number] & ~(0x1UL << (1UL));
    ((NRF_GPIO_Type *) 0x50000000UL)->PIN_CNF[pin_number] = cnf | ((0UL) << (1UL));
}

static __inline void nrf_gpio_input_disconnect(uint32_t pin_number)
{
     
    uint32_t cnf = ((NRF_GPIO_Type *) 0x50000000UL)->PIN_CNF[pin_number] & ~(0x1UL << (1UL));
    ((NRF_GPIO_Type *) 0x50000000UL)->PIN_CNF[pin_number] = cnf | ((1UL) << (1UL));
}

static __inline void nrf_gpio_cfg_sense_input(uint32_t pin_number, nrf_gpio_pin_pull_t pull_config, nrf_gpio_pin_sense_t sense_config)
{
     
    ((NRF_GPIO_Type *) 0x50000000UL)->PIN_CNF[pin_number] = (sense_config << (16UL))
                                        | ((0x00UL) << (8UL))
                                        | (pull_config << (2UL))
                                        | ((0UL) << (1UL))
                                        | ((0UL) << (0UL));
}

static __inline void nrf_gpio_cfg_sense_set(uint32_t pin_number, nrf_gpio_pin_sense_t sense_config)
{
     
    
    ((NRF_GPIO_Type *) 0x50000000UL)->PIN_CNF[pin_number] &= ~(0x3UL << (16UL));
    ((NRF_GPIO_Type *) 0x50000000UL)->PIN_CNF[pin_number] |= (sense_config << (16UL));
}

static __inline void nrf_gpio_pin_dir_set(uint32_t pin_number, nrf_gpio_pin_dir_t direction)
{
    if(direction == NRF_GPIO_PIN_DIR_INPUT)
    {
        ((NRF_GPIO_Type *) 0x50000000UL)->PIN_CNF[pin_number] =
          ((0x00UL) << (16UL))
        | ((0x00UL) << (8UL))
        | ((0x00UL) << (2UL))
        | ((0UL) << (1UL))
        | ((0UL) << (0UL));
    }
    else
    {
        ((NRF_GPIO_Type *) 0x50000000UL)->DIRSET = (1UL << pin_number);
    }
}

static __inline void nrf_gpio_pin_set(uint32_t pin_number)
{
    ((NRF_GPIO_Type *) 0x50000000UL)->OUTSET = (1UL << pin_number);
}

static __inline void nrf_gpio_pin_clear(uint32_t pin_number)
{
    ((NRF_GPIO_Type *) 0x50000000UL)->OUTCLR = (1UL << pin_number);
}

static __inline void nrf_gpio_pin_toggle(uint32_t pin_number)
{
    const uint32_t pin_bit   = 1UL << pin_number;
    const uint32_t pin_state = ((((NRF_GPIO_Type *) 0x50000000UL)->OUT >> pin_number) & 1UL);

    if (pin_state == 0)
    {
        
        ((NRF_GPIO_Type *) 0x50000000UL)->OUTSET = pin_bit;
    }
    else
    {
        
        ((NRF_GPIO_Type *) 0x50000000UL)->OUTCLR = pin_bit;
    }
}

static __inline void nrf_gpio_pin_write(uint32_t pin_number, uint32_t value)
{
    if (value == 0)
    {
        nrf_gpio_pin_clear(pin_number);
    }
    else
    {
        nrf_gpio_pin_set(pin_number);
    }
}

static __inline uint32_t nrf_gpio_pin_read(uint32_t pin_number)
{
    return  ((((NRF_GPIO_Type *) 0x50000000UL)->IN >> pin_number) & 1UL);
}

static __inline uint32_t nrf_gpio_pins_read(void)
{
    return ((NRF_GPIO_Type *) 0x50000000UL)->IN;
}

static __inline nrf_gpio_pin_sense_t nrf_gpio_pin_sense_get(uint32_t pin_number)
{
    return (nrf_gpio_pin_sense_t)((((NRF_GPIO_Type *) 0x50000000UL)->PIN_CNF[pin_number] & (0x3UL << (16UL))) >> (16UL));
}

static __inline void nrf_gpio_word_byte_write(volatile uint32_t * word_address, uint8_t byte_no, uint8_t value)
{
    *((volatile uint8_t*)(word_address) + byte_no) = value;
}

static __inline uint8_t nrf_gpio_word_byte_read(const volatile uint32_t* word_address, uint8_t byte_no)
{
    return (*((const volatile uint8_t*)(word_address) + byte_no));
}

static __inline void nrf_gpio_port_dir_set(nrf_gpio_port_select_t port, nrf_gpio_port_dir_t dir)
{
    if (dir == NRF_GPIO_PORT_DIR_OUTPUT)
    {
        nrf_gpio_word_byte_write(&((NRF_GPIO_Type *) 0x50000000UL)->DIRSET, port, 0xFF);
    }
    else
    {
        nrf_gpio_range_cfg_input(port*8, (port+1)*8-1, NRF_GPIO_PIN_NOPULL);
    }
}

static __inline uint8_t nrf_gpio_port_read(nrf_gpio_port_select_t port)
{
    return nrf_gpio_word_byte_read(&((NRF_GPIO_Type *) 0x50000000UL)->IN, port);
}

static __inline void nrf_gpio_port_write(nrf_gpio_port_select_t port, uint8_t value)
{
    nrf_gpio_word_byte_write(&((NRF_GPIO_Type *) 0x50000000UL)->OUT, port, value);
}

static __inline void nrf_gpio_port_set(nrf_gpio_port_select_t port, uint8_t set_mask)
{
    nrf_gpio_word_byte_write(&((NRF_GPIO_Type *) 0x50000000UL)->OUTSET, port, set_mask);
}

static __inline void nrf_gpio_port_clear(nrf_gpio_port_select_t port, uint8_t clr_mask)
{
    nrf_gpio_word_byte_write(&((NRF_GPIO_Type *) 0x50000000UL)->OUTCLR, port, clr_mask);
}

 

#line 21 "C:\\Keil_v5\\ARM\\Pack\\NordicSemiconductor\\nRF_BLE\\3.0.1\\ble_error_log\\ble_error_log.c"
#line 1 "C:\\Keil_v5\\ARM\\Pack\\NordicSemiconductor\\nRF_Drivers\\3.0.1\\pstorage\\pstorage.h"










 











 




#line 1 "C:\\Keil_v5\\ARM\\Pack\\NordicSemiconductor\\nRF_Drivers\\3.0.1\\pstorage\\config\\pstorage_platform.h"










 

  




 



#line 23 "C:\\Keil_v5\\ARM\\Pack\\NordicSemiconductor\\nRF_Drivers\\3.0.1\\pstorage\\config\\pstorage_platform.h"
#line 1 "C:\\Keil_v5\\ARM\\PACK\\NordicSemiconductor\\nRF_DeviceFamilyPack\\8.0.3\\Device\\Include\\nrf.h"




























 




#line 41 "C:\\Keil_v5\\ARM\\PACK\\NordicSemiconductor\\nRF_DeviceFamilyPack\\8.0.3\\Device\\Include\\nrf.h"

     
#line 45 "C:\\Keil_v5\\ARM\\PACK\\NordicSemiconductor\\nRF_DeviceFamilyPack\\8.0.3\\Device\\Include\\nrf.h"
#line 46 "C:\\Keil_v5\\ARM\\PACK\\NordicSemiconductor\\nRF_DeviceFamilyPack\\8.0.3\\Device\\Include\\nrf.h"
#line 1 "C:\\Keil_v5\\ARM\\PACK\\NordicSemiconductor\\nRF_DeviceFamilyPack\\8.0.3\\Device\\Include\\nrf51_deprecated.h"




























 




 




 

 
 


 
 
 


 
 
 
 




 
 
 
 




 




 




 





 
 
 

 




 




 






 
 




 


 




 




 




 
 
#line 137 "C:\\Keil_v5\\ARM\\PACK\\NordicSemiconductor\\nRF_DeviceFamilyPack\\8.0.3\\Device\\Include\\nrf51_deprecated.h"
 
#line 170 "C:\\Keil_v5\\ARM\\PACK\\NordicSemiconductor\\nRF_DeviceFamilyPack\\8.0.3\\Device\\Include\\nrf51_deprecated.h"
 




 
#line 432 "C:\\Keil_v5\\ARM\\PACK\\NordicSemiconductor\\nRF_DeviceFamilyPack\\8.0.3\\Device\\Include\\nrf51_deprecated.h"



 



#line 47 "C:\\Keil_v5\\ARM\\PACK\\NordicSemiconductor\\nRF_DeviceFamilyPack\\8.0.3\\Device\\Include\\nrf.h"
#line 54 "C:\\Keil_v5\\ARM\\PACK\\NordicSemiconductor\\nRF_DeviceFamilyPack\\8.0.3\\Device\\Include\\nrf.h"

#line 56 "C:\\Keil_v5\\ARM\\PACK\\NordicSemiconductor\\nRF_DeviceFamilyPack\\8.0.3\\Device\\Include\\nrf.h"





#line 24 "C:\\Keil_v5\\ARM\\Pack\\NordicSemiconductor\\nRF_Drivers\\3.0.1\\pstorage\\config\\pstorage_platform.h"

static __inline uint16_t pstorage_flash_page_size()
{
  return (uint16_t)((NRF_FICR_Type *) 0x10000000UL)->CODEPAGESIZE;
}




static __inline uint32_t pstorage_flash_page_end()
{
   uint32_t bootloader_addr = ((NRF_UICR_Type *) 0x10001000UL)->BOOTLOADERADDR;
  
   return ((bootloader_addr != 0xFFFFFFFF) ?
           (bootloader_addr/ pstorage_flash_page_size()) : ((NRF_FICR_Type *) 0x10000000UL)->CODESIZE);
}















 
typedef uint32_t pstorage_block_t;

typedef struct
{
    uint32_t            module_id;       
    pstorage_block_t    block_id;        
} pstorage_handle_t;

typedef uint16_t pstorage_size_t;       

 
void pstorage_sys_event_handler (uint32_t sys_evt);



 
 
#line 29 "C:\\Keil_v5\\ARM\\Pack\\NordicSemiconductor\\nRF_Drivers\\3.0.1\\pstorage\\pstorage.h"









 





 






 






















 
typedef void (*pstorage_ntf_cb_t)(pstorage_handle_t * p_handle,
                                  uint8_t             op_code,
                                  uint32_t            result,
                                  uint8_t *           p_data,
                                  uint32_t            data_len);

 
typedef struct
{
    pstorage_ntf_cb_t cb;              
    pstorage_size_t   block_size;     




 
    pstorage_size_t   block_count;     
} pstorage_module_param_t;

 









 







 
uint32_t pstorage_init(void);

























 
uint32_t pstorage_register(pstorage_module_param_t * p_module_param,
                           pstorage_handle_t *       p_block_id);























 
uint32_t pstorage_block_identifier_get(pstorage_handle_t * p_base_id,
                                       pstorage_size_t     block_num,
                                       pstorage_handle_t * p_block_id);



























 
uint32_t pstorage_store(pstorage_handle_t * p_dest,
                        uint8_t *           p_src,
                        pstorage_size_t     size,
                        pstorage_size_t     offset);


























 
uint32_t pstorage_update(pstorage_handle_t * p_dest,
                         uint8_t *           p_src,
                         pstorage_size_t     size,
                         pstorage_size_t     offset);




















 
uint32_t pstorage_load(uint8_t *           p_dest,
                       pstorage_handle_t * p_src,
                       pstorage_size_t     size,
                       pstorage_size_t     offset);
























 
uint32_t pstorage_clear(pstorage_handle_t * p_base_id, pstorage_size_t size);










 
uint32_t pstorage_access_status_get(uint32_t * p_count);

#line 376 "C:\\Keil_v5\\ARM\\Pack\\NordicSemiconductor\\nRF_Drivers\\3.0.1\\pstorage\\pstorage.h"

 
 



#line 22 "C:\\Keil_v5\\ARM\\Pack\\NordicSemiconductor\\nRF_BLE\\3.0.1\\ble_error_log\\ble_error_log.c"



static ble_error_log_data_t m_ble_error_log;   

extern uint32_t * __Vectors;   

static void fetch_stack(ble_error_log_data_t * error_log)
{
    uint32_t * p_stack;
    uint32_t * initial_sp;
    uint32_t   length;

    initial_sp = (uint32_t *) __Vectors;
    p_stack    = (uint32_t *) __current_sp();

    length = ((uint32_t) initial_sp) - ((uint32_t) p_stack);
    memcpy(error_log->stack_info,
           p_stack,
           (length > 256) ? 256 : length);
}

uint32_t ble_error_log_write(uint32_t err_code, const uint8_t * p_message, uint16_t line_number)
{
    m_ble_error_log.failure     = 1;
    m_ble_error_log.err_code    = err_code;
    m_ble_error_log.line_number = line_number;

    strncpy((char *)m_ble_error_log.message, (const char *)p_message, 128 - 1);
    m_ble_error_log.message[128 - 1] = '\0';

    fetch_stack(&m_ble_error_log);

    

    return ((0x0) + 0);
}
