#line 1 "C:\\Keil_v5\\ARM\\Pack\\NordicSemiconductor\\nRF_BLE\\3.0.1\\common\\ble_conn_params.c"










 

#line 1 "C:\\Keil_v5\\ARM\\Pack\\NordicSemiconductor\\nRF_BLE\\3.0.1\\common\\ble_conn_params.h"










 







 




#line 1 "C:\\Keil_v5\\ARM\\ARMCC\\Bin\\..\\include\\stdint.h"
 
 





 









     
#line 27 "C:\\Keil_v5\\ARM\\ARMCC\\Bin\\..\\include\\stdint.h"
     











#line 46 "C:\\Keil_v5\\ARM\\ARMCC\\Bin\\..\\include\\stdint.h"





 

     

     
typedef   signed          char int8_t;
typedef   signed short     int int16_t;
typedef   signed           int int32_t;
typedef   signed       __int64 int64_t;

     
typedef unsigned          char uint8_t;
typedef unsigned short     int uint16_t;
typedef unsigned           int uint32_t;
typedef unsigned       __int64 uint64_t;

     

     
     
typedef   signed          char int_least8_t;
typedef   signed short     int int_least16_t;
typedef   signed           int int_least32_t;
typedef   signed       __int64 int_least64_t;

     
typedef unsigned          char uint_least8_t;
typedef unsigned short     int uint_least16_t;
typedef unsigned           int uint_least32_t;
typedef unsigned       __int64 uint_least64_t;

     

     
typedef   signed           int int_fast8_t;
typedef   signed           int int_fast16_t;
typedef   signed           int int_fast32_t;
typedef   signed       __int64 int_fast64_t;

     
typedef unsigned           int uint_fast8_t;
typedef unsigned           int uint_fast16_t;
typedef unsigned           int uint_fast32_t;
typedef unsigned       __int64 uint_fast64_t;

     




typedef   signed           int intptr_t;
typedef unsigned           int uintptr_t;


     
typedef   signed     long long intmax_t;
typedef unsigned     long long uintmax_t;




     

     





     





     





     

     





     





     





     

     





     





     





     

     






     






     






     

     


     


     


     

     
#line 216 "C:\\Keil_v5\\ARM\\ARMCC\\Bin\\..\\include\\stdint.h"

     



     






     
    
 



#line 241 "C:\\Keil_v5\\ARM\\ARMCC\\Bin\\..\\include\\stdint.h"

     







     










     











#line 305 "C:\\Keil_v5\\ARM\\ARMCC\\Bin\\..\\include\\stdint.h"






 
#line 25 "C:\\Keil_v5\\ARM\\Pack\\NordicSemiconductor\\nRF_BLE\\3.0.1\\common\\ble_conn_params.h"
#line 1 "C:\\Keil_v5\\ARM\\Pack\\NordicSemiconductor\\nRF_SoftDevice_S310\\3.0.0\\headers\\ble.h"


































 









 




#line 1 "C:\\Keil_v5\\ARM\\Pack\\NordicSemiconductor\\nRF_SoftDevice_S310\\3.0.0\\headers\\ble_ranges.h"


































 



















 































































 
#line 51 "C:\\Keil_v5\\ARM\\Pack\\NordicSemiconductor\\nRF_SoftDevice_S310\\3.0.0\\headers\\ble.h"
#line 1 "C:\\Keil_v5\\ARM\\Pack\\NordicSemiconductor\\nRF_SoftDevice_S310\\3.0.0\\headers\\ble_types.h"


































 








 




#line 50 "C:\\Keil_v5\\ARM\\Pack\\NordicSemiconductor\\nRF_SoftDevice_S310\\3.0.0\\headers\\ble_types.h"


 


 


 



 
 
#line 75 "C:\\Keil_v5\\ARM\\Pack\\NordicSemiconductor\\nRF_SoftDevice_S310\\3.0.0\\headers\\ble_types.h"
 


 
#line 85 "C:\\Keil_v5\\ARM\\Pack\\NordicSemiconductor\\nRF_SoftDevice_S310\\3.0.0\\headers\\ble_types.h"
 



 



 




 
#line 148 "C:\\Keil_v5\\ARM\\Pack\\NordicSemiconductor\\nRF_SoftDevice_S310\\3.0.0\\headers\\ble_types.h"
 

 




 




 




 



 



 


 

 
typedef struct
{
    unsigned char uuid128[16];  
} ble_uuid128_t;

 
typedef struct
{
    uint16_t    uuid;  
    uint8_t     type;  
} ble_uuid_t;

 






 
#line 52 "C:\\Keil_v5\\ARM\\Pack\\NordicSemiconductor\\nRF_SoftDevice_S310\\3.0.0\\headers\\ble.h"
#line 1 "C:\\Keil_v5\\ARM\\Pack\\NordicSemiconductor\\nRF_SoftDevice_S310\\3.0.0\\headers\\ble_gap.h"


































 





 




#line 47 "C:\\Keil_v5\\ARM\\Pack\\NordicSemiconductor\\nRF_SoftDevice_S310\\3.0.0\\headers\\ble_gap.h"
#line 48 "C:\\Keil_v5\\ARM\\Pack\\NordicSemiconductor\\nRF_SoftDevice_S310\\3.0.0\\headers\\ble_gap.h"
#line 1 "C:\\Keil_v5\\ARM\\Pack\\NordicSemiconductor\\nRF_SoftDevice_S310\\3.0.0\\headers\\nrf_svc.h"


































 








#line 69 "C:\\Keil_v5\\ARM\\Pack\\NordicSemiconductor\\nRF_SoftDevice_S310\\3.0.0\\headers\\nrf_svc.h"

#line 49 "C:\\Keil_v5\\ARM\\Pack\\NordicSemiconductor\\nRF_SoftDevice_S310\\3.0.0\\headers\\ble_gap.h"


 


 
enum BLE_GAP_SVCS
{
  SD_BLE_GAP_ADDRESS_SET  = 0x70,   
  SD_BLE_GAP_ADDRESS_GET,                       
  SD_BLE_GAP_ADV_DATA_SET,                      
  SD_BLE_GAP_ADV_START,                         
  SD_BLE_GAP_ADV_STOP,                          
  SD_BLE_GAP_CONN_PARAM_UPDATE,                 
  SD_BLE_GAP_DISCONNECT,                        
  SD_BLE_GAP_TX_POWER_SET,                      
  SD_BLE_GAP_APPEARANCE_SET,                    
  SD_BLE_GAP_APPEARANCE_GET,                    
  SD_BLE_GAP_PPCP_SET,                          
  SD_BLE_GAP_PPCP_GET,                          
  SD_BLE_GAP_DEVICE_NAME_SET,                   
  SD_BLE_GAP_DEVICE_NAME_GET,                   
  SD_BLE_GAP_AUTHENTICATE,                      
  SD_BLE_GAP_SEC_PARAMS_REPLY,                  
  SD_BLE_GAP_AUTH_KEY_REPLY,                    
  SD_BLE_GAP_ENCRYPT,                           
  SD_BLE_GAP_SEC_INFO_REPLY,                    
  SD_BLE_GAP_CONN_SEC_GET,                      
  SD_BLE_GAP_RSSI_START,                        
  SD_BLE_GAP_RSSI_STOP,                         
  SD_BLE_GAP_SCAN_START,                        
  SD_BLE_GAP_SCAN_STOP,                         
  SD_BLE_GAP_CONNECT,                           
  SD_BLE_GAP_CONNECT_CANCEL,                    
  SD_BLE_GAP_RSSI_GET,                          
};



 
enum BLE_GAP_EVTS
{
  BLE_GAP_EVT_CONNECTED  = 0x10,     
  BLE_GAP_EVT_DISCONNECTED,                      
  BLE_GAP_EVT_CONN_PARAM_UPDATE,                 
  BLE_GAP_EVT_SEC_PARAMS_REQUEST,                
  BLE_GAP_EVT_SEC_INFO_REQUEST,                  
  BLE_GAP_EVT_PASSKEY_DISPLAY,                   
  BLE_GAP_EVT_AUTH_KEY_REQUEST,                  
  BLE_GAP_EVT_AUTH_STATUS,                       
  BLE_GAP_EVT_CONN_SEC_UPDATE,                   
  BLE_GAP_EVT_TIMEOUT,                           
  BLE_GAP_EVT_RSSI_CHANGED,                      
  BLE_GAP_EVT_ADV_REPORT,                        
  BLE_GAP_EVT_SEC_REQUEST,                       
  BLE_GAP_EVT_CONN_PARAM_UPDATE_REQUEST,         
  BLE_GAP_EVT_SCAN_REQ_REPORT,                   
};



 
enum BLE_GAP_OPTS
{
  BLE_GAP_OPT_CH_MAP  = 0x20,        
  BLE_GAP_OPT_LOCAL_CONN_LATENCY,                
  BLE_GAP_OPT_PASSKEY,                           
  BLE_GAP_OPT_PRIVACY,                           
  BLE_GAP_OPT_SCAN_REQ_REPORT,                   
  BLE_GAP_OPT_COMPAT_MODE                        
};
 


 


 



 




 



 



 




 



 




 


 


 

 


 





 
#line 206 "C:\\Keil_v5\\ARM\\Pack\\NordicSemiconductor\\nRF_SoftDevice_S310\\3.0.0\\headers\\ble_gap.h"
 



 
#line 218 "C:\\Keil_v5\\ARM\\Pack\\NordicSemiconductor\\nRF_SoftDevice_S310\\3.0.0\\headers\\ble_gap.h"
 



 



  



 


  



 


  



 


  


 




 




 



 




 



 


 



 



 


 





 



 



 


 
#line 318 "C:\\Keil_v5\\ARM\\Pack\\NordicSemiconductor\\nRF_SoftDevice_S310\\3.0.0\\headers\\ble_gap.h"
 


 


 


 
#line 338 "C:\\Keil_v5\\ARM\\Pack\\NordicSemiconductor\\nRF_SoftDevice_S310\\3.0.0\\headers\\ble_gap.h"
 


 


 





 
 

 

 

 

 

 

 


 


 


 


 




 



 

 

 


 

 
typedef struct
{
  uint8_t addr_type;                     
  uint8_t addr[6];        
} ble_gap_addr_t;












 
typedef struct
{
  uint16_t min_conn_interval;          
  uint16_t max_conn_interval;          
  uint16_t slave_latency;              
  uint16_t conn_sup_timeout;           
} ble_gap_conn_params_t;










 
typedef struct
{
  uint8_t sm : 4;                      
  uint8_t lv : 4;                      

} ble_gap_conn_sec_mode_t;


 
typedef struct
{
  ble_gap_conn_sec_mode_t sec_mode;            
  uint8_t                 encr_key_size;       
} ble_gap_conn_sec_t;


 
typedef struct
{
  uint8_t irk[16];    
} ble_gap_irk_t;


 
typedef struct
{
  ble_gap_addr_t    **pp_addrs;         
  uint8_t             addr_count;       
  ble_gap_irk_t     **pp_irks;          
  uint8_t             irk_count;        
} ble_gap_whitelist_t;

 
typedef struct
{
  uint8_t ch_37_off : 1;   
  uint8_t ch_38_off : 1;   
  uint8_t ch_39_off : 1;   
} ble_gap_adv_ch_mask_t;

 
typedef struct
{
  uint8_t               type;                  
  ble_gap_addr_t       *p_peer_addr;           
  uint8_t               fp;                    
  ble_gap_whitelist_t  *p_whitelist;           
  uint16_t              interval;             

 
  uint16_t              timeout;               
  ble_gap_adv_ch_mask_t channel_mask;          
} ble_gap_adv_params_t;


 
typedef struct
{
  uint8_t                 active    : 1;         
  uint8_t                 selective : 1;         
  ble_gap_whitelist_t *   p_whitelist;           
  uint16_t                interval;              
  uint16_t                window;                
  uint16_t                timeout;               
} ble_gap_scan_params_t;


 
typedef struct
{
  uint8_t enc     : 1;                         
  uint8_t id      : 1;                         
  uint8_t sign    : 1;                         
} ble_gap_sec_kdist_t;


 
typedef struct
{
  uint8_t               bond    : 1;                
  uint8_t               mitm    : 1;                
  uint8_t               io_caps : 3;                
  uint8_t               oob     : 1;                
  uint8_t               min_key_size;               
  uint8_t               max_key_size;               
  ble_gap_sec_kdist_t   kdist_periph;               
  ble_gap_sec_kdist_t   kdist_central;              
} ble_gap_sec_params_t;


 
typedef struct
{
  uint8_t   ltk[16];    
  uint8_t   auth : 1;                    
  uint8_t   ltk_len : 7;                 
} ble_gap_enc_info_t;


 
typedef struct
{
  uint16_t  ediv;                        
  uint8_t   rand[8];  
} ble_gap_master_id_t;


 
typedef struct
{
  uint8_t   csrk[16];         
} ble_gap_sign_info_t;


 
typedef struct
{
  ble_gap_addr_t        peer_addr;               
  ble_gap_addr_t        own_addr;                
  uint8_t               irk_match :1;            
  uint8_t               irk_match_idx  :7;       
  ble_gap_conn_params_t conn_params;             
} ble_gap_evt_connected_t;


 
typedef struct
{
  uint8_t reason;                                
} ble_gap_evt_disconnected_t;


 
typedef struct
{
  ble_gap_conn_params_t conn_params;             
} ble_gap_evt_conn_param_update_t;


 
typedef struct
{
  ble_gap_sec_params_t peer_params;              
} ble_gap_evt_sec_params_request_t;


 
typedef struct
{
  ble_gap_addr_t      peer_addr;                      
  ble_gap_master_id_t master_id;                      
  uint8_t             enc_info  : 1;                  
  uint8_t             id_info   : 1;                  
  uint8_t             sign_info : 1;                  
} ble_gap_evt_sec_info_request_t;


 
typedef struct
{
  uint8_t passkey[6];          
} ble_gap_evt_passkey_display_t;


 
typedef struct
{
  uint8_t key_type;                              
} ble_gap_evt_auth_key_request_t;




 
typedef struct
{
  uint8_t lv1 : 1;                               
  uint8_t lv2 : 1;                               
  uint8_t lv3 : 1;                               
} ble_gap_sec_levels_t;


 
typedef struct
{
  ble_gap_enc_info_t    enc_info;              
  ble_gap_master_id_t   master_id;             
} ble_gap_enc_key_t;


 
typedef struct
{
  ble_gap_irk_t         id_info;               
  ble_gap_addr_t        id_addr_info;          
} ble_gap_id_key_t;


 
typedef struct
{
  ble_gap_enc_key_t     *p_enc_key;            
  ble_gap_id_key_t      *p_id_key;             
  ble_gap_sign_info_t   *p_sign_key;           
} ble_gap_sec_keys_t;




 
typedef struct
{
  ble_gap_sec_keys_t keys_periph;      
  ble_gap_sec_keys_t keys_central;     
} ble_gap_sec_keyset_t;


 
typedef struct
{
  uint8_t               auth_status;             
  uint8_t               error_src : 2;           
  uint8_t               bonded : 1;              
  ble_gap_sec_levels_t  sm1_levels;              
  ble_gap_sec_levels_t  sm2_levels;              
  ble_gap_sec_kdist_t   kdist_periph;            
  ble_gap_sec_kdist_t   kdist_central;           
} ble_gap_evt_auth_status_t;


 
typedef struct
{
  ble_gap_conn_sec_t conn_sec;                   
} ble_gap_evt_conn_sec_update_t;


 
typedef struct
{
  uint8_t src;                                   
} ble_gap_evt_timeout_t;


 
typedef struct
{
  int8_t  rssi;                                
} ble_gap_evt_rssi_changed_t;


 
typedef struct
{
  ble_gap_addr_t peer_addr;                      
  int8_t         rssi;                           
  uint8_t        scan_rsp : 1;                   
  uint8_t        type     : 2;                   
  uint8_t        dlen     : 5;                   
  uint8_t        data[31];     
} ble_gap_evt_adv_report_t;


 
typedef struct
{
  uint8_t    bond    : 1;                        
  uint8_t    mitm    : 1;                        
} ble_gap_evt_sec_request_t;


 
typedef struct
{
  ble_gap_conn_params_t conn_params;             
} ble_gap_evt_conn_param_update_request_t;


 
typedef struct
{
  int8_t                  rssi;               
  ble_gap_addr_t          peer_addr;          
} ble_gap_evt_scan_req_report_t;



 
typedef struct
{
  uint16_t conn_handle;                                      
  union                                                      
  {
    ble_gap_evt_connected_t                   connected;                     
    ble_gap_evt_disconnected_t                disconnected;                  
    ble_gap_evt_conn_param_update_t           conn_param_update;             
    ble_gap_evt_sec_params_request_t          sec_params_request;            
    ble_gap_evt_sec_info_request_t            sec_info_request;              
    ble_gap_evt_passkey_display_t             passkey_display;               
    ble_gap_evt_auth_key_request_t            auth_key_request;              
    ble_gap_evt_auth_status_t                 auth_status;                   
    ble_gap_evt_conn_sec_update_t             conn_sec_update;               
    ble_gap_evt_timeout_t                     timeout;                       
    ble_gap_evt_rssi_changed_t                rssi_changed;                  
    ble_gap_evt_adv_report_t                  adv_report;                    
    ble_gap_evt_sec_request_t                 sec_request;                   
    ble_gap_evt_conn_param_update_request_t   conn_param_update_request;     
    ble_gap_evt_scan_req_report_t             scan_req_report;               
  } params;                                                                  

} ble_gap_evt_t;






















 
typedef struct
{
  uint16_t conn_handle;                    
  uint8_t ch_map[5];                       
} ble_gap_opt_ch_map_t;























 
typedef struct
{
  uint16_t   conn_handle;                        
  uint16_t   requested_latency;                  
  uint16_t * p_actual_latency;                   
} ble_gap_opt_local_conn_latency_t;










 
typedef struct
{
  uint8_t * p_passkey;                           
} ble_gap_opt_passkey_t;
























 
typedef struct
{
  ble_gap_irk_t * p_irk;         
  uint16_t        interval_s;    
} ble_gap_opt_privacy_t;














 
typedef struct
{
   uint8_t enable : 1;                            
} ble_gap_opt_scan_req_report_t;











 
typedef struct
{
   uint8_t mode_1_enable : 1;                            
} ble_gap_opt_compat_mode_t;


 
typedef union
{
  ble_gap_opt_ch_map_t                  ch_map;                     
  ble_gap_opt_local_conn_latency_t      local_conn_latency;         
  ble_gap_opt_passkey_t                 passkey;                    
  ble_gap_opt_privacy_t                 privacy;                    
  ble_gap_opt_scan_req_report_t         scan_req_report;            
  ble_gap_opt_compat_mode_t             compat_mode;                
} ble_gap_opt_t;
 



 






































 
uint32_t __svc(SD_BLE_GAP_ADDRESS_SET) sd_ble_gap_address_set(uint8_t addr_cycle_mode, const ble_gap_addr_t *p_addr);








 
uint32_t __svc(SD_BLE_GAP_ADDRESS_GET) sd_ble_gap_address_get(ble_gap_addr_t *p_addr);

























 
uint32_t __svc(SD_BLE_GAP_ADV_DATA_SET) sd_ble_gap_adv_data_set(uint8_t const *p_data, uint8_t dlen, uint8_t const *p_sr_data, uint8_t srdlen);



















 
uint32_t __svc(SD_BLE_GAP_ADV_START) sd_ble_gap_adv_start(ble_gap_adv_params_t const *p_adv_params);






 
uint32_t __svc(SD_BLE_GAP_ADV_STOP) sd_ble_gap_adv_stop(void);























 
uint32_t __svc(SD_BLE_GAP_CONN_PARAM_UPDATE) sd_ble_gap_conn_param_update(uint16_t conn_handle, ble_gap_conn_params_t const *p_conn_params);














 
uint32_t __svc(SD_BLE_GAP_DISCONNECT) sd_ble_gap_disconnect(uint16_t conn_handle, uint8_t hci_status_code);










 
uint32_t __svc(SD_BLE_GAP_TX_POWER_SET) sd_ble_gap_tx_power_set(int8_t tx_power);








 
uint32_t __svc(SD_BLE_GAP_APPEARANCE_SET) sd_ble_gap_appearance_set(uint16_t appearance);








 
uint32_t __svc(SD_BLE_GAP_APPEARANCE_GET) sd_ble_gap_appearance_get(uint16_t *p_appearance);









 
uint32_t __svc(SD_BLE_GAP_PPCP_SET) sd_ble_gap_ppcp_set(ble_gap_conn_params_t const *p_conn_params);








 
uint32_t __svc(SD_BLE_GAP_PPCP_GET) sd_ble_gap_ppcp_get(ble_gap_conn_params_t *p_conn_params);












 
uint32_t __svc(SD_BLE_GAP_DEVICE_NAME_SET) sd_ble_gap_device_name_set(ble_gap_conn_sec_mode_t const *p_write_perm, uint8_t const *p_dev_name, uint16_t len);















 
uint32_t __svc(SD_BLE_GAP_DEVICE_NAME_GET) sd_ble_gap_device_name_get(uint8_t *p_dev_name, uint16_t *p_len);























 
uint32_t __svc(SD_BLE_GAP_AUTHENTICATE) sd_ble_gap_authenticate(uint16_t conn_handle, ble_gap_sec_params_t const *p_sec_params);
























 
uint32_t __svc(SD_BLE_GAP_SEC_PARAMS_REPLY) sd_ble_gap_sec_params_reply(uint16_t conn_handle, uint8_t sec_status, ble_gap_sec_params_t const *p_sec_params, ble_gap_sec_keyset_t const *p_sec_keyset);


















 
uint32_t __svc(SD_BLE_GAP_AUTH_KEY_REPLY) sd_ble_gap_auth_key_reply(uint16_t conn_handle, uint8_t key_type, uint8_t const *p_key);


















 
uint32_t __svc(SD_BLE_GAP_ENCRYPT) sd_ble_gap_encrypt(uint16_t conn_handle, ble_gap_master_id_t const *p_master_id, ble_gap_enc_info_t const *p_enc_info);

















 
uint32_t __svc(SD_BLE_GAP_SEC_INFO_REPLY) sd_ble_gap_sec_info_reply(uint16_t conn_handle, ble_gap_enc_info_t const *p_enc_info, ble_gap_irk_t const *p_id_info, ble_gap_sign_info_t const *p_sign_info);










 
uint32_t __svc(SD_BLE_GAP_CONN_SEC_GET) sd_ble_gap_conn_sec_get(uint16_t conn_handle, ble_gap_conn_sec_t *p_conn_sec);













 
uint32_t __svc(SD_BLE_GAP_RSSI_START) sd_ble_gap_rssi_start(uint16_t conn_handle, uint8_t threshold_dbm, uint8_t skip_count);












 
uint32_t __svc(SD_BLE_GAP_RSSI_STOP) sd_ble_gap_rssi_stop(uint16_t conn_handle);















 
uint32_t __svc(SD_BLE_GAP_RSSI_GET) sd_ble_gap_rssi_get(uint16_t conn_handle, int8_t *p_rssi);












 
uint32_t __svc(SD_BLE_GAP_SCAN_START) sd_ble_gap_scan_start(ble_gap_scan_params_t const *p_scan_params);






 
uint32_t __svc(SD_BLE_GAP_SCAN_STOP) sd_ble_gap_scan_stop(void);















 
uint32_t __svc(SD_BLE_GAP_CONNECT) sd_ble_gap_connect(ble_gap_addr_t const *p_peer_addr, ble_gap_scan_params_t const *p_scan_params, ble_gap_conn_params_t const *p_conn_params);






 
uint32_t __svc(SD_BLE_GAP_CONNECT_CANCEL) sd_ble_gap_connect_cancel(void);

 





 
#line 53 "C:\\Keil_v5\\ARM\\Pack\\NordicSemiconductor\\nRF_SoftDevice_S310\\3.0.0\\headers\\ble.h"
#line 1 "C:\\Keil_v5\\ARM\\Pack\\NordicSemiconductor\\nRF_SoftDevice_S310\\3.0.0\\headers\\ble_l2cap.h"


































 





 




#line 47 "C:\\Keil_v5\\ARM\\Pack\\NordicSemiconductor\\nRF_SoftDevice_S310\\3.0.0\\headers\\ble_l2cap.h"
#line 48 "C:\\Keil_v5\\ARM\\Pack\\NordicSemiconductor\\nRF_SoftDevice_S310\\3.0.0\\headers\\ble_l2cap.h"
#line 1 "C:\\Keil_v5\\ARM\\Pack\\NordicSemiconductor\\nRF_SoftDevice_S310\\3.0.0\\headers\\ble_err.h"


































 















 



#line 1 "C:\\Keil_v5\\ARM\\Pack\\NordicSemiconductor\\nRF_SoftDevice_S310\\3.0.0\\headers\\nrf_error.h"


































 
 




 

 




 




 

#line 73 "C:\\Keil_v5\\ARM\\Pack\\NordicSemiconductor\\nRF_SoftDevice_S310\\3.0.0\\headers\\nrf_error.h"





 
#line 56 "C:\\Keil_v5\\ARM\\Pack\\NordicSemiconductor\\nRF_SoftDevice_S310\\3.0.0\\headers\\ble_err.h"


 





 





 




 







 
#line 49 "C:\\Keil_v5\\ARM\\Pack\\NordicSemiconductor\\nRF_SoftDevice_S310\\3.0.0\\headers\\ble_l2cap.h"
#line 50 "C:\\Keil_v5\\ARM\\Pack\\NordicSemiconductor\\nRF_SoftDevice_S310\\3.0.0\\headers\\ble_l2cap.h"


 

 
enum BLE_L2CAP_SVCS
{
  SD_BLE_L2CAP_CID_REGISTER = 0xB0,   
  SD_BLE_L2CAP_CID_UNREGISTER,                      
  SD_BLE_L2CAP_TX                                   
};

 
enum BLE_L2CAP_EVTS
{
  BLE_L2CAP_EVT_RX  = 0x70           
};

 


 


 

 

 


 


 


 


 


 

 
typedef struct
{
  uint16_t   len;                                  
  uint16_t   cid;                                  
} ble_l2cap_header_t;


 
typedef struct
{
  ble_l2cap_header_t header;                       
  uint8_t    data[1];                              
} ble_l2cap_evt_rx_t;


 
typedef struct
{
  uint16_t conn_handle;                            
  union
  {
    ble_l2cap_evt_rx_t rx;                         
  } params;                                        
} ble_l2cap_evt_t;

 


 











 
uint32_t __svc(SD_BLE_L2CAP_CID_REGISTER) sd_ble_l2cap_cid_register(uint16_t cid);










 
uint32_t __svc(SD_BLE_L2CAP_CID_UNREGISTER) sd_ble_l2cap_cid_unregister(uint16_t cid);


















 
uint32_t __svc(SD_BLE_L2CAP_TX) sd_ble_l2cap_tx(uint16_t conn_handle, ble_l2cap_header_t const *p_header, uint8_t const *p_data);

 





 
#line 54 "C:\\Keil_v5\\ARM\\Pack\\NordicSemiconductor\\nRF_SoftDevice_S310\\3.0.0\\headers\\ble.h"
#line 1 "C:\\Keil_v5\\ARM\\Pack\\NordicSemiconductor\\nRF_SoftDevice_S310\\3.0.0\\headers\\ble_gatt.h"


































 





 




#line 47 "C:\\Keil_v5\\ARM\\Pack\\NordicSemiconductor\\nRF_SoftDevice_S310\\3.0.0\\headers\\ble_gatt.h"
#line 48 "C:\\Keil_v5\\ARM\\Pack\\NordicSemiconductor\\nRF_SoftDevice_S310\\3.0.0\\headers\\ble_gatt.h"



 

 


 



 



 

 


 
#line 76 "C:\\Keil_v5\\ARM\\Pack\\NordicSemiconductor\\nRF_SoftDevice_S310\\3.0.0\\headers\\ble_gatt.h"
 


 


 


 



 


 
#line 124 "C:\\Keil_v5\\ARM\\Pack\\NordicSemiconductor\\nRF_SoftDevice_S310\\3.0.0\\headers\\ble_gatt.h"
 




 
#line 158 "C:\\Keil_v5\\ARM\\Pack\\NordicSemiconductor\\nRF_SoftDevice_S310\\3.0.0\\headers\\ble_gatt.h"
 



 


 

 


 

 
typedef struct
{
   
  uint8_t broadcast       :1;  
  uint8_t read            :1;  
  uint8_t write_wo_resp   :1;  
  uint8_t write           :1;  
  uint8_t notify          :1;  
  uint8_t indicate        :1;  
  uint8_t auth_signed_wr  :1;  
} ble_gatt_char_props_t;

 
typedef struct
{
   
  uint8_t reliable_wr     :1;  
  uint8_t wr_aux          :1;  
} ble_gatt_char_ext_props_t;



 




 
#line 55 "C:\\Keil_v5\\ARM\\Pack\\NordicSemiconductor\\nRF_SoftDevice_S310\\3.0.0\\headers\\ble.h"
#line 1 "C:\\Keil_v5\\ARM\\Pack\\NordicSemiconductor\\nRF_SoftDevice_S310\\3.0.0\\headers\\ble_gattc.h"


































 





 




#line 47 "C:\\Keil_v5\\ARM\\Pack\\NordicSemiconductor\\nRF_SoftDevice_S310\\3.0.0\\headers\\ble_gattc.h"
#line 48 "C:\\Keil_v5\\ARM\\Pack\\NordicSemiconductor\\nRF_SoftDevice_S310\\3.0.0\\headers\\ble_gattc.h"
#line 49 "C:\\Keil_v5\\ARM\\Pack\\NordicSemiconductor\\nRF_SoftDevice_S310\\3.0.0\\headers\\ble_gattc.h"
#line 50 "C:\\Keil_v5\\ARM\\Pack\\NordicSemiconductor\\nRF_SoftDevice_S310\\3.0.0\\headers\\ble_gattc.h"


 

 
enum BLE_GATTC_SVCS
{
  SD_BLE_GATTC_PRIMARY_SERVICES_DISCOVER = 0x90,  
  SD_BLE_GATTC_RELATIONSHIPS_DISCOVER,                          
  SD_BLE_GATTC_CHARACTERISTICS_DISCOVER,                        
  SD_BLE_GATTC_DESCRIPTORS_DISCOVER,                            
  SD_BLE_GATTC_CHAR_VALUE_BY_UUID_READ,                         
  SD_BLE_GATTC_READ,                                            
  SD_BLE_GATTC_CHAR_VALUES_READ,                                
  SD_BLE_GATTC_WRITE,                                           
  SD_BLE_GATTC_HV_CONFIRM                                       
};



 
enum BLE_GATTC_EVTS
{
  BLE_GATTC_EVT_PRIM_SRVC_DISC_RSP = 0x30,   
  BLE_GATTC_EVT_REL_DISC_RSP,                              
  BLE_GATTC_EVT_CHAR_DISC_RSP,                             
  BLE_GATTC_EVT_DESC_DISC_RSP,                             
  BLE_GATTC_EVT_CHAR_VAL_BY_UUID_READ_RSP,                 
  BLE_GATTC_EVT_READ_RSP,                                  
  BLE_GATTC_EVT_CHAR_VALS_READ_RSP,                        
  BLE_GATTC_EVT_WRITE_RSP,                                 
  BLE_GATTC_EVT_HVX,                                       
  BLE_GATTC_EVT_TIMEOUT                                    
};

 


 


 

 

 


 


 

 
typedef struct
{
  uint16_t          start_handle;  
  uint16_t          end_handle;    
} ble_gattc_handle_range_t;


 
typedef struct
{
  ble_uuid_t               uuid;           
  ble_gattc_handle_range_t handle_range;   
} ble_gattc_service_t;


 
typedef struct
{
  uint16_t            handle;            
  ble_gattc_service_t included_srvc;     
} ble_gattc_include_t;


 
typedef struct
{
  ble_uuid_t              uuid;                  
  ble_gatt_char_props_t   char_props;            
  uint8_t                 char_ext_props : 1;    
  uint16_t                handle_decl;           
  uint16_t                handle_value;          
} ble_gattc_char_t;


 
typedef struct
{
  uint16_t          handle;          
  ble_uuid_t        uuid;            
} ble_gattc_desc_t;


 
typedef struct
{
  uint8_t    write_op;                  
  uint8_t    flags;                     
  uint16_t   handle;                    
  uint16_t   offset;                    
  uint16_t   len;                       
  uint8_t   *p_value;                   
} ble_gattc_write_params_t;

 
typedef struct
{
  uint16_t             count;            
  ble_gattc_service_t services[1];       
} ble_gattc_evt_prim_srvc_disc_rsp_t;

 
typedef struct
{
  uint16_t             count;            
  ble_gattc_include_t includes[1];       
} ble_gattc_evt_rel_disc_rsp_t;

 
typedef struct
{
  uint16_t            count;           
  ble_gattc_char_t    chars[1];        
} ble_gattc_evt_char_disc_rsp_t;

 
typedef struct
{
  uint16_t            count;           
  ble_gattc_desc_t    descs[1];        
} ble_gattc_evt_desc_disc_rsp_t;

 
typedef struct
{
  uint16_t            handle;           
  uint8_t             *p_value;        

 
} ble_gattc_handle_value_t;

 
typedef struct
{
  uint16_t                  count;             
  uint16_t                  value_len;         
  ble_gattc_handle_value_t  handle_value[1];   
} ble_gattc_evt_char_val_by_uuid_read_rsp_t;

 
typedef struct
{
  uint16_t            handle;          
  uint16_t            offset;          
  uint16_t            len;             
  uint8_t             data[1];         
} ble_gattc_evt_read_rsp_t;

 
typedef struct
{
  uint16_t            len;             
  uint8_t             values[1];       
} ble_gattc_evt_char_vals_read_rsp_t;

 
typedef struct
{
  uint16_t            handle;            
  uint8_t             write_op;          
  uint16_t            offset;            
  uint16_t            len;               
  uint8_t             data[1];           
} ble_gattc_evt_write_rsp_t;

 
typedef struct
{
  uint16_t            handle;          
  uint8_t             type;            
  uint16_t            len;             
  uint8_t             data[1];         
} ble_gattc_evt_hvx_t;

 
typedef struct
{
  uint8_t          src;                        
} ble_gattc_evt_timeout_t;

 
typedef struct
{
  uint16_t            conn_handle;                 
  uint16_t            gatt_status;                 
  uint16_t            error_handle;                
  union
  {
    ble_gattc_evt_prim_srvc_disc_rsp_t          prim_srvc_disc_rsp;          
    ble_gattc_evt_rel_disc_rsp_t                rel_disc_rsp;                
    ble_gattc_evt_char_disc_rsp_t               char_disc_rsp;               
    ble_gattc_evt_desc_disc_rsp_t               desc_disc_rsp;               
    ble_gattc_evt_char_val_by_uuid_read_rsp_t   char_val_by_uuid_read_rsp;   
    ble_gattc_evt_read_rsp_t                    read_rsp;                    
    ble_gattc_evt_char_vals_read_rsp_t          char_vals_read_rsp;          
    ble_gattc_evt_write_rsp_t                   write_rsp;                   
    ble_gattc_evt_hvx_t                         hvx;                         
    ble_gattc_evt_timeout_t                     timeout;                     
  } params;                                                                  
} ble_gattc_evt_t;
 


 


















 
uint32_t __svc(SD_BLE_GATTC_PRIMARY_SERVICES_DISCOVER) sd_ble_gattc_primary_services_discover(uint16_t conn_handle, uint16_t start_handle, ble_uuid_t const *p_srvc_uuid);
















 
uint32_t __svc(SD_BLE_GATTC_RELATIONSHIPS_DISCOVER) sd_ble_gattc_relationships_discover(uint16_t conn_handle, ble_gattc_handle_range_t const *p_handle_range);


















 
uint32_t __svc(SD_BLE_GATTC_CHARACTERISTICS_DISCOVER) sd_ble_gattc_characteristics_discover(uint16_t conn_handle, ble_gattc_handle_range_t const *p_handle_range);















 
uint32_t __svc(SD_BLE_GATTC_DESCRIPTORS_DISCOVER) sd_ble_gattc_descriptors_discover(uint16_t conn_handle, ble_gattc_handle_range_t const *p_handle_range);
















 
uint32_t __svc(SD_BLE_GATTC_CHAR_VALUE_BY_UUID_READ) sd_ble_gattc_char_value_by_uuid_read(uint16_t conn_handle, ble_uuid_t const *p_uuid, ble_gattc_handle_range_t const *p_handle_range);

















 
uint32_t __svc(SD_BLE_GATTC_READ) sd_ble_gattc_read(uint16_t conn_handle, uint16_t handle, uint16_t offset);















 
uint32_t __svc(SD_BLE_GATTC_CHAR_VALUES_READ) sd_ble_gattc_char_values_read(uint16_t conn_handle, uint16_t const *p_handles, uint16_t handle_count);






















 
uint32_t __svc(SD_BLE_GATTC_WRITE) sd_ble_gattc_write(uint16_t conn_handle, ble_gattc_write_params_t const *p_write_params);











 
uint32_t __svc(SD_BLE_GATTC_HV_CONFIRM) sd_ble_gattc_hv_confirm(uint16_t conn_handle, uint16_t handle);

 






 
#line 56 "C:\\Keil_v5\\ARM\\Pack\\NordicSemiconductor\\nRF_SoftDevice_S310\\3.0.0\\headers\\ble.h"
#line 1 "C:\\Keil_v5\\ARM\\Pack\\NordicSemiconductor\\nRF_SoftDevice_S310\\3.0.0\\headers\\ble_gatts.h"


































 





 




#line 47 "C:\\Keil_v5\\ARM\\Pack\\NordicSemiconductor\\nRF_SoftDevice_S310\\3.0.0\\headers\\ble_gatts.h"
#line 48 "C:\\Keil_v5\\ARM\\Pack\\NordicSemiconductor\\nRF_SoftDevice_S310\\3.0.0\\headers\\ble_gatts.h"
#line 49 "C:\\Keil_v5\\ARM\\Pack\\NordicSemiconductor\\nRF_SoftDevice_S310\\3.0.0\\headers\\ble_gatts.h"
#line 50 "C:\\Keil_v5\\ARM\\Pack\\NordicSemiconductor\\nRF_SoftDevice_S310\\3.0.0\\headers\\ble_gatts.h"
#line 51 "C:\\Keil_v5\\ARM\\Pack\\NordicSemiconductor\\nRF_SoftDevice_S310\\3.0.0\\headers\\ble_gatts.h"
#line 52 "C:\\Keil_v5\\ARM\\Pack\\NordicSemiconductor\\nRF_SoftDevice_S310\\3.0.0\\headers\\ble_gatts.h"


 



 
enum BLE_GATTS_SVCS
{
  SD_BLE_GATTS_SERVICE_ADD = 0xA0,  
  SD_BLE_GATTS_INCLUDE_ADD,                       
  SD_BLE_GATTS_CHARACTERISTIC_ADD,                
  SD_BLE_GATTS_DESCRIPTOR_ADD,                    
  SD_BLE_GATTS_VALUE_SET,                         
  SD_BLE_GATTS_VALUE_GET,                         
  SD_BLE_GATTS_HVX,                               
  SD_BLE_GATTS_SERVICE_CHANGED,                   
  SD_BLE_GATTS_RW_AUTHORIZE_REPLY,                
  SD_BLE_GATTS_SYS_ATTR_SET,                      
  SD_BLE_GATTS_SYS_ATTR_GET,                      
};



 
enum BLE_GATTS_EVTS
{
  BLE_GATTS_EVT_WRITE = 0x50,        
  BLE_GATTS_EVT_RW_AUTHORIZE_REQUEST,              
  BLE_GATTS_EVT_SYS_ATTR_MISSING,                  
  BLE_GATTS_EVT_HVC,                               
  BLE_GATTS_EVT_SC_CONFIRM,                        
  BLE_GATTS_EVT_TIMEOUT                            
};
 


 


 


 


 


 


 



 



 
#line 121 "C:\\Keil_v5\\ARM\\Pack\\NordicSemiconductor\\nRF_SoftDevice_S310\\3.0.0\\headers\\ble_gatts.h"
 



 
#line 133 "C:\\Keil_v5\\ARM\\Pack\\NordicSemiconductor\\nRF_SoftDevice_S310\\3.0.0\\headers\\ble_gatts.h"
 


 




 


 



 


 


 



 


 

 


 



 
typedef struct
{
  uint8_t   service_changed:1;              
  uint32_t  attr_tab_size;                  
} ble_gatts_enable_params_t;

 
typedef struct
{
  ble_gap_conn_sec_mode_t read_perm;        
  ble_gap_conn_sec_mode_t write_perm;       
  uint8_t                 vlen       :1;    
  uint8_t                 vloc       :2;    
  uint8_t                 rd_auth    :1;    
  uint8_t                 wr_auth    :1;    
} ble_gatts_attr_md_t;


 
typedef struct
{
  ble_uuid_t          *p_uuid;           
  ble_gatts_attr_md_t *p_attr_md;        
  uint16_t             init_len;         
  uint16_t             init_offs;        
  uint16_t             max_len;          
  uint8_t*             p_value;         

 
} ble_gatts_attr_t;

 
typedef struct
{
  uint16_t  len;         
  uint16_t  offset;      
  uint8_t   *p_value;   

 
} ble_gatts_value_t;


 
typedef struct
{
  ble_uuid_t           srvc_uuid;        
  ble_uuid_t           char_uuid;        
  ble_uuid_t           desc_uuid;        
  uint16_t             srvc_handle;      
  uint16_t             value_handle;     
  uint8_t              type;             
} ble_gatts_attr_context_t;


 
typedef struct
{
  uint8_t          format;       
  int8_t           exponent;     
  uint16_t         unit;         
  uint8_t          name_space;   
  uint16_t         desc;         
} ble_gatts_char_pf_t;


 
typedef struct
{
  ble_gatt_char_props_t       char_props;                
  ble_gatt_char_ext_props_t   char_ext_props;            
  uint8_t                    *p_char_user_desc;          
  uint16_t                    char_user_desc_max_size;   
  uint16_t                    char_user_desc_size;       
  ble_gatts_char_pf_t*        p_char_pf;                 
  ble_gatts_attr_md_t*        p_user_desc_md;            
  ble_gatts_attr_md_t*        p_cccd_md;                 
  ble_gatts_attr_md_t*        p_sccd_md;                 
} ble_gatts_char_md_t;


 
typedef struct
{
  uint16_t          value_handle;        
  uint16_t          user_desc_handle;    
  uint16_t          cccd_handle;         
  uint16_t          sccd_handle;         
} ble_gatts_char_handles_t;


 
typedef struct
{
  uint16_t          handle;              
  uint8_t           type;                
  uint16_t          offset;              
  uint16_t         *p_len;               
  uint8_t          *p_data;              
} ble_gatts_hvx_params_t;

 
typedef struct
{
  uint16_t          gatt_status;         
  uint8_t           update : 1;          
  uint16_t          offset;              
  uint16_t          len;                 
  uint8_t          *p_data;              
} ble_gatts_read_authorize_params_t;

 
typedef struct
{
  uint16_t          gatt_status;         
} ble_gatts_write_authorize_params_t;

 
typedef struct
{
  uint8_t                               type;    
  union {
    ble_gatts_read_authorize_params_t   read;    
    ble_gatts_write_authorize_params_t  write;   
  } params;                                      
} ble_gatts_rw_authorize_reply_params_t;



 
typedef struct
{
  uint16_t                    handle;              
  uint8_t                     op;                  
  ble_gatts_attr_context_t    context;             
  uint16_t                    offset;              
  uint16_t                    len;                 
  uint8_t                     data[1];             
} ble_gatts_evt_write_t;

 
typedef struct
{
  uint16_t                    handle;              
  ble_gatts_attr_context_t    context;             
  uint16_t                    offset;              
} ble_gatts_evt_read_t;

 
typedef struct
{
  uint8_t                     type;              
  union {
    ble_gatts_evt_read_t      read;              
    ble_gatts_evt_write_t     write;             
  } request;                                     
} ble_gatts_evt_rw_authorize_request_t;

 
typedef struct
{
  uint8_t hint;                                  
} ble_gatts_evt_sys_attr_missing_t;


 
typedef struct
{
  uint16_t          handle;                        
} ble_gatts_evt_hvc_t;

 
typedef struct
{
  uint8_t          src;                        
} ble_gatts_evt_timeout_t;


 
typedef struct
{
  uint16_t conn_handle;                                        
  union
  {
    ble_gatts_evt_write_t                 write;               
    ble_gatts_evt_rw_authorize_request_t  authorize_request;   
    ble_gatts_evt_sys_attr_missing_t      sys_attr_missing;    
    ble_gatts_evt_hvc_t                   hvc;                 
    ble_gatts_evt_timeout_t               timeout;             
  } params;                                                    
} ble_gatts_evt_t;

 


 















 
uint32_t __svc(SD_BLE_GATTS_SERVICE_ADD) sd_ble_gatts_service_add(uint8_t type, ble_uuid_t const *p_uuid, uint16_t *p_handle);



















 
uint32_t __svc(SD_BLE_GATTS_INCLUDE_ADD) sd_ble_gatts_include_add(uint16_t service_handle, uint16_t inc_srvc_handle, uint16_t *p_include_handle);























 
uint32_t __svc(SD_BLE_GATTS_CHARACTERISTIC_ADD) sd_ble_gatts_characteristic_add(uint16_t service_handle, ble_gatts_char_md_t const *p_char_md, ble_gatts_attr_t const *p_attr_char_value, ble_gatts_char_handles_t *p_handles);

















 
uint32_t __svc(SD_BLE_GATTS_DESCRIPTOR_ADD) sd_ble_gatts_descriptor_add(uint16_t char_handle, ble_gatts_attr_t const *p_attr, uint16_t *p_handle);

















 
uint32_t __svc(SD_BLE_GATTS_VALUE_SET) sd_ble_gatts_value_set(uint16_t conn_handle, uint16_t handle, ble_gatts_value_t *p_value);





















 
uint32_t __svc(SD_BLE_GATTS_VALUE_GET) sd_ble_gatts_value_get(uint16_t conn_handle, uint16_t handle, ble_gatts_value_t *p_value);



































 
uint32_t __svc(SD_BLE_GATTS_HVX) sd_ble_gatts_hvx(uint16_t conn_handle, ble_gatts_hvx_params_t const *p_hvx_params);





















 
uint32_t __svc(SD_BLE_GATTS_SERVICE_CHANGED) sd_ble_gatts_service_changed(uint16_t conn_handle, uint16_t start_handle, uint16_t end_handle);















 
uint32_t __svc(SD_BLE_GATTS_RW_AUTHORIZE_REPLY) sd_ble_gatts_rw_authorize_reply(uint16_t conn_handle, ble_gatts_rw_authorize_reply_params_t const *p_rw_authorize_reply_params);



































 
uint32_t __svc(SD_BLE_GATTS_SYS_ATTR_SET) sd_ble_gatts_sys_attr_set(uint16_t conn_handle, uint8_t const *p_sys_attr_data, uint16_t len, uint32_t flags);


























 
uint32_t __svc(SD_BLE_GATTS_SYS_ATTR_GET) sd_ble_gatts_sys_attr_get(uint16_t conn_handle, uint8_t *p_sys_attr_data, uint16_t *p_len, uint32_t flags);

 





 
#line 57 "C:\\Keil_v5\\ARM\\Pack\\NordicSemiconductor\\nRF_SoftDevice_S310\\3.0.0\\headers\\ble.h"


 



 
enum BLE_COMMON_SVCS
{
  SD_BLE_ENABLE = 0x60,          
  SD_BLE_EVT_GET,                        
  SD_BLE_TX_BUFFER_COUNT_GET,            
  SD_BLE_UUID_VS_ADD,                    
  SD_BLE_UUID_DECODE,                    
  SD_BLE_UUID_ENCODE,                    
  SD_BLE_VERSION_GET,                    
  SD_BLE_USER_MEM_REPLY,                 
  SD_BLE_OPT_SET,                        
  SD_BLE_OPT_GET,                        
};



 
enum BLE_COMMON_EVTS
{
  BLE_EVT_TX_COMPLETE  = 0x01,   
  BLE_EVT_USER_MEM_REQUEST,              
  BLE_EVT_USER_MEM_RELEASE               
};



 
enum BLE_COMMON_OPTS
{
  BLE_COMMON_OPT_RADIO_CPU_MUTEX = 0x01     
};
 


 


 



 


 


 


 


 

 
typedef struct
{
  uint8_t          *p_mem;       
  uint16_t          len;         
} ble_user_mem_block_t;



 
typedef struct
{
  uint8_t count;                         
} ble_evt_tx_complete_t;

 
typedef struct
{
  uint8_t                     type;      
} ble_evt_user_mem_request_t;

 
typedef struct
{
  uint8_t                     type;        
  ble_user_mem_block_t        mem_block;   
} ble_evt_user_mem_release_t;


 
typedef struct
{
  uint16_t conn_handle;                  
  union
  {
    ble_evt_tx_complete_t           tx_complete;         
    ble_evt_user_mem_request_t      user_mem_request;    
    ble_evt_user_mem_release_t      user_mem_release;    
  } params;
} ble_common_evt_t;

 
typedef struct
{
  uint16_t evt_id;                       
  uint16_t evt_len;                      
} ble_evt_hdr_t;

 
typedef struct
{
  ble_evt_hdr_t header;                  
  union
  {
    ble_common_evt_t  common_evt;          
    ble_gap_evt_t     gap_evt;             
    ble_l2cap_evt_t   l2cap_evt;           
    ble_gattc_evt_t   gattc_evt;           
    ble_gatts_evt_t   gatts_evt;           
  } evt;
} ble_evt_t;




 
typedef struct
{
  uint8_t   version_number;              
  uint16_t  company_id;                  
  uint16_t  subversion_number;           
} ble_version_t;


















 
typedef struct
{
  uint8_t enable : 1;                           
} ble_common_opt_radio_cpu_mutex_t;

 
typedef union
{
  ble_common_opt_radio_cpu_mutex_t  radio_cpu_mutex;         
} ble_common_opt_t;

 
typedef union
{
  ble_common_opt_t  common_opt;          
  ble_gap_opt_t     gap_opt;             
} ble_opt_t;



 
typedef struct
{
  ble_gatts_enable_params_t  gatts_enable_params;  
} ble_enable_params_t;

 


 













 
uint32_t __svc(SD_BLE_ENABLE) sd_ble_enable(ble_enable_params_t * p_ble_enable_params);

























 
uint32_t __svc(SD_BLE_EVT_GET) sd_ble_evt_get(uint8_t *p_dest, uint16_t *p_len);



































 
uint32_t __svc(SD_BLE_TX_BUFFER_COUNT_GET) sd_ble_tx_buffer_count_get(uint8_t *p_count);



























 
uint32_t __svc(SD_BLE_UUID_VS_ADD) sd_ble_uuid_vs_add(ble_uuid128_t const *p_vs_uuid, uint8_t *p_uuid_type);



















 
uint32_t __svc(SD_BLE_UUID_DECODE) sd_ble_uuid_decode(uint8_t uuid_le_len, uint8_t const *p_uuid_le, ble_uuid_t *p_uuid);













 
uint32_t __svc(SD_BLE_UUID_ENCODE) sd_ble_uuid_encode(ble_uuid_t const *p_uuid, uint8_t *p_uuid_le_len, uint8_t *p_uuid_le);











 
uint32_t __svc(SD_BLE_VERSION_GET) sd_ble_version_get(ble_version_t *p_version);













 
uint32_t __svc(SD_BLE_USER_MEM_REPLY) sd_ble_user_mem_reply(uint16_t conn_handle, ble_user_mem_block_t const *p_block);














 
uint32_t __svc(SD_BLE_OPT_SET) sd_ble_opt_set(uint32_t opt_id, ble_opt_t const *p_opt);

















 
uint32_t __svc(SD_BLE_OPT_GET) sd_ble_opt_get(uint32_t opt_id, ble_opt_t *p_opt);

 






 
#line 26 "C:\\Keil_v5\\ARM\\Pack\\NordicSemiconductor\\nRF_BLE\\3.0.1\\common\\ble_conn_params.h"
#line 1 "C:\\Keil_v5\\ARM\\Pack\\NordicSemiconductor\\nRF_BLE\\3.0.1\\common\\ble_srv_common.h"










 







 




#line 25 "C:\\Keil_v5\\ARM\\Pack\\NordicSemiconductor\\nRF_BLE\\3.0.1\\common\\ble_srv_common.h"
#line 1 "C:\\Keil_v5\\ARM\\ARMCC\\Bin\\..\\include\\stdbool.h"
 






 





#line 25 "C:\\Keil_v5\\ARM\\ARMCC\\Bin\\..\\include\\stdbool.h"



#line 26 "C:\\Keil_v5\\ARM\\Pack\\NordicSemiconductor\\nRF_BLE\\3.0.1\\common\\ble_srv_common.h"
#line 27 "C:\\Keil_v5\\ARM\\Pack\\NordicSemiconductor\\nRF_BLE\\3.0.1\\common\\ble_srv_common.h"
#line 1 "C:\\Keil_v5\\ARM\\Pack\\NordicSemiconductor\\nRF_Libraries\\3.0.1\\util\\app_util.h"










 








 




#line 26 "C:\\Keil_v5\\ARM\\Pack\\NordicSemiconductor\\nRF_Libraries\\3.0.1\\util\\app_util.h"
#line 27 "C:\\Keil_v5\\ARM\\Pack\\NordicSemiconductor\\nRF_Libraries\\3.0.1\\util\\app_util.h"
#line 1 "C:\\Keil_v5\\ARM\\PACK\\NordicSemiconductor\\nRF_DeviceFamilyPack\\8.0.3\\Device\\Include\\compiler_abstraction.h"




























 



 


    



    



    



    



    

  
#line 123 "C:\\Keil_v5\\ARM\\PACK\\NordicSemiconductor\\nRF_DeviceFamilyPack\\8.0.3\\Device\\Include\\compiler_abstraction.h"

 

#line 28 "C:\\Keil_v5\\ARM\\Pack\\NordicSemiconductor\\nRF_Libraries\\3.0.1\\util\\app_util.h"

enum
{
    UNIT_0_625_MS = 625,                                 
    UNIT_1_25_MS  = 1250,                                
    UNIT_10_MS    = 10000                                
};






 









 





























 
#line 88 "C:\\Keil_v5\\ARM\\Pack\\NordicSemiconductor\\nRF_Libraries\\3.0.1\\util\\app_util.h"








 
typedef uint8_t uint16_le_t[2];

 
typedef uint8_t uint32_le_t[4];

 
typedef struct
{
    uint16_t  size;                  
    uint8_t * p_data;                
} uint8_array_t;
    






 








 





 












 











 
static __inline uint8_t uint16_encode(uint16_t value, uint8_t * p_encoded_data)
{
    p_encoded_data[0] = (uint8_t) ((value & 0x00FF) >> 0);
    p_encoded_data[1] = (uint8_t) ((value & 0xFF00) >> 8);
    return sizeof(uint16_t);
}
    






 
static __inline uint8_t uint32_encode(uint32_t value, uint8_t * p_encoded_data)
{
    p_encoded_data[0] = (uint8_t) ((value & 0x000000FF) >> 0);
    p_encoded_data[1] = (uint8_t) ((value & 0x0000FF00) >> 8);
    p_encoded_data[2] = (uint8_t) ((value & 0x00FF0000) >> 16);
    p_encoded_data[3] = (uint8_t) ((value & 0xFF000000) >> 24);
    return sizeof(uint32_t);
}






 
static __inline uint16_t uint16_decode(const uint8_t * p_encoded_data)
{
        return ( (((uint16_t)((uint8_t *)p_encoded_data)[0])) | 
                 (((uint16_t)((uint8_t *)p_encoded_data)[1]) << 8 ));
}






 
static __inline uint32_t uint32_decode(const uint8_t * p_encoded_data)
{
    return ( (((uint32_t)((uint8_t *)p_encoded_data)[0]) << 0)  |
             (((uint32_t)((uint8_t *)p_encoded_data)[1]) << 8)  |
             (((uint32_t)((uint8_t *)p_encoded_data)[2]) << 16) |
             (((uint32_t)((uint8_t *)p_encoded_data)[3]) << 24 ));
}
    



















 
static __inline uint8_t battery_level_in_percent(const uint16_t mvolts)
{
    uint8_t battery_level;

    if (mvolts >= 3000)
    {
        battery_level = 100;
    }
    else if (mvolts > 2900)
    {
        battery_level = 100 - ((3000 - mvolts) * 58) / 100;
    }
    else if (mvolts > 2740)
    {
        battery_level = 42 - ((2900 - mvolts) * 24) / 160;
    }
    else if (mvolts > 2440)
    {
        battery_level = 18 - ((2740 - mvolts) * 12) / 300;
    }
    else if (mvolts > 2100)
    {
        battery_level = 6 - ((2440 - mvolts) * 6) / 340;
    }
    else
    {
        battery_level = 0;
    }

    return battery_level;
}






 
static __inline _Bool is_word_aligned(void * p)
{
    return (((uintptr_t)p & 0x03) == 0);
}



 
#line 28 "C:\\Keil_v5\\ARM\\Pack\\NordicSemiconductor\\nRF_BLE\\3.0.1\\common\\ble_srv_common.h"
#line 29 "C:\\Keil_v5\\ARM\\Pack\\NordicSemiconductor\\nRF_BLE\\3.0.1\\common\\ble_srv_common.h"
#line 30 "C:\\Keil_v5\\ARM\\Pack\\NordicSemiconductor\\nRF_BLE\\3.0.1\\common\\ble_srv_common.h"
#line 31 "C:\\Keil_v5\\ARM\\Pack\\NordicSemiconductor\\nRF_BLE\\3.0.1\\common\\ble_srv_common.h"


 
#line 52 "C:\\Keil_v5\\ARM\\Pack\\NordicSemiconductor\\nRF_BLE\\3.0.1\\common\\ble_srv_common.h"
 


 
#line 128 "C:\\Keil_v5\\ARM\\Pack\\NordicSemiconductor\\nRF_BLE\\3.0.1\\common\\ble_srv_common.h"
 


 



 





 
typedef void (*ble_srv_error_handler_t) (uint32_t nrf_error);






 
typedef struct
{
    uint8_t report_id;                                   
    uint8_t report_type;                                 
} ble_srv_report_ref_t;




 
typedef struct
{
    uint16_t  length;                                    
    uint8_t * p_str;                                     
} ble_srv_utf8_str_t;





 
typedef struct
{
    ble_gap_conn_sec_mode_t read_perm;                   
    ble_gap_conn_sec_mode_t write_perm;                  
} ble_srv_security_mode_t;




 
typedef struct
{
    ble_gap_conn_sec_mode_t cccd_write_perm;             
    ble_gap_conn_sec_mode_t read_perm;                   
    ble_gap_conn_sec_mode_t write_perm;                  
} ble_srv_cccd_security_mode_t;








 
static __inline _Bool ble_srv_is_notification_enabled(uint8_t * p_encoded_data)
{
    uint16_t cccd_value = uint16_decode(p_encoded_data);
    return ((cccd_value & 0x01) != 0);
}
    







 
static __inline _Bool ble_srv_is_indication_enabled(uint8_t * p_encoded_data)
{
    uint16_t cccd_value = uint16_decode(p_encoded_data);
    return ((cccd_value & 0x02) != 0);
}







 
uint8_t ble_srv_report_ref_encode(uint8_t *                    p_encoded_buffer,
                                  const ble_srv_report_ref_t * p_report_ref);





 
void ble_srv_ascii_to_utf8(ble_srv_utf8_str_t * p_utf8, char * p_ascii);




 
typedef enum
{
    SEC_NO_ACCESS    = 0,             
    SEC_OPEN         = 1,             
    SEC_JUST_WORKS   = 2,             
    SEC_MITM         = 3,             
    SEC_SIGNED       = 4,             
    SEC_SIGNED_MITM  = 5              
}security_req_t;




 
typedef struct
{
    uint16_t                    uuid;                      
    uint8_t                     uuid_type;                 
    uint16_t                    max_len;                   
    uint16_t                    init_len;                  
    uint8_t *                   p_init_value;              
    _Bool                        is_var_len;                
    ble_gatt_char_props_t       char_props;                
    _Bool                        is_defered_read;           
    _Bool                        is_defered_write;          
    security_req_t              read_access;               
    security_req_t              write_access;              
    security_req_t              cccd_write_access;         
    _Bool                        is_value_local;            
} ble_add_char_params_t;












 
uint32_t characteristic_add(uint16_t                   service_handle,
                            ble_add_char_params_t *    p_char_props,
                            ble_gatts_char_handles_t * p_char_handle);




 
#line 27 "C:\\Keil_v5\\ARM\\Pack\\NordicSemiconductor\\nRF_BLE\\3.0.1\\common\\ble_conn_params.h"

 
typedef enum
{
    BLE_CONN_PARAMS_EVT_FAILED   ,                                   
    BLE_CONN_PARAMS_EVT_SUCCEEDED                                    
} ble_conn_params_evt_type_t;

 
typedef struct
{
    ble_conn_params_evt_type_t evt_type;                             
} ble_conn_params_evt_t;

 
typedef void (*ble_conn_params_evt_handler_t) (ble_conn_params_evt_t * p_evt);


 
typedef struct
{
    ble_gap_conn_params_t *       p_conn_params;                     
    uint32_t                      first_conn_params_update_delay;    
    uint32_t                      next_conn_params_update_delay;     
    uint8_t                       max_conn_params_update_count;      
    uint16_t                      start_on_notify_cccd_handle;       
    _Bool                          disconnect_on_fail;                
    ble_conn_params_evt_handler_t evt_handler;                       
    ble_srv_error_handler_t       error_handler;                     
} ble_conn_params_init_t;











 
uint32_t ble_conn_params_init(const ble_conn_params_init_t * p_init);











 
uint32_t ble_conn_params_stop(void);















 
uint32_t ble_conn_params_change_conn_params(ble_gap_conn_params_t *new_params);






 
void ble_conn_params_on_ble_evt(ble_evt_t * p_ble_evt);



 
#line 14 "C:\\Keil_v5\\ARM\\Pack\\NordicSemiconductor\\nRF_BLE\\3.0.1\\common\\ble_conn_params.c"
#line 1 "C:\\Keil_v5\\ARM\\ARMCC\\Bin\\..\\include\\stdlib.h"
 
 
 




 
 



 






   














  


 








#line 54 "C:\\Keil_v5\\ARM\\ARMCC\\Bin\\..\\include\\stdlib.h"


  



    typedef unsigned int size_t;    
#line 70 "C:\\Keil_v5\\ARM\\ARMCC\\Bin\\..\\include\\stdlib.h"






    



    typedef unsigned short wchar_t;  
#line 91 "C:\\Keil_v5\\ARM\\ARMCC\\Bin\\..\\include\\stdlib.h"

typedef struct div_t { int quot, rem; } div_t;
    
typedef struct ldiv_t { long int quot, rem; } ldiv_t;
    

typedef struct lldiv_t { long long quot, rem; } lldiv_t;
    


#line 112 "C:\\Keil_v5\\ARM\\ARMCC\\Bin\\..\\include\\stdlib.h"
   



 

   




 
#line 131 "C:\\Keil_v5\\ARM\\ARMCC\\Bin\\..\\include\\stdlib.h"
   


 
extern __declspec(__nothrow) int __aeabi_MB_CUR_MAX(void);

   




 

   




 




extern __declspec(__nothrow) double atof(const char *  ) __attribute__((__nonnull__(1)));
   



 
extern __declspec(__nothrow) int atoi(const char *  ) __attribute__((__nonnull__(1)));
   



 
extern __declspec(__nothrow) long int atol(const char *  ) __attribute__((__nonnull__(1)));
   



 

extern __declspec(__nothrow) long long atoll(const char *  ) __attribute__((__nonnull__(1)));
   



 


extern __declspec(__nothrow) double strtod(const char * __restrict  , char ** __restrict  ) __attribute__((__nonnull__(1)));
   

















 

extern __declspec(__nothrow) float strtof(const char * __restrict  , char ** __restrict  ) __attribute__((__nonnull__(1)));
extern __declspec(__nothrow) long double strtold(const char * __restrict  , char ** __restrict  ) __attribute__((__nonnull__(1)));
   

 

extern __declspec(__nothrow) long int strtol(const char * __restrict  ,
                        char ** __restrict  , int  ) __attribute__((__nonnull__(1)));
   



























 
extern __declspec(__nothrow) unsigned long int strtoul(const char * __restrict  ,
                                       char ** __restrict  , int  ) __attribute__((__nonnull__(1)));
   


























 

 
extern __declspec(__nothrow) long long strtoll(const char * __restrict  ,
                                  char ** __restrict  , int  )
                          __attribute__((__nonnull__(1)));
   




 
extern __declspec(__nothrow) unsigned long long strtoull(const char * __restrict  ,
                                            char ** __restrict  , int  )
                                   __attribute__((__nonnull__(1)));
   



 

extern __declspec(__nothrow) int rand(void);
   







 
extern __declspec(__nothrow) void srand(unsigned int  );
   






 

struct _rand_state { int __x[57]; };
extern __declspec(__nothrow) int _rand_r(struct _rand_state *);
extern __declspec(__nothrow) void _srand_r(struct _rand_state *, unsigned int);
struct _ANSI_rand_state { int __x[1]; };
extern __declspec(__nothrow) int _ANSI_rand_r(struct _ANSI_rand_state *);
extern __declspec(__nothrow) void _ANSI_srand_r(struct _ANSI_rand_state *, unsigned int);
   


 

extern __declspec(__nothrow) void *calloc(size_t  , size_t  );
   



 
extern __declspec(__nothrow) void free(void *  );
   





 
extern __declspec(__nothrow) void *malloc(size_t  );
   



 
extern __declspec(__nothrow) void *realloc(void *  , size_t  );
   













 

extern __declspec(__nothrow) int posix_memalign(void **  , size_t  , size_t  );
   









 

typedef int (*__heapprt)(void *, char const *, ...);
extern __declspec(__nothrow) void __heapstats(int (*  )(void *  ,
                                           char const *  , ...),
                        void *  ) __attribute__((__nonnull__(1)));
   










 
extern __declspec(__nothrow) int __heapvalid(int (*  )(void *  ,
                                           char const *  , ...),
                       void *  , int  ) __attribute__((__nonnull__(1)));
   














 
extern __declspec(__nothrow) __declspec(__noreturn) void abort(void);
   







 

extern __declspec(__nothrow) int atexit(void (*  )(void)) __attribute__((__nonnull__(1)));
   




 
#line 436 "C:\\Keil_v5\\ARM\\ARMCC\\Bin\\..\\include\\stdlib.h"


extern __declspec(__nothrow) __declspec(__noreturn) void exit(int  );
   












 

extern __declspec(__nothrow) __declspec(__noreturn) void _Exit(int  );
   







      

extern __declspec(__nothrow) char *getenv(const char *  ) __attribute__((__nonnull__(1)));
   









 

extern __declspec(__nothrow) int  system(const char *  );
   









 

extern  void *bsearch(const void *  , const void *  ,
              size_t  , size_t  ,
              int (*  )(const void *, const void *)) __attribute__((__nonnull__(1,2,5)));
   












 
#line 524 "C:\\Keil_v5\\ARM\\ARMCC\\Bin\\..\\include\\stdlib.h"


extern  void qsort(void *  , size_t  , size_t  ,
           int (*  )(const void *, const void *)) __attribute__((__nonnull__(1,4)));
   









 

#line 553 "C:\\Keil_v5\\ARM\\ARMCC\\Bin\\..\\include\\stdlib.h"

extern __declspec(__nothrow) __attribute__((const)) int abs(int  );
   



 

extern __declspec(__nothrow) __attribute__((const)) div_t div(int  , int  );
   









 
extern __declspec(__nothrow) __attribute__((const)) long int labs(long int  );
   



 




extern __declspec(__nothrow) __attribute__((const)) ldiv_t ldiv(long int  , long int  );
   











 







extern __declspec(__nothrow) __attribute__((const)) long long llabs(long long  );
   



 




extern __declspec(__nothrow) __attribute__((const)) lldiv_t lldiv(long long  , long long  );
   











 
#line 634 "C:\\Keil_v5\\ARM\\ARMCC\\Bin\\..\\include\\stdlib.h"




 
typedef struct __sdiv32by16 { int quot, rem; } __sdiv32by16;
typedef struct __udiv32by16 { unsigned int quot, rem; } __udiv32by16;
    
typedef struct __sdiv64by32 { int rem, quot; } __sdiv64by32;

__value_in_regs extern __declspec(__nothrow) __attribute__((const)) __sdiv32by16 __rt_sdiv32by16(
     int  ,
     short int  );
   

 
__value_in_regs extern __declspec(__nothrow) __attribute__((const)) __udiv32by16 __rt_udiv32by16(
     unsigned int  ,
     unsigned short  );
   

 
__value_in_regs extern __declspec(__nothrow) __attribute__((const)) __sdiv64by32 __rt_sdiv64by32(
     int  , unsigned int  ,
     int  );
   

 




 
extern __declspec(__nothrow) unsigned int __fp_status(unsigned int  , unsigned int  );
   







 























 
extern __declspec(__nothrow) int mblen(const char *  , size_t  );
   












 
extern __declspec(__nothrow) int mbtowc(wchar_t * __restrict  ,
                   const char * __restrict  , size_t  );
   















 
extern __declspec(__nothrow) int wctomb(char *  , wchar_t  );
   













 





 
extern __declspec(__nothrow) size_t mbstowcs(wchar_t * __restrict  ,
                      const char * __restrict  , size_t  ) __attribute__((__nonnull__(2)));
   














 
extern __declspec(__nothrow) size_t wcstombs(char * __restrict  ,
                      const wchar_t * __restrict  , size_t  ) __attribute__((__nonnull__(2)));
   














 

extern __declspec(__nothrow) void __use_realtime_heap(void);
extern __declspec(__nothrow) void __use_realtime_division(void);
extern __declspec(__nothrow) void __use_two_region_memory(void);
extern __declspec(__nothrow) void __use_no_heap(void);
extern __declspec(__nothrow) void __use_no_heap_region(void);

extern __declspec(__nothrow) char const *__C_library_version_string(void);
extern __declspec(__nothrow) int __C_library_version_number(void);











#line 892 "C:\\Keil_v5\\ARM\\ARMCC\\Bin\\..\\include\\stdlib.h"





 
#line 15 "C:\\Keil_v5\\ARM\\Pack\\NordicSemiconductor\\nRF_BLE\\3.0.1\\common\\ble_conn_params.c"
#line 1 "C:\\Keil_v5\\ARM\\Pack\\NordicSemiconductor\\nRF_Libraries\\3.0.1\\util\\nordic_common.h"









  



 




 



 


 


 
    

 
    


#line 68 "C:\\Keil_v5\\ARM\\Pack\\NordicSemiconductor\\nRF_Libraries\\3.0.1\\util\\nordic_common.h"




#line 16 "C:\\Keil_v5\\ARM\\Pack\\NordicSemiconductor\\nRF_BLE\\3.0.1\\common\\ble_conn_params.c"
#line 1 "C:\\Keil_v5\\ARM\\Pack\\NordicSemiconductor\\nRF_SoftDevice_S310\\3.0.0\\headers\\ble_hci.h"


































 




 






 






 






 





 









 




 




 

 




 


















 






 




 
#line 17 "C:\\Keil_v5\\ARM\\Pack\\NordicSemiconductor\\nRF_BLE\\3.0.1\\common\\ble_conn_params.c"
#line 1 "C:\\Keil_v5\\ARM\\Pack\\NordicSemiconductor\\nRF_Libraries\\3.0.1\\timer\\app_timer.h"










 



























 




#line 45 "C:\\Keil_v5\\ARM\\Pack\\NordicSemiconductor\\nRF_Libraries\\3.0.1\\timer\\app_timer.h"
#line 46 "C:\\Keil_v5\\ARM\\Pack\\NordicSemiconductor\\nRF_Libraries\\3.0.1\\timer\\app_timer.h"
#line 1 "C:\\Keil_v5\\ARM\\ARMCC\\Bin\\..\\include\\stdio.h"
 
 
 





 






 







 




  
 








#line 47 "C:\\Keil_v5\\ARM\\ARMCC\\Bin\\..\\include\\stdio.h"


  



    typedef unsigned int size_t;    









 
 

 



    typedef struct __va_list __va_list;






   




 




typedef struct __fpos_t_struct {
    unsigned __int64 __pos;
    



 
    struct {
        unsigned int __state1, __state2;
    } __mbstate;
} fpos_t;
   


 


   

 

typedef struct __FILE FILE;
   






 

#line 136 "C:\\Keil_v5\\ARM\\ARMCC\\Bin\\..\\include\\stdio.h"


extern FILE __stdin, __stdout, __stderr;
extern FILE *__aeabi_stdin, *__aeabi_stdout, *__aeabi_stderr;

#line 166 "C:\\Keil_v5\\ARM\\ARMCC\\Bin\\..\\include\\stdio.h"
    

    

    





     



   


 


   


 

   



 

   


 




   


 





    


 






extern __declspec(__nothrow) int remove(const char *  ) __attribute__((__nonnull__(1)));
   





 
extern __declspec(__nothrow) int rename(const char *  , const char *  ) __attribute__((__nonnull__(1,2)));
   








 
extern __declspec(__nothrow) FILE *tmpfile(void);
   




 
extern __declspec(__nothrow) char *tmpnam(char *  );
   











 

extern __declspec(__nothrow) int fclose(FILE *  ) __attribute__((__nonnull__(1)));
   







 
extern __declspec(__nothrow) int fflush(FILE *  );
   







 
extern __declspec(__nothrow) FILE *fopen(const char * __restrict  ,
                           const char * __restrict  ) __attribute__((__nonnull__(1,2)));
   








































 
extern __declspec(__nothrow) FILE *freopen(const char * __restrict  ,
                    const char * __restrict  ,
                    FILE * __restrict  ) __attribute__((__nonnull__(2,3)));
   








 
extern __declspec(__nothrow) void setbuf(FILE * __restrict  ,
                    char * __restrict  ) __attribute__((__nonnull__(1)));
   




 
extern __declspec(__nothrow) int setvbuf(FILE * __restrict  ,
                   char * __restrict  ,
                   int  , size_t  ) __attribute__((__nonnull__(1)));
   















 
#pragma __printf_args
extern __declspec(__nothrow) int fprintf(FILE * __restrict  ,
                    const char * __restrict  , ...) __attribute__((__nonnull__(1,2)));
   


















 
#pragma __printf_args
extern __declspec(__nothrow) int _fprintf(FILE * __restrict  ,
                     const char * __restrict  , ...) __attribute__((__nonnull__(1,2)));
   



 
#pragma __printf_args
extern __declspec(__nothrow) int printf(const char * __restrict  , ...) __attribute__((__nonnull__(1)));
   




 
#pragma __printf_args
extern __declspec(__nothrow) int _printf(const char * __restrict  , ...) __attribute__((__nonnull__(1)));
   



 
#pragma __printf_args
extern __declspec(__nothrow) int sprintf(char * __restrict  , const char * __restrict  , ...) __attribute__((__nonnull__(1,2)));
   






 
#pragma __printf_args
extern __declspec(__nothrow) int _sprintf(char * __restrict  , const char * __restrict  , ...) __attribute__((__nonnull__(1,2)));
   



 

#pragma __printf_args
extern __declspec(__nothrow) int snprintf(char * __restrict  , size_t  ,
                     const char * __restrict  , ...) __attribute__((__nonnull__(3)));
   















 

#pragma __printf_args
extern __declspec(__nothrow) int _snprintf(char * __restrict  , size_t  ,
                      const char * __restrict  , ...) __attribute__((__nonnull__(3)));
   



 
#pragma __scanf_args
extern __declspec(__nothrow) int fscanf(FILE * __restrict  ,
                    const char * __restrict  , ...) __attribute__((__nonnull__(1,2)));
   






























 
#pragma __scanf_args
extern __declspec(__nothrow) int _fscanf(FILE * __restrict  ,
                     const char * __restrict  , ...) __attribute__((__nonnull__(1,2)));
   



 
#pragma __scanf_args
extern __declspec(__nothrow) int scanf(const char * __restrict  , ...) __attribute__((__nonnull__(1)));
   






 
#pragma __scanf_args
extern __declspec(__nothrow) int _scanf(const char * __restrict  , ...) __attribute__((__nonnull__(1)));
   



 
#pragma __scanf_args
extern __declspec(__nothrow) int sscanf(const char * __restrict  ,
                    const char * __restrict  , ...) __attribute__((__nonnull__(1,2)));
   








 
#pragma __scanf_args
extern __declspec(__nothrow) int _sscanf(const char * __restrict  ,
                     const char * __restrict  , ...) __attribute__((__nonnull__(1,2)));
   



 

 
extern __declspec(__nothrow) int vfscanf(FILE * __restrict  , const char * __restrict  , __va_list) __attribute__((__nonnull__(1,2)));
extern __declspec(__nothrow) int vscanf(const char * __restrict  , __va_list) __attribute__((__nonnull__(1)));
extern __declspec(__nothrow) int vsscanf(const char * __restrict  , const char * __restrict  , __va_list) __attribute__((__nonnull__(1,2)));

extern __declspec(__nothrow) int _vfscanf(FILE * __restrict  , const char * __restrict  , __va_list) __attribute__((__nonnull__(1,2)));
extern __declspec(__nothrow) int _vscanf(const char * __restrict  , __va_list) __attribute__((__nonnull__(1)));
extern __declspec(__nothrow) int _vsscanf(const char * __restrict  , const char * __restrict  , __va_list) __attribute__((__nonnull__(1,2)));

extern __declspec(__nothrow) int vprintf(const char * __restrict  , __va_list  ) __attribute__((__nonnull__(1)));
   





 
extern __declspec(__nothrow) int _vprintf(const char * __restrict  , __va_list  ) __attribute__((__nonnull__(1)));
   



 
extern __declspec(__nothrow) int vfprintf(FILE * __restrict  ,
                    const char * __restrict  , __va_list  ) __attribute__((__nonnull__(1,2)));
   






 
extern __declspec(__nothrow) int vsprintf(char * __restrict  ,
                     const char * __restrict  , __va_list  ) __attribute__((__nonnull__(1,2)));
   






 

extern __declspec(__nothrow) int vsnprintf(char * __restrict  , size_t  ,
                     const char * __restrict  , __va_list  ) __attribute__((__nonnull__(3)));
   







 

extern __declspec(__nothrow) int _vsprintf(char * __restrict  ,
                      const char * __restrict  , __va_list  ) __attribute__((__nonnull__(1,2)));
   



 
extern __declspec(__nothrow) int _vfprintf(FILE * __restrict  ,
                     const char * __restrict  , __va_list  ) __attribute__((__nonnull__(1,2)));
   



 
extern __declspec(__nothrow) int _vsnprintf(char * __restrict  , size_t  ,
                      const char * __restrict  , __va_list  ) __attribute__((__nonnull__(3)));
   



 
extern __declspec(__nothrow) int fgetc(FILE *  ) __attribute__((__nonnull__(1)));
   







 
extern __declspec(__nothrow) char *fgets(char * __restrict  , int  ,
                    FILE * __restrict  ) __attribute__((__nonnull__(1,3)));
   










 
extern __declspec(__nothrow) int fputc(int  , FILE *  ) __attribute__((__nonnull__(2)));
   







 
extern __declspec(__nothrow) int fputs(const char * __restrict  , FILE * __restrict  ) __attribute__((__nonnull__(1,2)));
   




 
extern __declspec(__nothrow) int getc(FILE *  ) __attribute__((__nonnull__(1)));
   







 




    extern __declspec(__nothrow) int (getchar)(void);

   





 
extern __declspec(__nothrow) char *gets(char *  ) __attribute__((__nonnull__(1)));
   









 
extern __declspec(__nothrow) int putc(int  , FILE *  ) __attribute__((__nonnull__(2)));
   





 




    extern __declspec(__nothrow) int (putchar)(int  );

   



 
extern __declspec(__nothrow) int puts(const char *  ) __attribute__((__nonnull__(1)));
   





 
extern __declspec(__nothrow) int ungetc(int  , FILE *  ) __attribute__((__nonnull__(2)));
   






















 

extern __declspec(__nothrow) size_t fread(void * __restrict  ,
                    size_t  , size_t  , FILE * __restrict  ) __attribute__((__nonnull__(1,4)));
   











 

extern __declspec(__nothrow) size_t __fread_bytes_avail(void * __restrict  ,
                    size_t  , FILE * __restrict  ) __attribute__((__nonnull__(1,3)));
   











 

extern __declspec(__nothrow) size_t fwrite(const void * __restrict  ,
                    size_t  , size_t  , FILE * __restrict  ) __attribute__((__nonnull__(1,4)));
   







 

extern __declspec(__nothrow) int fgetpos(FILE * __restrict  , fpos_t * __restrict  ) __attribute__((__nonnull__(1,2)));
   








 
extern __declspec(__nothrow) int fseek(FILE *  , long int  , int  ) __attribute__((__nonnull__(1)));
   














 
extern __declspec(__nothrow) int fsetpos(FILE * __restrict  , const fpos_t * __restrict  ) __attribute__((__nonnull__(1,2)));
   










 
extern __declspec(__nothrow) long int ftell(FILE *  ) __attribute__((__nonnull__(1)));
   











 
extern __declspec(__nothrow) void rewind(FILE *  ) __attribute__((__nonnull__(1)));
   





 

extern __declspec(__nothrow) void clearerr(FILE *  ) __attribute__((__nonnull__(1)));
   




 

extern __declspec(__nothrow) int feof(FILE *  ) __attribute__((__nonnull__(1)));
   


 
extern __declspec(__nothrow) int ferror(FILE *  ) __attribute__((__nonnull__(1)));
   


 
extern __declspec(__nothrow) void perror(const char *  );
   









 

extern __declspec(__nothrow) int _fisatty(FILE *   ) __attribute__((__nonnull__(1)));
    
 

extern __declspec(__nothrow) void __use_no_semihosting_swi(void);
extern __declspec(__nothrow) void __use_no_semihosting(void);
    





 











#line 985 "C:\\Keil_v5\\ARM\\ARMCC\\Bin\\..\\include\\stdio.h"



 

#line 47 "C:\\Keil_v5\\ARM\\Pack\\NordicSemiconductor\\nRF_Libraries\\3.0.1\\timer\\app_timer.h"
#line 1 "C:\\Keil_v5\\ARM\\Pack\\NordicSemiconductor\\nRF_Libraries\\3.0.1\\util\\app_error.h"










 
 







 




#line 26 "C:\\Keil_v5\\ARM\\Pack\\NordicSemiconductor\\nRF_Libraries\\3.0.1\\util\\app_error.h"
#line 27 "C:\\Keil_v5\\ARM\\Pack\\NordicSemiconductor\\nRF_Libraries\\3.0.1\\util\\app_error.h"
#line 28 "C:\\Keil_v5\\ARM\\Pack\\NordicSemiconductor\\nRF_Libraries\\3.0.1\\util\\app_error.h"






 
void app_error_handler(uint32_t error_code, uint32_t line_num, const uint8_t * p_file_name);




 
#line 54 "C:\\Keil_v5\\ARM\\Pack\\NordicSemiconductor\\nRF_Libraries\\3.0.1\\util\\app_error.h"



     
#line 67 "C:\\Keil_v5\\ARM\\Pack\\NordicSemiconductor\\nRF_Libraries\\3.0.1\\util\\app_error.h"
    



 
#line 81 "C:\\Keil_v5\\ARM\\Pack\\NordicSemiconductor\\nRF_Libraries\\3.0.1\\util\\app_error.h"



 
#line 48 "C:\\Keil_v5\\ARM\\Pack\\NordicSemiconductor\\nRF_Libraries\\3.0.1\\timer\\app_timer.h"
#line 49 "C:\\Keil_v5\\ARM\\Pack\\NordicSemiconductor\\nRF_Libraries\\3.0.1\\timer\\app_timer.h"
#line 50 "C:\\Keil_v5\\ARM\\Pack\\NordicSemiconductor\\nRF_Libraries\\3.0.1\\timer\\app_timer.h"

















 
#line 78 "C:\\Keil_v5\\ARM\\Pack\\NordicSemiconductor\\nRF_Libraries\\3.0.1\\timer\\app_timer.h"


















 



 
typedef uint32_t app_timer_id_t;

 
typedef void (*app_timer_timeout_handler_t)(void * p_context);

 
typedef uint32_t (*app_timer_evt_schedule_func_t) (app_timer_timeout_handler_t timeout_handler,
                                                   void *                      p_context);

 
typedef enum
{
    APP_TIMER_MODE_SINGLE_SHOT,                  
    APP_TIMER_MODE_REPEATED                      
} app_timer_mode_t;






















 
   
#line 153 "C:\\Keil_v5\\ARM\\Pack\\NordicSemiconductor\\nRF_Libraries\\3.0.1\\timer\\app_timer.h"
























 
uint32_t app_timer_init(uint32_t                      prescaler, 
                        uint8_t                       max_timers,
                        uint8_t                       op_queues_size,
                        void *                        p_buffer,
                        app_timer_evt_schedule_func_t evt_schedule_func);















 
uint32_t app_timer_create(app_timer_id_t *            p_timer_id,
                          app_timer_mode_t            mode,
                          app_timer_timeout_handler_t timeout_handler);




















 
uint32_t app_timer_start(app_timer_id_t timer_id, uint32_t timeout_ticks, void * p_context);










 
uint32_t app_timer_stop(app_timer_id_t timer_id);






 
uint32_t app_timer_stop_all(void);






 
uint32_t app_timer_cnt_get(uint32_t * p_ticks);








 
uint32_t app_timer_cnt_diff_compute(uint32_t   ticks_to,
                                    uint32_t   ticks_from,
                                    uint32_t * p_ticks_diff);



 
#line 18 "C:\\Keil_v5\\ARM\\Pack\\NordicSemiconductor\\nRF_BLE\\3.0.1\\common\\ble_conn_params.c"
#line 19 "C:\\Keil_v5\\ARM\\Pack\\NordicSemiconductor\\nRF_BLE\\3.0.1\\common\\ble_conn_params.c"
#line 20 "C:\\Keil_v5\\ARM\\Pack\\NordicSemiconductor\\nRF_BLE\\3.0.1\\common\\ble_conn_params.c"


static ble_conn_params_init_t m_conn_params_config;      
static ble_gap_conn_params_t  m_preferred_conn_params;   
static uint8_t                m_update_count;            
static uint16_t               m_conn_handle;             
static ble_gap_conn_params_t  m_current_conn_params;     
static app_timer_id_t         m_conn_params_timer_id;    

static _Bool m_change_param = 0;

static _Bool is_conn_params_ok(ble_gap_conn_params_t * p_conn_params)
{
    
    
    
    if (
        (p_conn_params->max_conn_interval >= m_preferred_conn_params.min_conn_interval)
        && 
        (p_conn_params->max_conn_interval <= m_preferred_conn_params.max_conn_interval)
       )
    {
        return 1;
    }
    else
    {
        return 0;
    }
}


static void update_timeout_handler(void * p_context)
{
    ((void)(p_context));

    if (m_conn_handle != 0xFFFF)
    {
        
        m_update_count++;
        if (m_update_count <= m_conn_params_config.max_conn_params_update_count)
        {
            uint32_t err_code;

            
            err_code = sd_ble_gap_conn_param_update(m_conn_handle, &m_preferred_conn_params);
            if ((err_code != ((0x0) + 0)) && (m_conn_params_config.error_handler != 0))
            {
                m_conn_params_config.error_handler(err_code);
            }
        }
        else
        {
            m_update_count = 0;

            
            if (m_conn_params_config.disconnect_on_fail)
            {
                uint32_t err_code;

                err_code = sd_ble_gap_disconnect(m_conn_handle, 0x3B);
                if ((err_code != ((0x0) + 0)) && (m_conn_params_config.error_handler != 0))
                {
                    m_conn_params_config.error_handler(err_code);
                }
            }

            
            if (m_conn_params_config.evt_handler != 0)
            {
                ble_conn_params_evt_t evt;

                evt.evt_type = BLE_CONN_PARAMS_EVT_FAILED;
                m_conn_params_config.evt_handler(&evt);
            }
        }
    }
}


uint32_t ble_conn_params_init(const ble_conn_params_init_t * p_init)
{
    uint32_t err_code;

    m_conn_params_config = *p_init;
    m_change_param = 0;
    if (p_init->p_conn_params != 0)
    {
        m_preferred_conn_params = *p_init->p_conn_params;

        
        err_code = sd_ble_gap_ppcp_set(&m_preferred_conn_params);
        if (err_code != ((0x0) + 0))
        {
            return err_code;
        }
    }
    else
    {
        
        err_code = sd_ble_gap_ppcp_get(&m_preferred_conn_params);
        if (err_code != ((0x0) + 0))
        {
            return err_code;
        }
    }

    m_conn_handle  = 0xFFFF;
    m_update_count = 0;

    return app_timer_create(&m_conn_params_timer_id,
                            APP_TIMER_MODE_SINGLE_SHOT,
                            update_timeout_handler);
}


uint32_t ble_conn_params_stop(void)
{
    return app_timer_stop(m_conn_params_timer_id);
}


static void conn_params_negotiation(void)
{
    
    if (!is_conn_params_ok(&m_current_conn_params))
    {
        uint32_t err_code;
        uint32_t timeout_ticks;

        if (m_change_param)
        {
            
            if (m_conn_params_config.evt_handler != 0)
            {
                ble_conn_params_evt_t evt;

                evt.evt_type = BLE_CONN_PARAMS_EVT_FAILED;
                m_conn_params_config.evt_handler(&evt);
            }
        }
        else
        {
            if (m_update_count == 0)
            {
                
                timeout_ticks = m_conn_params_config.first_conn_params_update_delay;
            }
            else
            {
                timeout_ticks = m_conn_params_config.next_conn_params_update_delay;
            }

            err_code = app_timer_start(m_conn_params_timer_id, timeout_ticks, 0);
            if ((err_code != ((0x0) + 0)) && (m_conn_params_config.error_handler != 0))
            {
                m_conn_params_config.error_handler(err_code);
            }
        }
    }
    else
    {
        
        if (m_conn_params_config.evt_handler != 0)
        {
            ble_conn_params_evt_t evt;

            evt.evt_type = BLE_CONN_PARAMS_EVT_SUCCEEDED;
            m_conn_params_config.evt_handler(&evt);
        }
    }
    m_change_param = 0;
}


static void on_connect(ble_evt_t * p_ble_evt)
{
    
    m_conn_handle         = p_ble_evt->evt.gap_evt.conn_handle;
    m_current_conn_params = p_ble_evt->evt.gap_evt.params.connected.conn_params;
    m_update_count        = 0;  

    
    if (m_conn_params_config.start_on_notify_cccd_handle == 0x0000)
    {
        conn_params_negotiation();
    }
}


static void on_disconnect(ble_evt_t * p_ble_evt)
{
    uint32_t err_code;

    m_conn_handle = 0xFFFF;

    
    m_update_count = 0; 

    err_code = app_timer_stop(m_conn_params_timer_id);
    if ((err_code != ((0x0) + 0)) && (m_conn_params_config.error_handler != 0))
    {
        m_conn_params_config.error_handler(err_code);
    }
}


static void on_write(ble_evt_t * p_ble_evt)
{
    ble_gatts_evt_write_t * p_evt_write = &p_ble_evt->evt.gatts_evt.params.write;

    
    if (
        (p_evt_write->handle == m_conn_params_config.start_on_notify_cccd_handle)
        &&
        (p_evt_write->len == 2)
       )
    {
        
        if (ble_srv_is_notification_enabled(p_evt_write->data))
        {
            
            conn_params_negotiation();
        }
        else
        {
            uint32_t err_code;

            
            err_code = app_timer_stop(m_conn_params_timer_id);
            if ((err_code != ((0x0) + 0)) && (m_conn_params_config.error_handler != 0))
            {
                m_conn_params_config.error_handler(err_code);
            }
        }
    }
}


static void on_conn_params_update(ble_evt_t * p_ble_evt)
{
    
    m_current_conn_params = p_ble_evt->evt.gap_evt.params.conn_param_update.conn_params;

    conn_params_negotiation();
}


void ble_conn_params_on_ble_evt(ble_evt_t * p_ble_evt)
{
    switch (p_ble_evt->header.evt_id)
    {
        case BLE_GAP_EVT_CONNECTED:
            on_connect(p_ble_evt);
            break;

        case BLE_GAP_EVT_DISCONNECTED:
            on_disconnect(p_ble_evt);
            break;

        case BLE_GATTS_EVT_WRITE:
            on_write(p_ble_evt);
            break;

        case BLE_GAP_EVT_CONN_PARAM_UPDATE:
            on_conn_params_update(p_ble_evt);
            break;

        default:
            
            break;
    }
}


uint32_t ble_conn_params_change_conn_params(ble_gap_conn_params_t * new_params)
{
    uint32_t err_code;

    m_preferred_conn_params = *new_params;
    
    err_code = sd_ble_gap_ppcp_set(&m_preferred_conn_params);
    if (err_code == ((0x0) + 0))
    {
        if (!is_conn_params_ok(&m_current_conn_params))
        {
            m_change_param = 1;
            err_code = sd_ble_gap_conn_param_update(m_conn_handle, &m_preferred_conn_params);
            m_update_count = 1;
        }
        else
        {
            
            if (m_conn_params_config.evt_handler != 0)
            {
                ble_conn_params_evt_t evt;

                evt.evt_type = BLE_CONN_PARAMS_EVT_SUCCEEDED;
                m_conn_params_config.evt_handler(&evt);
            }
            err_code = ((0x0) + 0);
        }
    }
    return err_code;
}
