#line 1 "C:\\Keil_v5\\ARM\\Pack\\NordicSemiconductor\\nRF_Libraries\\3.0.1\\crc16\\crc16.c"










 

#line 1 "C:\\Keil_v5\\ARM\\Pack\\NordicSemiconductor\\nRF_Libraries\\3.0.1\\crc16\\crc16.h"










 
 







 
 



#line 1 "C:\\Keil_v5\\ARM\\ARMCC\\Bin\\..\\include\\stdint.h"
 
 





 









     
#line 27 "C:\\Keil_v5\\ARM\\ARMCC\\Bin\\..\\include\\stdint.h"
     











#line 46 "C:\\Keil_v5\\ARM\\ARMCC\\Bin\\..\\include\\stdint.h"





 

     

     
typedef   signed          char int8_t;
typedef   signed short     int int16_t;
typedef   signed           int int32_t;
typedef   signed       __int64 int64_t;

     
typedef unsigned          char uint8_t;
typedef unsigned short     int uint16_t;
typedef unsigned           int uint32_t;
typedef unsigned       __int64 uint64_t;

     

     
     
typedef   signed          char int_least8_t;
typedef   signed short     int int_least16_t;
typedef   signed           int int_least32_t;
typedef   signed       __int64 int_least64_t;

     
typedef unsigned          char uint_least8_t;
typedef unsigned short     int uint_least16_t;
typedef unsigned           int uint_least32_t;
typedef unsigned       __int64 uint_least64_t;

     

     
typedef   signed           int int_fast8_t;
typedef   signed           int int_fast16_t;
typedef   signed           int int_fast32_t;
typedef   signed       __int64 int_fast64_t;

     
typedef unsigned           int uint_fast8_t;
typedef unsigned           int uint_fast16_t;
typedef unsigned           int uint_fast32_t;
typedef unsigned       __int64 uint_fast64_t;

     




typedef   signed           int intptr_t;
typedef unsigned           int uintptr_t;


     
typedef   signed     long long intmax_t;
typedef unsigned     long long uintmax_t;




     

     





     





     





     

     





     





     





     

     





     





     





     

     






     






     






     

     


     


     


     

     
#line 216 "C:\\Keil_v5\\ARM\\ARMCC\\Bin\\..\\include\\stdint.h"

     



     






     
    
 



#line 241 "C:\\Keil_v5\\ARM\\ARMCC\\Bin\\..\\include\\stdint.h"

     







     










     











#line 305 "C:\\Keil_v5\\ARM\\ARMCC\\Bin\\..\\include\\stdint.h"






 
#line 26 "C:\\Keil_v5\\ARM\\Pack\\NordicSemiconductor\\nRF_Libraries\\3.0.1\\crc16\\crc16.h"












 
uint16_t crc16_compute(const uint8_t * p_data, uint32_t size, const uint16_t * p_crc);


 
 
#line 14 "C:\\Keil_v5\\ARM\\Pack\\NordicSemiconductor\\nRF_Libraries\\3.0.1\\crc16\\crc16.c"
#line 1 "C:\\Keil_v5\\ARM\\ARMCC\\Bin\\..\\include\\stdio.h"
 
 
 





 






 







 




  
 








#line 47 "C:\\Keil_v5\\ARM\\ARMCC\\Bin\\..\\include\\stdio.h"


  



    typedef unsigned int size_t;    









 
 

 



    typedef struct __va_list __va_list;






   




 




typedef struct __fpos_t_struct {
    unsigned __int64 __pos;
    



 
    struct {
        unsigned int __state1, __state2;
    } __mbstate;
} fpos_t;
   


 


   

 

typedef struct __FILE FILE;
   






 

#line 136 "C:\\Keil_v5\\ARM\\ARMCC\\Bin\\..\\include\\stdio.h"


extern FILE __stdin, __stdout, __stderr;
extern FILE *__aeabi_stdin, *__aeabi_stdout, *__aeabi_stderr;

#line 166 "C:\\Keil_v5\\ARM\\ARMCC\\Bin\\..\\include\\stdio.h"
    

    

    





     



   


 


   


 

   



 

   


 




   


 





    


 






extern __declspec(__nothrow) int remove(const char *  ) __attribute__((__nonnull__(1)));
   





 
extern __declspec(__nothrow) int rename(const char *  , const char *  ) __attribute__((__nonnull__(1,2)));
   








 
extern __declspec(__nothrow) FILE *tmpfile(void);
   




 
extern __declspec(__nothrow) char *tmpnam(char *  );
   











 

extern __declspec(__nothrow) int fclose(FILE *  ) __attribute__((__nonnull__(1)));
   







 
extern __declspec(__nothrow) int fflush(FILE *  );
   







 
extern __declspec(__nothrow) FILE *fopen(const char * __restrict  ,
                           const char * __restrict  ) __attribute__((__nonnull__(1,2)));
   








































 
extern __declspec(__nothrow) FILE *freopen(const char * __restrict  ,
                    const char * __restrict  ,
                    FILE * __restrict  ) __attribute__((__nonnull__(2,3)));
   








 
extern __declspec(__nothrow) void setbuf(FILE * __restrict  ,
                    char * __restrict  ) __attribute__((__nonnull__(1)));
   




 
extern __declspec(__nothrow) int setvbuf(FILE * __restrict  ,
                   char * __restrict  ,
                   int  , size_t  ) __attribute__((__nonnull__(1)));
   















 
#pragma __printf_args
extern __declspec(__nothrow) int fprintf(FILE * __restrict  ,
                    const char * __restrict  , ...) __attribute__((__nonnull__(1,2)));
   


















 
#pragma __printf_args
extern __declspec(__nothrow) int _fprintf(FILE * __restrict  ,
                     const char * __restrict  , ...) __attribute__((__nonnull__(1,2)));
   



 
#pragma __printf_args
extern __declspec(__nothrow) int printf(const char * __restrict  , ...) __attribute__((__nonnull__(1)));
   




 
#pragma __printf_args
extern __declspec(__nothrow) int _printf(const char * __restrict  , ...) __attribute__((__nonnull__(1)));
   



 
#pragma __printf_args
extern __declspec(__nothrow) int sprintf(char * __restrict  , const char * __restrict  , ...) __attribute__((__nonnull__(1,2)));
   






 
#pragma __printf_args
extern __declspec(__nothrow) int _sprintf(char * __restrict  , const char * __restrict  , ...) __attribute__((__nonnull__(1,2)));
   



 

#pragma __printf_args
extern __declspec(__nothrow) int snprintf(char * __restrict  , size_t  ,
                     const char * __restrict  , ...) __attribute__((__nonnull__(3)));
   















 

#pragma __printf_args
extern __declspec(__nothrow) int _snprintf(char * __restrict  , size_t  ,
                      const char * __restrict  , ...) __attribute__((__nonnull__(3)));
   



 
#pragma __scanf_args
extern __declspec(__nothrow) int fscanf(FILE * __restrict  ,
                    const char * __restrict  , ...) __attribute__((__nonnull__(1,2)));
   






























 
#pragma __scanf_args
extern __declspec(__nothrow) int _fscanf(FILE * __restrict  ,
                     const char * __restrict  , ...) __attribute__((__nonnull__(1,2)));
   



 
#pragma __scanf_args
extern __declspec(__nothrow) int scanf(const char * __restrict  , ...) __attribute__((__nonnull__(1)));
   






 
#pragma __scanf_args
extern __declspec(__nothrow) int _scanf(const char * __restrict  , ...) __attribute__((__nonnull__(1)));
   



 
#pragma __scanf_args
extern __declspec(__nothrow) int sscanf(const char * __restrict  ,
                    const char * __restrict  , ...) __attribute__((__nonnull__(1,2)));
   








 
#pragma __scanf_args
extern __declspec(__nothrow) int _sscanf(const char * __restrict  ,
                     const char * __restrict  , ...) __attribute__((__nonnull__(1,2)));
   



 

 
extern __declspec(__nothrow) int vfscanf(FILE * __restrict  , const char * __restrict  , __va_list) __attribute__((__nonnull__(1,2)));
extern __declspec(__nothrow) int vscanf(const char * __restrict  , __va_list) __attribute__((__nonnull__(1)));
extern __declspec(__nothrow) int vsscanf(const char * __restrict  , const char * __restrict  , __va_list) __attribute__((__nonnull__(1,2)));

extern __declspec(__nothrow) int _vfscanf(FILE * __restrict  , const char * __restrict  , __va_list) __attribute__((__nonnull__(1,2)));
extern __declspec(__nothrow) int _vscanf(const char * __restrict  , __va_list) __attribute__((__nonnull__(1)));
extern __declspec(__nothrow) int _vsscanf(const char * __restrict  , const char * __restrict  , __va_list) __attribute__((__nonnull__(1,2)));

extern __declspec(__nothrow) int vprintf(const char * __restrict  , __va_list  ) __attribute__((__nonnull__(1)));
   





 
extern __declspec(__nothrow) int _vprintf(const char * __restrict  , __va_list  ) __attribute__((__nonnull__(1)));
   



 
extern __declspec(__nothrow) int vfprintf(FILE * __restrict  ,
                    const char * __restrict  , __va_list  ) __attribute__((__nonnull__(1,2)));
   






 
extern __declspec(__nothrow) int vsprintf(char * __restrict  ,
                     const char * __restrict  , __va_list  ) __attribute__((__nonnull__(1,2)));
   






 

extern __declspec(__nothrow) int vsnprintf(char * __restrict  , size_t  ,
                     const char * __restrict  , __va_list  ) __attribute__((__nonnull__(3)));
   







 

extern __declspec(__nothrow) int _vsprintf(char * __restrict  ,
                      const char * __restrict  , __va_list  ) __attribute__((__nonnull__(1,2)));
   



 
extern __declspec(__nothrow) int _vfprintf(FILE * __restrict  ,
                     const char * __restrict  , __va_list  ) __attribute__((__nonnull__(1,2)));
   



 
extern __declspec(__nothrow) int _vsnprintf(char * __restrict  , size_t  ,
                      const char * __restrict  , __va_list  ) __attribute__((__nonnull__(3)));
   



 
extern __declspec(__nothrow) int fgetc(FILE *  ) __attribute__((__nonnull__(1)));
   







 
extern __declspec(__nothrow) char *fgets(char * __restrict  , int  ,
                    FILE * __restrict  ) __attribute__((__nonnull__(1,3)));
   










 
extern __declspec(__nothrow) int fputc(int  , FILE *  ) __attribute__((__nonnull__(2)));
   







 
extern __declspec(__nothrow) int fputs(const char * __restrict  , FILE * __restrict  ) __attribute__((__nonnull__(1,2)));
   




 
extern __declspec(__nothrow) int getc(FILE *  ) __attribute__((__nonnull__(1)));
   







 




    extern __declspec(__nothrow) int (getchar)(void);

   





 
extern __declspec(__nothrow) char *gets(char *  ) __attribute__((__nonnull__(1)));
   









 
extern __declspec(__nothrow) int putc(int  , FILE *  ) __attribute__((__nonnull__(2)));
   





 




    extern __declspec(__nothrow) int (putchar)(int  );

   



 
extern __declspec(__nothrow) int puts(const char *  ) __attribute__((__nonnull__(1)));
   





 
extern __declspec(__nothrow) int ungetc(int  , FILE *  ) __attribute__((__nonnull__(2)));
   






















 

extern __declspec(__nothrow) size_t fread(void * __restrict  ,
                    size_t  , size_t  , FILE * __restrict  ) __attribute__((__nonnull__(1,4)));
   











 

extern __declspec(__nothrow) size_t __fread_bytes_avail(void * __restrict  ,
                    size_t  , FILE * __restrict  ) __attribute__((__nonnull__(1,3)));
   











 

extern __declspec(__nothrow) size_t fwrite(const void * __restrict  ,
                    size_t  , size_t  , FILE * __restrict  ) __attribute__((__nonnull__(1,4)));
   







 

extern __declspec(__nothrow) int fgetpos(FILE * __restrict  , fpos_t * __restrict  ) __attribute__((__nonnull__(1,2)));
   








 
extern __declspec(__nothrow) int fseek(FILE *  , long int  , int  ) __attribute__((__nonnull__(1)));
   














 
extern __declspec(__nothrow) int fsetpos(FILE * __restrict  , const fpos_t * __restrict  ) __attribute__((__nonnull__(1,2)));
   










 
extern __declspec(__nothrow) long int ftell(FILE *  ) __attribute__((__nonnull__(1)));
   











 
extern __declspec(__nothrow) void rewind(FILE *  ) __attribute__((__nonnull__(1)));
   





 

extern __declspec(__nothrow) void clearerr(FILE *  ) __attribute__((__nonnull__(1)));
   




 

extern __declspec(__nothrow) int feof(FILE *  ) __attribute__((__nonnull__(1)));
   


 
extern __declspec(__nothrow) int ferror(FILE *  ) __attribute__((__nonnull__(1)));
   


 
extern __declspec(__nothrow) void perror(const char *  );
   









 

extern __declspec(__nothrow) int _fisatty(FILE *   ) __attribute__((__nonnull__(1)));
    
 

extern __declspec(__nothrow) void __use_no_semihosting_swi(void);
extern __declspec(__nothrow) void __use_no_semihosting(void);
    





 











#line 985 "C:\\Keil_v5\\ARM\\ARMCC\\Bin\\..\\include\\stdio.h"



 

#line 15 "C:\\Keil_v5\\ARM\\Pack\\NordicSemiconductor\\nRF_Libraries\\3.0.1\\crc16\\crc16.c"

uint16_t crc16_compute(const uint8_t * p_data, uint32_t size, const uint16_t * p_crc)
{
    uint32_t i;
    uint16_t crc = (p_crc == 0) ? 0xffff : *p_crc;

    for (i = 0; i < size; i++)
    {
        crc  = (unsigned char)(crc >> 8) | (crc << 8);
        crc ^= p_data[i];
        crc ^= (unsigned char)(crc & 0xff) >> 4;
        crc ^= (crc << 8) << 4;
        crc ^= ((crc & 0xff) << 4) << 1;
    }

    return crc;
}
